{"nb_res":49152,"jobs":[{"id":"28978",
                     "subtime":0.000000,
                     "walltime":3693,
                     "res":170,
                     "profile":"3633",
                     "priority":0},{"id":"28979",
                     "subtime":70.000000,
                     "walltime":3600,
                     "res":170,
                     "profile":"122",
                     "priority":0},{"id":"28982",
                     "subtime":2869.000000,
                     "walltime":1200,
                     "res":256,
                     "profile":"186",
                     "priority":0},{"id":"29010",
                     "subtime":31585.000000,
                     "walltime":3700,
                     "res":170,
                     "profile":"3640",
                     "priority":0},{"id":"29080",
                     "subtime":48133.000000,
                     "walltime":300,
                     "res":1,
                     "profile":"106",
                     "priority":0},{"id":"29085",
                     "subtime":55349.000000,
                     "walltime":3692,
                     "res":170,
                     "profile":"3632",
                     "priority":0},{"id":"29087",
                     "subtime":56596.000000,
                     "walltime":21695,
                     "res":170,
                     "profile":"21635",
                     "priority":0},{"id":"29089",
                     "subtime":58210.000000,
                     "walltime":600,
                     "res":4,
                     "profile":"125",
                     "priority":0},{"id":"29138",
                     "subtime":122024.000000,
                     "walltime":7200,
                     "res":256,
                     "profile":"165",
                     "priority":0},{"id":"29159",
                     "subtime":129134.000000,
                     "walltime":600,
                     "res":1,
                     "profile":"144",
                     "priority":0},{"id":"29174",
                     "subtime":133991.000000,
                     "walltime":600,
                     "res":4,
                     "profile":"131",
                     "priority":0},{"id":"29266",
                     "subtime":226636.000000,
                     "walltime":21600,
                     "res":170,
                     "profile":"21555",
                     "priority":0},{"id":"29374",
                     "subtime":296741.000000,
                     "walltime":1500,
                     "res":32,
                     "profile":"939",
                     "priority":0},{"id":"29472",
                     "subtime":335100.000000,
                     "walltime":21600,
                     "res":128,
                     "profile":"138",
                     "priority":0},{"id":"29827",
                     "subtime":574151.000000,
                     "walltime":43616,
                     "res":128,
                     "profile":"43556",
                     "priority":0},{"id":"29966",
                     "subtime":677370.000000,
                     "walltime":3600,
                     "res":256,
                     "profile":"1313",
                     "priority":0},{"id":"29988",
                     "subtime":710404.000000,
                     "walltime":21707,
                     "res":128,
                     "profile":"21647",
                     "priority":0},{"id":"29989",
                     "subtime":710536.000000,
                     "walltime":21711,
                     "res":128,
                     "profile":"21651",
                     "priority":0},{"id":"29990",
                     "subtime":710562.000000,
                     "walltime":21695,
                     "res":128,
                     "profile":"21635",
                     "priority":0},{"id":"29991",
                     "subtime":710575.000000,
                     "walltime":21734,
                     "res":128,
                     "profile":"21674",
                     "priority":0},{"id":"30009",
                     "subtime":725724.000000,
                     "walltime":7301,
                     "res":128,
                     "profile":"7241",
                     "priority":0},{"id":"30165",
                     "subtime":859644.000000,
                     "walltime":21600,
                     "res":170,
                     "profile":"15684",
                     "priority":0},{"id":"30167",
                     "subtime":860226.000000,
                     "walltime":21600,
                     "res":170,
                     "profile":"14818",
                     "priority":0},{"id":"30169",
                     "subtime":860688.000000,
                     "walltime":21600,
                     "res":170,
                     "profile":"14549",
                     "priority":0},{"id":"30170",
                     "subtime":861280.000000,
                     "walltime":21600,
                     "res":170,
                     "profile":"11072",
                     "priority":0},{"id":"30246",
                     "subtime":921357.000000,
                     "walltime":14517,
                     "res":32,
                     "profile":"14457",
                     "priority":0},{"id":"30249",
                     "subtime":931731.000000,
                     "walltime":21600,
                     "res":170,
                     "profile":"21347",
                     "priority":0},{"id":"30281",
                     "subtime":939867.000000,
                     "walltime":21600,
                     "res":170,
                     "profile":"120",
                     "priority":0},{"id":"30285",
                     "subtime":942103.000000,
                     "walltime":21600,
                     "res":170,
                     "profile":"21445",
                     "priority":0},{"id":"30337",
                     "subtime":972120.000000,
                     "walltime":5400,
                     "res":170,
                     "profile":"160",
                     "priority":0},{"id":"30339",
                     "subtime":972624.000000,
                     "walltime":5400,
                     "res":170,
                     "profile":"5366",
                     "priority":0},{"id":"30390",
                     "subtime":1028081.000000,
                     "walltime":5400,
                     "res":170,
                     "profile":"5387",
                     "priority":0},{"id":"30506",
                     "subtime":1084693.000000,
                     "walltime":2400,
                     "res":256,
                     "profile":"679",
                     "priority":0},{"id":"30508",
                     "subtime":1084735.000000,
                     "walltime":2400,
                     "res":128,
                     "profile":"765",
                     "priority":0},{"id":"30509",
                     "subtime":1084786.000000,
                     "walltime":2400,
                     "res":64,
                     "profile":"994",
                     "priority":0},{"id":"30510",
                     "subtime":1084854.000000,
                     "walltime":6000,
                     "res":32,
                     "profile":"1434",
                     "priority":0},{"id":"30511",
                     "subtime":1084988.000000,
                     "walltime":6000,
                     "res":16,
                     "profile":"2431",
                     "priority":0},{"id":"30632",
                     "subtime":1156386.000000,
                     "walltime":6000,
                     "res":8,
                     "profile":"4299",
                     "priority":0},{"id":"30725",
                     "subtime":1248670.000000,
                     "walltime":21600,
                     "res":170,
                     "profile":"21446",
                     "priority":0},{"id":"30769",
                     "subtime":1277596.000000,
                     "walltime":21600,
                     "res":170,
                     "profile":"8210",
                     "priority":0},{"id":"30783",
                     "subtime":1288832.000000,
                     "walltime":21600,
                     "res":170,
                     "profile":"21421",
                     "priority":0},{"id":"30900",
                     "subtime":1351623.000000,
                     "walltime":6000,
                     "res":256,
                     "profile":"549",
                     "priority":0},{"id":"30905",
                     "subtime":1353059.000000,
                     "walltime":6000,
                     "res":256,
                     "profile":"1921",
                     "priority":0},{"id":"30917",
                     "subtime":1359066.000000,
                     "walltime":6000,
                     "res":256,
                     "profile":"464",
                     "priority":0},{"id":"30918",
                     "subtime":1359908.000000,
                     "walltime":6000,
                     "res":256,
                     "profile":"1700",
                     "priority":0},{"id":"31009",
                     "subtime":1413406.000000,
                     "walltime":6000,
                     "res":256,
                     "profile":"333",
                     "priority":0},{"id":"31051",
                     "subtime":1442310.000000,
                     "walltime":300,
                     "res":128,
                     "profile":"106",
                     "priority":0},{"id":"31472",
                     "subtime":1638584.000000,
                     "walltime":1800,
                     "res":1,
                     "profile":"118",
                     "priority":0},{"id":"31473",
                     "subtime":1638882.000000,
                     "walltime":600,
                     "res":1,
                     "profile":"405",
                     "priority":0},{"id":"31474",
                     "subtime":1639567.000000,
                     "walltime":1800,
                     "res":1,
                     "profile":"104",
                     "priority":0},{"id":"31475",
                     "subtime":1639824.000000,
                     "walltime":600,
                     "res":1,
                     "profile":"171",
                     "priority":0},{"id":"31480",
                     "subtime":1640326.000000,
                     "walltime":600,
                     "res":1,
                     "profile":"177",
                     "priority":0},{"id":"31610",
                     "subtime":1685083.000000,
                     "walltime":3600,
                     "res":128,
                     "profile":"132",
                     "priority":0},{"id":"31652",
                     "subtime":1710099.000000,
                     "walltime":4800,
                     "res":256,
                     "profile":"126",
                     "priority":0},{"id":"31675",
                     "subtime":1754172.000000,
                     "walltime":4800,
                     "res":256,
                     "profile":"1620",
                     "priority":0},{"id":"31686",
                     "subtime":1759289.000000,
                     "walltime":900,
                     "res":128,
                     "profile":"137",
                     "priority":0},{"id":"31760",
                     "subtime":1775033.000000,
                     "walltime":1800,
                     "res":256,
                     "profile":"978",
                     "priority":0},{"id":"31764",
                     "subtime":1775856.000000,
                     "walltime":1910,
                     "res":256,
                     "profile":"1850",
                     "priority":0},{"id":"31791",
                     "subtime":1786481.000000,
                     "walltime":3600,
                     "res":170,
                     "profile":"115",
                     "priority":0},{"id":"31797",
                     "subtime":1796575.000000,
                     "walltime":300,
                     "res":256,
                     "profile":"111",
                     "priority":0},{"id":"31798",
                     "subtime":1796590.000000,
                     "walltime":900,
                     "res":128,
                     "profile":"258",
                     "priority":0},{"id":"31799",
                     "subtime":1796601.000000,
                     "walltime":900,
                     "res":64,
                     "profile":"114",
                     "priority":0},{"id":"31800",
                     "subtime":1796610.000000,
                     "walltime":900,
                     "res":32,
                     "profile":"104",
                     "priority":0},{"id":"31801",
                     "subtime":1796622.000000,
                     "walltime":900,
                     "res":16,
                     "profile":"93",
                     "priority":0},{"id":"31829",
                     "subtime":1814977.000000,
                     "walltime":3600,
                     "res":170,
                     "profile":"154",
                     "priority":0},{"id":"31850",
                     "subtime":1818064.000000,
                     "walltime":3600,
                     "res":170,
                     "profile":"117",
                     "priority":0},{"id":"31867",
                     "subtime":1843718.000000,
                     "walltime":300,
                     "res":170,
                     "profile":"205",
                     "priority":0},{"id":"31868",
                     "subtime":1843794.000000,
                     "walltime":441,
                     "res":170,
                     "profile":"381",
                     "priority":0},{"id":"31892",
                     "subtime":1853463.000000,
                     "walltime":3729,
                     "res":170,
                     "profile":"3669",
                     "priority":0},{"id":"31914",
                     "subtime":1856749.000000,
                     "walltime":300,
                     "res":170,
                     "profile":"192",
                     "priority":0},{"id":"31922",
                     "subtime":1860569.000000,
                     "walltime":300,
                     "res":170,
                     "profile":"180",
                     "priority":0},{"id":"31923",
                     "subtime":1861083.000000,
                     "walltime":1001,
                     "res":16,
                     "profile":"941",
                     "priority":0},{"id":"31924",
                     "subtime":1861094.000000,
                     "walltime":900,
                     "res":64,
                     "profile":"426",
                     "priority":0},{"id":"31925",
                     "subtime":1861116.000000,
                     "walltime":900,
                     "res":256,
                     "profile":"219",
                     "priority":0},{"id":"31926",
                     "subtime":1861737.000000,
                     "walltime":900,
                     "res":64,
                     "profile":"397",
                     "priority":0},{"id":"31927",
                     "subtime":1861754.000000,
                     "walltime":900,
                     "res":32,
                     "profile":"631",
                     "priority":0},{"id":"31928",
                     "subtime":1862567.000000,
                     "walltime":1500,
                     "res":16,
                     "profile":"113",
                     "priority":0},{"id":"31942",
                     "subtime":1873405.000000,
                     "walltime":1800,
                     "res":16,
                     "profile":"1081",
                     "priority":0},{"id":"31943",
                     "subtime":1874055.000000,
                     "walltime":3695,
                     "res":1,
                     "profile":"3635",
                     "priority":0},{"id":"31989",
                     "subtime":1899797.000000,
                     "walltime":3600,
                     "res":170,
                     "profile":"218",
                     "priority":0},{"id":"31990",
                     "subtime":1899884.000000,
                     "walltime":3600,
                     "res":170,
                     "profile":"569",
                     "priority":0},{"id":"31991",
                     "subtime":1901728.000000,
                     "walltime":3700,
                     "res":85,
                     "profile":"3640",
                     "priority":0},{"id":"32003",
                     "subtime":1937025.000000,
                     "walltime":3600,
                     "res":170,
                     "profile":"194",
                     "priority":0},{"id":"32025",
                     "subtime":1946486.000000,
                     "walltime":300,
                     "res":170,
                     "profile":"180",
                     "priority":0},{"id":"32069",
                     "subtime":1987875.000000,
                     "walltime":3600,
                     "res":170,
                     "profile":"1561",
                     "priority":0},{"id":"32096",
                     "subtime":2041552.000000,
                     "walltime":3600,
                     "res":170,
                     "profile":"183",
                     "priority":0},{"id":"32097",
                     "subtime":2042198.000000,
                     "walltime":3600,
                     "res":170,
                     "profile":"2250",
                     "priority":0},{"id":"32102",
                     "subtime":2054466.000000,
                     "walltime":21600,
                     "res":170,
                     "profile":"15195",
                     "priority":0},{"id":"32103",
                     "subtime":2059921.000000,
                     "walltime":3600,
                     "res":170,
                     "profile":"1618",
                     "priority":0},{"id":"32195",
                     "subtime":2298663.000000,
                     "walltime":3719,
                     "res":170,
                     "profile":"3659",
                     "priority":0},{"id":"32196",
                     "subtime":2298800.000000,
                     "walltime":3704,
                     "res":170,
                     "profile":"3644",
                     "priority":0},{"id":"32197",
                     "subtime":2298858.000000,
                     "walltime":3714,
                     "res":170,
                     "profile":"3654",
                     "priority":0},{"id":"32214",
                     "subtime":2332954.000000,
                     "walltime":3722,
                     "res":170,
                     "profile":"3662",
                     "priority":0}],"profiles":{"3633":{"type":"delay",
                          "delay":3633,
                          "checkpoint_period":0, 
                          "checkpoint_cost":300, 
                          "recovery_cost":300, 
                          "Tfirst":0, 
                          "Rfirst":0,
                          "total_failure_rate":0.56514},"122":{"type":"delay",
                          "delay":122,
                          "checkpoint_period":0, 
                          "checkpoint_cost":300, 
                          "recovery_cost":300, 
                          "Tfirst":0, 
                          "Rfirst":0,
                          "total_failure_rate":0.56514},"186":{"type":"delay",
                          "delay":186,
                          "checkpoint_period":0, 
                          "checkpoint_cost":300, 
                          "recovery_cost":300, 
                          "Tfirst":0, 
                          "Rfirst":0,
                          "total_failure_rate":0.56514},"3640":{"type":"delay",
                          "delay":3640,
                          "checkpoint_period":0, 
                          "checkpoint_cost":300, 
                          "recovery_cost":300, 
                          "Tfirst":0, 
                          "Rfirst":0,
                          "total_failure_rate":0.56514},"106":{"type":"delay",
                          "delay":106,
                          "checkpoint_period":0, 
                          "checkpoint_cost":300, 
                          "recovery_cost":300, 
                          "Tfirst":0, 
                          "Rfirst":0,
                          "total_failure_rate":0.56514},"3632":{"type":"delay",
                          "delay":3632,
                          "checkpoint_period":0, 
                          "checkpoint_cost":300, 
                          "recovery_cost":300, 
                          "Tfirst":0, 
                          "Rfirst":0,
                          "total_failure_rate":0.56514},"21635":{"type":"delay",
                          "delay":21635,
                          "checkpoint_period":0, 
                          "checkpoint_cost":300, 
                          "recovery_cost":300, 
                          "Tfirst":0, 
                          "Rfirst":0,
                          "total_failure_rate":0.56514},"125":{"type":"delay",
                          "delay":125,
                          "checkpoint_period":0, 
                          "checkpoint_cost":300, 
                          "recovery_cost":300, 
                          "Tfirst":0, 
                          "Rfirst":0,
                          "total_failure_rate":0.56514},"165":{"type":"delay",
                          "delay":165,
                          "checkpoint_period":0, 
                          "checkpoint_cost":300, 
                          "recovery_cost":300, 
                          "Tfirst":0, 
                          "Rfirst":0,
                          "total_failure_rate":0.56514},"144":{"type":"delay",
                          "delay":144,
                          "checkpoint_period":0, 
                          "checkpoint_cost":300, 
                          "recovery_cost":300, 
                          "Tfirst":0, 
                          "Rfirst":0,
                          "total_failure_rate":0.56514},"131":{"type":"delay",
                          "delay":131,
                          "checkpoint_period":0, 
                          "checkpoint_cost":300, 
                          "recovery_cost":300, 
                          "Tfirst":0, 
                          "Rfirst":0,
                          "total_failure_rate":0.56514},"21555":{"type":"delay",
                          "delay":21555,
                          "checkpoint_period":0, 
                          "checkpoint_cost":300, 
                          "recovery_cost":300, 
                          "Tfirst":0, 
                          "Rfirst":0,
                          "total_failure_rate":0.56514},"939":{"type":"delay",
                          "delay":939,
                          "checkpoint_period":0, 
                          "checkpoint_cost":300, 
                          "recovery_cost":300, 
                          "Tfirst":0, 
                          "Rfirst":0,
                          "total_failure_rate":0.56514},"138":{"type":"delay",
                          "delay":138,
                          "checkpoint_period":0, 
                          "checkpoint_cost":300, 
                          "recovery_cost":300, 
                          "Tfirst":0, 
                          "Rfirst":0,
                          "total_failure_rate":0.56514},"43556":{"type":"delay",
                          "delay":43556,
                          "checkpoint_period":0, 
                          "checkpoint_cost":300, 
                          "recovery_cost":300, 
                          "Tfirst":0, 
                          "Rfirst":0,
                          "total_failure_rate":0.56514},"1313":{"type":"delay",
                          "delay":1313,
                          "checkpoint_period":0, 
                          "checkpoint_cost":300, 
                          "recovery_cost":300, 
                          "Tfirst":0, 
                          "Rfirst":0,
                          "total_failure_rate":0.56514},"21647":{"type":"delay",
                          "delay":21647,
                          "checkpoint_period":0, 
                          "checkpoint_cost":300, 
                          "recovery_cost":300, 
                          "Tfirst":0, 
                          "Rfirst":0,
                          "total_failure_rate":0.56514},"21651":{"type":"delay",
                          "delay":21651,
                          "checkpoint_period":0, 
                          "checkpoint_cost":300, 
                          "recovery_cost":300, 
                          "Tfirst":0, 
                          "Rfirst":0,
                          "total_failure_rate":0.56514},"21674":{"type":"delay",
                          "delay":21674,
                          "checkpoint_period":0, 
                          "checkpoint_cost":300, 
                          "recovery_cost":300, 
                          "Tfirst":0, 
                          "Rfirst":0,
                          "total_failure_rate":0.56514},"7241":{"type":"delay",
                          "delay":7241,
                          "checkpoint_period":0, 
                          "checkpoint_cost":300, 
                          "recovery_cost":300, 
                          "Tfirst":0, 
                          "Rfirst":0,
                          "total_failure_rate":0.56514},"15684":{"type":"delay",
                          "delay":15684,
                          "checkpoint_period":0, 
                          "checkpoint_cost":300, 
                          "recovery_cost":300, 
                          "Tfirst":0, 
                          "Rfirst":0,
                          "total_failure_rate":0.56514},"14818":{"type":"delay",
                          "delay":14818,
                          "checkpoint_period":0, 
                          "checkpoint_cost":300, 
                          "recovery_cost":300, 
                          "Tfirst":0, 
                          "Rfirst":0,
                          "total_failure_rate":0.56514},"14549":{"type":"delay",
                          "delay":14549,
                          "checkpoint_period":0, 
                          "checkpoint_cost":300, 
                          "recovery_cost":300, 
                          "Tfirst":0, 
                          "Rfirst":0,
                          "total_failure_rate":0.56514},"11072":{"type":"delay",
                          "delay":11072,
                          "checkpoint_period":0, 
                          "checkpoint_cost":300, 
                          "recovery_cost":300, 
                          "Tfirst":0, 
                          "Rfirst":0,
                          "total_failure_rate":0.56514},"14457":{"type":"delay",
                          "delay":14457,
                          "checkpoint_period":0, 
                          "checkpoint_cost":300, 
                          "recovery_cost":300, 
                          "Tfirst":0, 
                          "Rfirst":0,
                          "total_failure_rate":0.56514},"21347":{"type":"delay",
                          "delay":21347,
                          "checkpoint_period":0, 
                          "checkpoint_cost":300, 
                          "recovery_cost":300, 
                          "Tfirst":0, 
                          "Rfirst":0,
                          "total_failure_rate":0.56514},"120":{"type":"delay",
                          "delay":120,
                          "checkpoint_period":0, 
                          "checkpoint_cost":300, 
                          "recovery_cost":300, 
                          "Tfirst":0, 
                          "Rfirst":0,
                          "total_failure_rate":0.56514},"21445":{"type":"delay",
                          "delay":21445,
                          "checkpoint_period":0, 
                          "checkpoint_cost":300, 
                          "recovery_cost":300, 
                          "Tfirst":0, 
                          "Rfirst":0,
                          "total_failure_rate":0.56514},"160":{"type":"delay",
                          "delay":160,
                          "checkpoint_period":0, 
                          "checkpoint_cost":300, 
                          "recovery_cost":300, 
                          "Tfirst":0, 
                          "Rfirst":0,
                          "total_failure_rate":0.56514},"5366":{"type":"delay",
                          "delay":5366,
                          "checkpoint_period":0, 
                          "checkpoint_cost":300, 
                          "recovery_cost":300, 
                          "Tfirst":0, 
                          "Rfirst":0,
                          "total_failure_rate":0.56514},"5387":{"type":"delay",
                          "delay":5387,
                          "checkpoint_period":0, 
                          "checkpoint_cost":300, 
                          "recovery_cost":300, 
                          "Tfirst":0, 
                          "Rfirst":0,
                          "total_failure_rate":0.56514},"679":{"type":"delay",
                          "delay":679,
                          "checkpoint_period":0, 
                          "checkpoint_cost":300, 
                          "recovery_cost":300, 
                          "Tfirst":0, 
                          "Rfirst":0,
                          "total_failure_rate":0.56514},"765":{"type":"delay",
                          "delay":765,
                          "checkpoint_period":0, 
                          "checkpoint_cost":300, 
                          "recovery_cost":300, 
                          "Tfirst":0, 
                          "Rfirst":0,
                          "total_failure_rate":0.56514},"994":{"type":"delay",
                          "delay":994,
                          "checkpoint_period":0, 
                          "checkpoint_cost":300, 
                          "recovery_cost":300, 
                          "Tfirst":0, 
                          "Rfirst":0,
                          "total_failure_rate":0.56514},"1434":{"type":"delay",
                          "delay":1434,
                          "checkpoint_period":0, 
                          "checkpoint_cost":300, 
                          "recovery_cost":300, 
                          "Tfirst":0, 
                          "Rfirst":0,
                          "total_failure_rate":0.56514},"2431":{"type":"delay",
                          "delay":2431,
                          "checkpoint_period":0, 
                          "checkpoint_cost":300, 
                          "recovery_cost":300, 
                          "Tfirst":0, 
                          "Rfirst":0,
                          "total_failure_rate":0.56514},"4299":{"type":"delay",
                          "delay":4299,
                          "checkpoint_period":0, 
                          "checkpoint_cost":300, 
                          "recovery_cost":300, 
                          "Tfirst":0, 
                          "Rfirst":0,
                          "total_failure_rate":0.56514},"21446":{"type":"delay",
                          "delay":21446,
                          "checkpoint_period":0, 
                          "checkpoint_cost":300, 
                          "recovery_cost":300, 
                          "Tfirst":0, 
                          "Rfirst":0,
                          "total_failure_rate":0.56514},"8210":{"type":"delay",
                          "delay":8210,
                          "checkpoint_period":0, 
                          "checkpoint_cost":300, 
                          "recovery_cost":300, 
                          "Tfirst":0, 
                          "Rfirst":0,
                          "total_failure_rate":0.56514},"21421":{"type":"delay",
                          "delay":21421,
                          "checkpoint_period":0, 
                          "checkpoint_cost":300, 
                          "recovery_cost":300, 
                          "Tfirst":0, 
                          "Rfirst":0,
                          "total_failure_rate":0.56514},"549":{"type":"delay",
                          "delay":549,
                          "checkpoint_period":0, 
                          "checkpoint_cost":300, 
                          "recovery_cost":300, 
                          "Tfirst":0, 
                          "Rfirst":0,
                          "total_failure_rate":0.56514},"1921":{"type":"delay",
                          "delay":1921,
                          "checkpoint_period":0, 
                          "checkpoint_cost":300, 
                          "recovery_cost":300, 
                          "Tfirst":0, 
                          "Rfirst":0,
                          "total_failure_rate":0.56514},"464":{"type":"delay",
                          "delay":464,
                          "checkpoint_period":0, 
                          "checkpoint_cost":300, 
                          "recovery_cost":300, 
                          "Tfirst":0, 
                          "Rfirst":0,
                          "total_failure_rate":0.56514},"1700":{"type":"delay",
                          "delay":1700,
                          "checkpoint_period":0, 
                          "checkpoint_cost":300, 
                          "recovery_cost":300, 
                          "Tfirst":0, 
                          "Rfirst":0,
                          "total_failure_rate":0.56514},"333":{"type":"delay",
                          "delay":333,
                          "checkpoint_period":0, 
                          "checkpoint_cost":300, 
                          "recovery_cost":300, 
                          "Tfirst":0, 
                          "Rfirst":0,
                          "total_failure_rate":0.56514},"118":{"type":"delay",
                          "delay":118,
                          "checkpoint_period":0, 
                          "checkpoint_cost":300, 
                          "recovery_cost":300, 
                          "Tfirst":0, 
                          "Rfirst":0,
                          "total_failure_rate":0.56514},"405":{"type":"delay",
                          "delay":405,
                          "checkpoint_period":0, 
                          "checkpoint_cost":300, 
                          "recovery_cost":300, 
                          "Tfirst":0, 
                          "Rfirst":0,
                          "total_failure_rate":0.56514},"104":{"type":"delay",
                          "delay":104,
                          "checkpoint_period":0, 
                          "checkpoint_cost":300, 
                          "recovery_cost":300, 
                          "Tfirst":0, 
                          "Rfirst":0,
                          "total_failure_rate":0.56514},"171":{"type":"delay",
                          "delay":171,
                          "checkpoint_period":0, 
                          "checkpoint_cost":300, 
                          "recovery_cost":300, 
                          "Tfirst":0, 
                          "Rfirst":0,
                          "total_failure_rate":0.56514},"177":{"type":"delay",
                          "delay":177,
                          "checkpoint_period":0, 
                          "checkpoint_cost":300, 
                          "recovery_cost":300, 
                          "Tfirst":0, 
                          "Rfirst":0,
                          "total_failure_rate":0.56514},"132":{"type":"delay",
                          "delay":132,
                          "checkpoint_period":0, 
                          "checkpoint_cost":300, 
                          "recovery_cost":300, 
                          "Tfirst":0, 
                          "Rfirst":0,
                          "total_failure_rate":0.56514},"126":{"type":"delay",
                          "delay":126,
                          "checkpoint_period":0, 
                          "checkpoint_cost":300, 
                          "recovery_cost":300, 
                          "Tfirst":0, 
                          "Rfirst":0,
                          "total_failure_rate":0.56514},"1620":{"type":"delay",
                          "delay":1620,
                          "checkpoint_period":0, 
                          "checkpoint_cost":300, 
                          "recovery_cost":300, 
                          "Tfirst":0, 
                          "Rfirst":0,
                          "total_failure_rate":0.56514},"137":{"type":"delay",
                          "delay":137,
                          "checkpoint_period":0, 
                          "checkpoint_cost":300, 
                          "recovery_cost":300, 
                          "Tfirst":0, 
                          "Rfirst":0,
                          "total_failure_rate":0.56514},"978":{"type":"delay",
                          "delay":978,
                          "checkpoint_period":0, 
                          "checkpoint_cost":300, 
                          "recovery_cost":300, 
                          "Tfirst":0, 
                          "Rfirst":0,
                          "total_failure_rate":0.56514},"1850":{"type":"delay",
                          "delay":1850,
                          "checkpoint_period":0, 
                          "checkpoint_cost":300, 
                          "recovery_cost":300, 
                          "Tfirst":0, 
                          "Rfirst":0,
                          "total_failure_rate":0.56514},"115":{"type":"delay",
                          "delay":115,
                          "checkpoint_period":0, 
                          "checkpoint_cost":300, 
                          "recovery_cost":300, 
                          "Tfirst":0, 
                          "Rfirst":0,
                          "total_failure_rate":0.56514},"111":{"type":"delay",
                          "delay":111,
                          "checkpoint_period":0, 
                          "checkpoint_cost":300, 
                          "recovery_cost":300, 
                          "Tfirst":0, 
                          "Rfirst":0,
                          "total_failure_rate":0.56514},"258":{"type":"delay",
                          "delay":258,
                          "checkpoint_period":0, 
                          "checkpoint_cost":300, 
                          "recovery_cost":300, 
                          "Tfirst":0, 
                          "Rfirst":0,
                          "total_failure_rate":0.56514},"114":{"type":"delay",
                          "delay":114,
                          "checkpoint_period":0, 
                          "checkpoint_cost":300, 
                          "recovery_cost":300, 
                          "Tfirst":0, 
                          "Rfirst":0,
                          "total_failure_rate":0.56514},"93":{"type":"delay",
                          "delay":93,
                          "checkpoint_period":0, 
                          "checkpoint_cost":300, 
                          "recovery_cost":300, 
                          "Tfirst":0, 
                          "Rfirst":0,
                          "total_failure_rate":0.56514},"154":{"type":"delay",
                          "delay":154,
                          "checkpoint_period":0, 
                          "checkpoint_cost":300, 
                          "recovery_cost":300, 
                          "Tfirst":0, 
                          "Rfirst":0,
                          "total_failure_rate":0.56514},"117":{"type":"delay",
                          "delay":117,
                          "checkpoint_period":0, 
                          "checkpoint_cost":300, 
                          "recovery_cost":300, 
                          "Tfirst":0, 
                          "Rfirst":0,
                          "total_failure_rate":0.56514},"205":{"type":"delay",
                          "delay":205,
                          "checkpoint_period":0, 
                          "checkpoint_cost":300, 
                          "recovery_cost":300, 
                          "Tfirst":0, 
                          "Rfirst":0,
                          "total_failure_rate":0.56514},"381":{"type":"delay",
                          "delay":381,
                          "checkpoint_period":0, 
                          "checkpoint_cost":300, 
                          "recovery_cost":300, 
                          "Tfirst":0, 
                          "Rfirst":0,
                          "total_failure_rate":0.56514},"3669":{"type":"delay",
                          "delay":3669,
                          "checkpoint_period":0, 
                          "checkpoint_cost":300, 
                          "recovery_cost":300, 
                          "Tfirst":0, 
                          "Rfirst":0,
                          "total_failure_rate":0.56514},"192":{"type":"delay",
                          "delay":192,
                          "checkpoint_period":0, 
                          "checkpoint_cost":300, 
                          "recovery_cost":300, 
                          "Tfirst":0, 
                          "Rfirst":0,
                          "total_failure_rate":0.56514},"180":{"type":"delay",
                          "delay":180,
                          "checkpoint_period":0, 
                          "checkpoint_cost":300, 
                          "recovery_cost":300, 
                          "Tfirst":0, 
                          "Rfirst":0,
                          "total_failure_rate":0.56514},"941":{"type":"delay",
                          "delay":941,
                          "checkpoint_period":0, 
                          "checkpoint_cost":300, 
                          "recovery_cost":300, 
                          "Tfirst":0, 
                          "Rfirst":0,
                          "total_failure_rate":0.56514},"426":{"type":"delay",
                          "delay":426,
                          "checkpoint_period":0, 
                          "checkpoint_cost":300, 
                          "recovery_cost":300, 
                          "Tfirst":0, 
                          "Rfirst":0,
                          "total_failure_rate":0.56514},"219":{"type":"delay",
                          "delay":219,
                          "checkpoint_period":0, 
                          "checkpoint_cost":300, 
                          "recovery_cost":300, 
                          "Tfirst":0, 
                          "Rfirst":0,
                          "total_failure_rate":0.56514},"397":{"type":"delay",
                          "delay":397,
                          "checkpoint_period":0, 
                          "checkpoint_cost":300, 
                          "recovery_cost":300, 
                          "Tfirst":0, 
                          "Rfirst":0,
                          "total_failure_rate":0.56514},"631":{"type":"delay",
                          "delay":631,
                          "checkpoint_period":0, 
                          "checkpoint_cost":300, 
                          "recovery_cost":300, 
                          "Tfirst":0, 
                          "Rfirst":0,
                          "total_failure_rate":0.56514},"113":{"type":"delay",
                          "delay":113,
                          "checkpoint_period":0, 
                          "checkpoint_cost":300, 
                          "recovery_cost":300, 
                          "Tfirst":0, 
                          "Rfirst":0,
                          "total_failure_rate":0.56514},"1081":{"type":"delay",
                          "delay":1081,
                          "checkpoint_period":0, 
                          "checkpoint_cost":300, 
                          "recovery_cost":300, 
                          "Tfirst":0, 
                          "Rfirst":0,
                          "total_failure_rate":0.56514},"3635":{"type":"delay",
                          "delay":3635,
                          "checkpoint_period":0, 
                          "checkpoint_cost":300, 
                          "recovery_cost":300, 
                          "Tfirst":0, 
                          "Rfirst":0,
                          "total_failure_rate":0.56514},"218":{"type":"delay",
                          "delay":218,
                          "checkpoint_period":0, 
                          "checkpoint_cost":300, 
                          "recovery_cost":300, 
                          "Tfirst":0, 
                          "Rfirst":0,
                          "total_failure_rate":0.56514},"569":{"type":"delay",
                          "delay":569,
                          "checkpoint_period":0, 
                          "checkpoint_cost":300, 
                          "recovery_cost":300, 
                          "Tfirst":0, 
                          "Rfirst":0,
                          "total_failure_rate":0.56514},"194":{"type":"delay",
                          "delay":194,
                          "checkpoint_period":0, 
                          "checkpoint_cost":300, 
                          "recovery_cost":300, 
                          "Tfirst":0, 
                          "Rfirst":0,
                          "total_failure_rate":0.56514},"1561":{"type":"delay",
                          "delay":1561,
                          "checkpoint_period":0, 
                          "checkpoint_cost":300, 
                          "recovery_cost":300, 
                          "Tfirst":0, 
                          "Rfirst":0,
                          "total_failure_rate":0.56514},"183":{"type":"delay",
                          "delay":183,
                          "checkpoint_period":0, 
                          "checkpoint_cost":300, 
                          "recovery_cost":300, 
                          "Tfirst":0, 
                          "Rfirst":0,
                          "total_failure_rate":0.56514},"2250":{"type":"delay",
                          "delay":2250,
                          "checkpoint_period":0, 
                          "checkpoint_cost":300, 
                          "recovery_cost":300, 
                          "Tfirst":0, 
                          "Rfirst":0,
                          "total_failure_rate":0.56514},"15195":{"type":"delay",
                          "delay":15195,
                          "checkpoint_period":0, 
                          "checkpoint_cost":300, 
                          "recovery_cost":300, 
                          "Tfirst":0, 
                          "Rfirst":0,
                          "total_failure_rate":0.56514},"1618":{"type":"delay",
                          "delay":1618,
                          "checkpoint_period":0, 
                          "checkpoint_cost":300, 
                          "recovery_cost":300, 
                          "Tfirst":0, 
                          "Rfirst":0,
                          "total_failure_rate":0.56514},"3659":{"type":"delay",
                          "delay":3659,
                          "checkpoint_period":0, 
                          "checkpoint_cost":300, 
                          "recovery_cost":300, 
                          "Tfirst":0, 
                          "Rfirst":0,
                          "total_failure_rate":0.56514},"3644":{"type":"delay",
                          "delay":3644,
                          "checkpoint_period":0, 
                          "checkpoint_cost":300, 
                          "recovery_cost":300, 
                          "Tfirst":0, 
                          "Rfirst":0,
                          "total_failure_rate":0.56514},"3654":{"type":"delay",
                          "delay":3654,
                          "checkpoint_period":0, 
                          "checkpoint_cost":300, 
                          "recovery_cost":300, 
                          "Tfirst":0, 
                          "Rfirst":0,
                          "total_failure_rate":0.56514},"3662":{"type":"delay",
                          "delay":3662,
                          "checkpoint_period":0, 
                          "checkpoint_cost":300, 
                          "recovery_cost":300, 
                          "Tfirst":0, 
                          "Rfirst":0,
                          "total_failure_rate":0.56514}}}