{"type": "machine_unavailable", "resources": "27562", "timestamp": 66981.86}
{"type": "machine_available", "resources": "27562", "timestamp": 70581.86}
{"type": "machine_unavailable", "resources": "33506", "timestamp": 68469.62}
{"type": "machine_available", "resources": "33506", "timestamp": 72069.62}
{"type": "machine_unavailable", "resources": "19877", "timestamp": 92423.71}
{"type": "machine_available", "resources": "19877", "timestamp": 96023.71}
{"type": "machine_unavailable", "resources": "23465", "timestamp": 216112.1}
{"type": "machine_available", "resources": "23465", "timestamp": 219712.1}
{"type": "machine_unavailable", "resources": "14315", "timestamp": 247633.18}
{"type": "machine_available", "resources": "14315", "timestamp": 251233.18}
{"type": "machine_unavailable", "resources": "18470", "timestamp": 272925.52}
{"type": "machine_available", "resources": "18470", "timestamp": 276525.52}
{"type": "machine_unavailable", "resources": "6214", "timestamp": 278344.5}
{"type": "machine_available", "resources": "6214", "timestamp": 281944.5}
{"type": "machine_unavailable", "resources": "16417", "timestamp": 313023.34}
{"type": "machine_available", "resources": "16417", "timestamp": 316623.34}
{"type": "machine_unavailable", "resources": "34902", "timestamp": 470089.39}
{"type": "machine_available", "resources": "34902", "timestamp": 473689.39}
{"type": "machine_unavailable", "resources": "39446", "timestamp": 616321.46}
{"type": "machine_available", "resources": "39446", "timestamp": 619921.46}
{"type": "machine_unavailable", "resources": "20325", "timestamp": 700002.83}
{"type": "machine_available", "resources": "20325", "timestamp": 703602.83}
{"type": "machine_unavailable", "resources": "4832", "timestamp": 703746.38}
{"type": "machine_available", "resources": "4832", "timestamp": 707346.38}
{"type": "machine_unavailable", "resources": "44825", "timestamp": 786223.64}
{"type": "machine_available", "resources": "44825", "timestamp": 789823.64}
{"type": "machine_unavailable", "resources": "36687", "timestamp": 800651.43}
{"type": "machine_available", "resources": "36687", "timestamp": 804251.43}
{"type": "machine_unavailable", "resources": "28453", "timestamp": 804472.47}
{"type": "machine_available", "resources": "28453", "timestamp": 808072.47}
{"type": "machine_unavailable", "resources": "41970", "timestamp": 818155.53}
{"type": "machine_available", "resources": "41970", "timestamp": 821755.53}
{"type": "machine_unavailable", "resources": "36210", "timestamp": 906066.6}
{"type": "machine_available", "resources": "36210", "timestamp": 909666.6}
{"type": "machine_unavailable", "resources": "34167", "timestamp": 929401.53}
{"type": "machine_available", "resources": "34167", "timestamp": 933001.53}
{"type": "machine_unavailable", "resources": "35959", "timestamp": 940265.27}
{"type": "machine_available", "resources": "35959", "timestamp": 943865.27}
{"type": "machine_unavailable", "resources": "6112", "timestamp": 1029432.69}
{"type": "machine_available", "resources": "6112", "timestamp": 1033032.69}
{"type": "machine_unavailable", "resources": "26137", "timestamp": 1075221.51}
{"type": "machine_available", "resources": "26137", "timestamp": 1078821.51}
{"type": "machine_unavailable", "resources": "43788", "timestamp": 1119816.46}
{"type": "machine_available", "resources": "43788", "timestamp": 1123416.46}
{"type": "machine_unavailable", "resources": "40101", "timestamp": 1155151.84}
{"type": "machine_available", "resources": "40101", "timestamp": 1158751.84}
{"type": "machine_unavailable", "resources": "21832", "timestamp": 1179645.69}
{"type": "machine_available", "resources": "21832", "timestamp": 1183245.69}
{"type": "machine_unavailable", "resources": "21312", "timestamp": 1189711.15}
{"type": "machine_available", "resources": "21312", "timestamp": 1193311.15}
{"type": "machine_unavailable", "resources": "4127", "timestamp": 1233493.95}
{"type": "machine_available", "resources": "4127", "timestamp": 1237093.95}
{"type": "machine_unavailable", "resources": "37192", "timestamp": 1241127.36}
{"type": "machine_available", "resources": "37192", "timestamp": 1244727.36}
{"type": "machine_unavailable", "resources": "9338", "timestamp": 1250150.7}
{"type": "machine_available", "resources": "9338", "timestamp": 1253750.7}
{"type": "machine_unavailable", "resources": "29358", "timestamp": 1308667.37}
{"type": "machine_available", "resources": "29358", "timestamp": 1312267.37}
{"type": "machine_unavailable", "resources": "20975", "timestamp": 1312110.69}
{"type": "machine_available", "resources": "20975", "timestamp": 1315710.69}
{"type": "machine_unavailable", "resources": "32065", "timestamp": 1386995.73}
{"type": "machine_available", "resources": "32065", "timestamp": 1390595.73}
{"type": "machine_unavailable", "resources": "36127", "timestamp": 1391152.86}
{"type": "machine_available", "resources": "36127", "timestamp": 1394752.86}
{"type": "machine_unavailable", "resources": "8179", "timestamp": 1403537.86}
{"type": "machine_available", "resources": "8179", "timestamp": 1407137.86}
{"type": "machine_unavailable", "resources": "35408", "timestamp": 1432079.99}
{"type": "machine_available", "resources": "35408", "timestamp": 1435679.99}
{"type": "machine_unavailable", "resources": "39530", "timestamp": 1440257.53}
{"type": "machine_available", "resources": "39530", "timestamp": 1443857.53}
{"type": "machine_unavailable", "resources": "18851", "timestamp": 1468782.89}
{"type": "machine_available", "resources": "18851", "timestamp": 1472382.89}
{"type": "machine_unavailable", "resources": "39078", "timestamp": 1489978.52}
{"type": "machine_available", "resources": "39078", "timestamp": 1493578.52}
{"type": "machine_unavailable", "resources": "20777", "timestamp": 1547548.49}
{"type": "machine_available", "resources": "20777", "timestamp": 1551148.49}
{"type": "machine_unavailable", "resources": "19027", "timestamp": 1578407.66}
{"type": "machine_available", "resources": "19027", "timestamp": 1582007.66}
{"type": "machine_unavailable", "resources": "12237", "timestamp": 1585722.14}
{"type": "machine_available", "resources": "12237", "timestamp": 1589322.14}
{"type": "machine_unavailable", "resources": "43034", "timestamp": 1586929.16}
{"type": "machine_available", "resources": "43034", "timestamp": 1590529.16}
{"type": "machine_unavailable", "resources": "4527", "timestamp": 1597771.68}
{"type": "machine_available", "resources": "4527", "timestamp": 1601371.68}
{"type": "machine_unavailable", "resources": "8534", "timestamp": 1601159.92}
{"type": "machine_available", "resources": "8534", "timestamp": 1604759.92}
{"type": "machine_unavailable", "resources": "2532", "timestamp": 1676533.33}
{"type": "machine_available", "resources": "2532", "timestamp": 1680133.33}
{"type": "machine_unavailable", "resources": "45830", "timestamp": 1743064.11}
{"type": "machine_available", "resources": "45830", "timestamp": 1746664.11}
{"type": "machine_unavailable", "resources": "35428", "timestamp": 1835404.87}
{"type": "machine_available", "resources": "35428", "timestamp": 1839004.87}
{"type": "machine_unavailable", "resources": "46221", "timestamp": 1876820.24}
{"type": "machine_available", "resources": "46221", "timestamp": 1880420.24}
{"type": "machine_unavailable", "resources": "34196", "timestamp": 1903587.82}
{"type": "machine_available", "resources": "34196", "timestamp": 1907187.82}
{"type": "machine_unavailable", "resources": "14103", "timestamp": 1963684.07}
{"type": "machine_available", "resources": "14103", "timestamp": 1967284.07}
{"type": "machine_unavailable", "resources": "38653", "timestamp": 2044834.05}
{"type": "machine_available", "resources": "38653", "timestamp": 2048434.05}
{"type": "machine_unavailable", "resources": "27487", "timestamp": 2107635.15}
{"type": "machine_available", "resources": "27487", "timestamp": 2111235.15}
{"type": "machine_unavailable", "resources": "29528", "timestamp": 2138839.04}
{"type": "machine_available", "resources": "29528", "timestamp": 2142439.04}
{"type": "machine_unavailable", "resources": "42021", "timestamp": 2163267.37}
{"type": "machine_available", "resources": "42021", "timestamp": 2166867.37}
{"type": "machine_unavailable", "resources": "23420", "timestamp": 2364438.69}
{"type": "machine_available", "resources": "23420", "timestamp": 2368038.69}
{"type": "machine_unavailable", "resources": "40159", "timestamp": 2367533.4}
{"type": "machine_available", "resources": "40159", "timestamp": 2371133.4}
{"type": "machine_unavailable", "resources": "38474", "timestamp": 2371945.66}
{"type": "machine_available", "resources": "38474", "timestamp": 2375545.66}
{"type": "machine_unavailable", "resources": "12476", "timestamp": 2407753.08}
{"type": "machine_available", "resources": "12476", "timestamp": 2411353.08}
{"type": "machine_unavailable", "resources": "47938", "timestamp": 2417776.89}
{"type": "machine_available", "resources": "47938", "timestamp": 2421376.89}
{"type": "machine_unavailable", "resources": "46224", "timestamp": 2429157.7}
{"type": "machine_available", "resources": "46224", "timestamp": 2432757.7}
{"type": "machine_unavailable", "resources": "11172", "timestamp": 2438123.57}
{"type": "machine_available", "resources": "11172", "timestamp": 2441723.57}
{"type": "machine_unavailable", "resources": "4075", "timestamp": 2452677.29}
{"type": "machine_available", "resources": "4075", "timestamp": 2456277.29}
{"type": "machine_unavailable", "resources": "9591", "timestamp": 2456494.58}
{"type": "machine_available", "resources": "9591", "timestamp": 2460094.58}
{"type": "machine_unavailable", "resources": "14337", "timestamp": 2526091.54}
{"type": "machine_available", "resources": "14337", "timestamp": 2529691.54}
{"type": "machine_unavailable", "resources": "37608", "timestamp": 2527757.95}
{"type": "machine_available", "resources": "37608", "timestamp": 2531357.95}
{"type": "machine_unavailable", "resources": "35009", "timestamp": 2563962.65}
{"type": "machine_available", "resources": "35009", "timestamp": 2567562.65}
{"type": "machine_unavailable", "resources": "4849", "timestamp": 2597144.99}
{"type": "machine_available", "resources": "4849", "timestamp": 2600744.99}
{"type": "machine_unavailable", "resources": "41615", "timestamp": 2598119.14}
{"type": "machine_available", "resources": "41615", "timestamp": 2601719.14}
{"type": "machine_unavailable", "resources": "37745", "timestamp": 2605639.41}
{"type": "machine_available", "resources": "37745", "timestamp": 2609239.41}
{"type": "machine_unavailable", "resources": "5998", "timestamp": 2610228.96}
{"type": "machine_available", "resources": "5998", "timestamp": 2613828.96}
{"type": "machine_unavailable", "resources": "7605", "timestamp": 2626870.23}
{"type": "machine_available", "resources": "7605", "timestamp": 2630470.23}
{"type": "machine_unavailable", "resources": "1417", "timestamp": 2628204.78}
{"type": "machine_available", "resources": "1417", "timestamp": 2631804.78}
{"type": "machine_unavailable", "resources": "12122", "timestamp": 2635995.36}
{"type": "machine_available", "resources": "12122", "timestamp": 2639595.36}
{"type": "machine_unavailable", "resources": "31407", "timestamp": 2681580.37}
{"type": "machine_available", "resources": "31407", "timestamp": 2685180.37}
{"type": "machine_unavailable", "resources": "4003", "timestamp": 2690092.65}
{"type": "machine_available", "resources": "4003", "timestamp": 2693692.65}
{"type": "machine_unavailable", "resources": "1493", "timestamp": 2789601.37}
{"type": "machine_available", "resources": "1493", "timestamp": 2793201.37}
{"type": "machine_unavailable", "resources": "40671", "timestamp": 2817889.41}
{"type": "machine_available", "resources": "40671", "timestamp": 2821489.41}
{"type": "machine_unavailable", "resources": "17034", "timestamp": 2821742.45}
{"type": "machine_available", "resources": "17034", "timestamp": 2825342.45}
{"type": "machine_unavailable", "resources": "4716", "timestamp": 2824355.16}
{"type": "machine_available", "resources": "4716", "timestamp": 2827955.16}
{"type": "machine_unavailable", "resources": "22956", "timestamp": 2861833.93}
{"type": "machine_available", "resources": "22956", "timestamp": 2865433.93}
{"type": "machine_unavailable", "resources": "4000", "timestamp": 2882455.55}
{"type": "machine_available", "resources": "4000", "timestamp": 2886055.55}
{"type": "machine_unavailable", "resources": "2580", "timestamp": 2907671.63}
{"type": "machine_available", "resources": "2580", "timestamp": 2911271.63}
{"type": "machine_unavailable", "resources": "45830", "timestamp": 2940343.12}
{"type": "machine_available", "resources": "45830", "timestamp": 2943943.12}
{"type": "machine_unavailable", "resources": "13064", "timestamp": 3100278.12}
{"type": "machine_available", "resources": "13064", "timestamp": 3103878.12}
{"type": "machine_unavailable", "resources": "47946", "timestamp": 3111124.39}
{"type": "machine_available", "resources": "47946", "timestamp": 3114724.39}
{"type": "machine_unavailable", "resources": "37340", "timestamp": 3133994.69}
{"type": "machine_available", "resources": "37340", "timestamp": 3137594.69}
{"type": "machine_unavailable", "resources": "44082", "timestamp": 3140677.61}
{"type": "machine_available", "resources": "44082", "timestamp": 3144277.61}
{"type": "machine_unavailable", "resources": "3804", "timestamp": 3148864.77}
{"type": "machine_available", "resources": "3804", "timestamp": 3152464.77}
{"type": "machine_unavailable", "resources": "10368", "timestamp": 3204817.11}
{"type": "machine_available", "resources": "10368", "timestamp": 3208417.11}
{"type": "machine_unavailable", "resources": "22433", "timestamp": 3272031.75}
{"type": "machine_available", "resources": "22433", "timestamp": 3275631.75}
{"type": "machine_unavailable", "resources": "7681", "timestamp": 3299172.31}
{"type": "machine_available", "resources": "7681", "timestamp": 3302772.31}
{"type": "machine_unavailable", "resources": "28987", "timestamp": 3331871.15}
{"type": "machine_available", "resources": "28987", "timestamp": 3335471.15}
{"type": "machine_unavailable", "resources": "865", "timestamp": 3371306.8}
{"type": "machine_available", "resources": "865", "timestamp": 3374906.8}
{"type": "machine_unavailable", "resources": "26863", "timestamp": 3394272.99}
{"type": "machine_available", "resources": "26863", "timestamp": 3397872.99}
{"type": "machine_unavailable", "resources": "33331", "timestamp": 3477201.37}
{"type": "machine_available", "resources": "33331", "timestamp": 3480801.37}
{"type": "machine_unavailable", "resources": "42528", "timestamp": 3567024.68}
{"type": "machine_available", "resources": "42528", "timestamp": 3570624.68}
{"type": "machine_unavailable", "resources": "43097", "timestamp": 3582931.15}
{"type": "machine_available", "resources": "43097", "timestamp": 3586531.15}
{"type": "machine_unavailable", "resources": "36739", "timestamp": 3593332.5}
{"type": "machine_available", "resources": "36739", "timestamp": 3596932.5}
{"type": "machine_unavailable", "resources": "30012", "timestamp": 3635590.76}
{"type": "machine_available", "resources": "30012", "timestamp": 3639190.76}
{"type": "machine_unavailable", "resources": "22014", "timestamp": 3684304.06}
{"type": "machine_available", "resources": "22014", "timestamp": 3687904.06}
{"type": "machine_unavailable", "resources": "35672", "timestamp": 3732662.74}
{"type": "machine_available", "resources": "35672", "timestamp": 3736262.74}
{"type": "machine_unavailable", "resources": "15737", "timestamp": 3744533.07}
{"type": "machine_available", "resources": "15737", "timestamp": 3748133.07}
{"type": "machine_unavailable", "resources": "31577", "timestamp": 3796235.73}
{"type": "machine_available", "resources": "31577", "timestamp": 3799835.73}
{"type": "machine_unavailable", "resources": "18866", "timestamp": 3811867.39}
{"type": "machine_available", "resources": "18866", "timestamp": 3815467.39}
{"type": "machine_unavailable", "resources": "38684", "timestamp": 3852152.46}
{"type": "machine_available", "resources": "38684", "timestamp": 3855752.46}
{"type": "machine_unavailable", "resources": "41533", "timestamp": 3957837.24}
{"type": "machine_available", "resources": "41533", "timestamp": 3961437.24}
{"type": "machine_unavailable", "resources": "8673", "timestamp": 4027051.0}
{"type": "machine_available", "resources": "8673", "timestamp": 4030651.0}
{"type": "machine_unavailable", "resources": "25429", "timestamp": 4072318.9}
{"type": "machine_available", "resources": "25429", "timestamp": 4075918.9}
{"type": "machine_unavailable", "resources": "42652", "timestamp": 4122008.12}
{"type": "machine_available", "resources": "42652", "timestamp": 4125608.12}
{"type": "machine_unavailable", "resources": "38966", "timestamp": 4125038.16}
{"type": "machine_available", "resources": "38966", "timestamp": 4128638.16}
{"type": "machine_unavailable", "resources": "21915", "timestamp": 4132726.91}
{"type": "machine_available", "resources": "21915", "timestamp": 4136326.91}
{"type": "machine_unavailable", "resources": "14620", "timestamp": 4139007.05}
{"type": "machine_available", "resources": "14620", "timestamp": 4142607.05}
{"type": "machine_unavailable", "resources": "24815", "timestamp": 4175527.37}
{"type": "machine_available", "resources": "24815", "timestamp": 4179127.37}
{"type": "machine_unavailable", "resources": "44156", "timestamp": 4220134.32}
{"type": "machine_available", "resources": "44156", "timestamp": 4223734.32}
{"type": "machine_unavailable", "resources": "27158", "timestamp": 4250362.81}
{"type": "machine_available", "resources": "27158", "timestamp": 4253962.81}
{"type": "machine_unavailable", "resources": "45995", "timestamp": 4251516.75}
{"type": "machine_available", "resources": "45995", "timestamp": 4255116.75}
{"type": "machine_unavailable", "resources": "43397", "timestamp": 4281688.67}
{"type": "machine_available", "resources": "43397", "timestamp": 4285288.67}
{"type": "machine_unavailable", "resources": "10857", "timestamp": 4326128.97}
{"type": "machine_available", "resources": "10857", "timestamp": 4329728.97}
{"type": "machine_unavailable", "resources": "16988", "timestamp": 4347348.16}
{"type": "machine_available", "resources": "16988", "timestamp": 4350948.16}
{"type": "machine_unavailable", "resources": "29252", "timestamp": 4390873.58}
{"type": "machine_available", "resources": "29252", "timestamp": 4394473.58}
{"type": "machine_unavailable", "resources": "31933", "timestamp": 4417868.98}
{"type": "machine_available", "resources": "31933", "timestamp": 4421468.98}
{"type": "machine_unavailable", "resources": "39582", "timestamp": 4503779.38}
{"type": "machine_available", "resources": "39582", "timestamp": 4507379.38}
{"type": "machine_unavailable", "resources": "2550", "timestamp": 4554484.58}
{"type": "machine_available", "resources": "2550", "timestamp": 4558084.58}
{"type": "machine_unavailable", "resources": "20451", "timestamp": 4579049.93}
{"type": "machine_available", "resources": "20451", "timestamp": 4582649.93}
{"type": "machine_unavailable", "resources": "3267", "timestamp": 4644517.22}
{"type": "machine_available", "resources": "3267", "timestamp": 4648117.22}
{"type": "machine_unavailable", "resources": "27206", "timestamp": 4704123.21}
{"type": "machine_available", "resources": "27206", "timestamp": 4707723.21}
{"type": "machine_unavailable", "resources": "41490", "timestamp": 4711620.45}
{"type": "machine_available", "resources": "41490", "timestamp": 4715220.45}
{"type": "machine_unavailable", "resources": "47549", "timestamp": 4849970.08}
{"type": "machine_available", "resources": "47549", "timestamp": 4853570.08}
{"type": "machine_unavailable", "resources": "965", "timestamp": 4855005.11}
{"type": "machine_available", "resources": "965", "timestamp": 4858605.11}
{"type": "machine_unavailable", "resources": "44467", "timestamp": 4873504.01}
{"type": "machine_available", "resources": "44467", "timestamp": 4877104.01}
{"type": "machine_unavailable", "resources": "222", "timestamp": 4892958.43}
{"type": "machine_available", "resources": "222", "timestamp": 4896558.43}
{"type": "machine_unavailable", "resources": "47010", "timestamp": 4901605.41}
{"type": "machine_available", "resources": "47010", "timestamp": 4905205.41}
{"type": "machine_unavailable", "resources": "44286", "timestamp": 4952203.15}
{"type": "machine_available", "resources": "44286", "timestamp": 4955803.15}
{"type": "machine_unavailable", "resources": "6408", "timestamp": 4979257.49}
{"type": "machine_available", "resources": "6408", "timestamp": 4982857.49}
{"type": "machine_unavailable", "resources": "39869", "timestamp": 4986863.89}
{"type": "machine_available", "resources": "39869", "timestamp": 4990463.89}
{"type": "machine_unavailable", "resources": "19819", "timestamp": 5024582.01}
{"type": "machine_available", "resources": "19819", "timestamp": 5028182.01}
