{"type": "machine_unavailable", "resources": "27562", "timestamp": 66981.86}
{"type": "machine_available", "resources": "27562", "timestamp": 67581.86}
{"type": "machine_unavailable", "resources": "33506", "timestamp": 68469.62}
{"type": "machine_available", "resources": "33506", "timestamp": 69069.62}
{"type": "machine_unavailable", "resources": "19877", "timestamp": 92423.71}
{"type": "machine_available", "resources": "19877", "timestamp": 93023.71}
{"type": "machine_unavailable", "resources": "23465", "timestamp": 216112.1}
{"type": "machine_available", "resources": "23465", "timestamp": 216712.1}
{"type": "machine_unavailable", "resources": "14315", "timestamp": 247633.18}
{"type": "machine_available", "resources": "14315", "timestamp": 248233.18}
{"type": "machine_unavailable", "resources": "18470", "timestamp": 272925.52}
{"type": "machine_available", "resources": "18470", "timestamp": 273525.52}
{"type": "machine_unavailable", "resources": "6214", "timestamp": 278344.5}
{"type": "machine_available", "resources": "6214", "timestamp": 278944.5}
{"type": "machine_unavailable", "resources": "16417", "timestamp": 313023.34}
{"type": "machine_available", "resources": "16417", "timestamp": 313623.34}
{"type": "machine_unavailable", "resources": "34902", "timestamp": 470089.39}
{"type": "machine_available", "resources": "34902", "timestamp": 470689.39}
{"type": "machine_unavailable", "resources": "39446", "timestamp": 616321.46}
{"type": "machine_available", "resources": "39446", "timestamp": 616921.46}
{"type": "machine_unavailable", "resources": "20325", "timestamp": 700002.83}
{"type": "machine_available", "resources": "20325", "timestamp": 700602.83}
{"type": "machine_unavailable", "resources": "4832", "timestamp": 703746.38}
{"type": "machine_available", "resources": "4832", "timestamp": 704346.38}
{"type": "machine_unavailable", "resources": "44825", "timestamp": 786223.64}
{"type": "machine_available", "resources": "44825", "timestamp": 786823.64}
{"type": "machine_unavailable", "resources": "36687", "timestamp": 800651.43}
{"type": "machine_available", "resources": "36687", "timestamp": 801251.43}
{"type": "machine_unavailable", "resources": "28453", "timestamp": 804472.47}
{"type": "machine_available", "resources": "28453", "timestamp": 805072.47}
{"type": "machine_unavailable", "resources": "41970", "timestamp": 818155.53}
{"type": "machine_available", "resources": "41970", "timestamp": 818755.53}
{"type": "machine_unavailable", "resources": "36210", "timestamp": 906066.6}
{"type": "machine_available", "resources": "36210", "timestamp": 906666.6}
{"type": "machine_unavailable", "resources": "34167", "timestamp": 929401.53}
{"type": "machine_available", "resources": "34167", "timestamp": 930001.53}
{"type": "machine_unavailable", "resources": "35959", "timestamp": 940265.27}
{"type": "machine_available", "resources": "35959", "timestamp": 940865.27}
{"type": "machine_unavailable", "resources": "6112", "timestamp": 1029432.69}
{"type": "machine_available", "resources": "6112", "timestamp": 1030032.69}
{"type": "machine_unavailable", "resources": "26137", "timestamp": 1075221.51}
{"type": "machine_available", "resources": "26137", "timestamp": 1075821.51}
{"type": "machine_unavailable", "resources": "43788", "timestamp": 1119816.46}
{"type": "machine_available", "resources": "43788", "timestamp": 1120416.46}
{"type": "machine_unavailable", "resources": "40101", "timestamp": 1155151.84}
{"type": "machine_available", "resources": "40101", "timestamp": 1155751.84}
{"type": "machine_unavailable", "resources": "21832", "timestamp": 1179645.69}
{"type": "machine_available", "resources": "21832", "timestamp": 1180245.69}
{"type": "machine_unavailable", "resources": "21312", "timestamp": 1189711.15}
{"type": "machine_available", "resources": "21312", "timestamp": 1190311.15}
{"type": "machine_unavailable", "resources": "4127", "timestamp": 1233493.95}
{"type": "machine_available", "resources": "4127", "timestamp": 1234093.95}
{"type": "machine_unavailable", "resources": "37192", "timestamp": 1241127.36}
{"type": "machine_available", "resources": "37192", "timestamp": 1241727.36}
{"type": "machine_unavailable", "resources": "9338", "timestamp": 1250150.7}
{"type": "machine_available", "resources": "9338", "timestamp": 1250750.7}
{"type": "machine_unavailable", "resources": "29358", "timestamp": 1308667.37}
{"type": "machine_available", "resources": "29358", "timestamp": 1309267.37}
{"type": "machine_unavailable", "resources": "20975", "timestamp": 1312110.69}
{"type": "machine_available", "resources": "20975", "timestamp": 1312710.69}
{"type": "machine_unavailable", "resources": "32065", "timestamp": 1386995.73}
{"type": "machine_available", "resources": "32065", "timestamp": 1387595.73}
{"type": "machine_unavailable", "resources": "36127", "timestamp": 1391152.86}
{"type": "machine_available", "resources": "36127", "timestamp": 1391752.86}
{"type": "machine_unavailable", "resources": "8179", "timestamp": 1403537.86}
{"type": "machine_available", "resources": "8179", "timestamp": 1404137.86}
{"type": "machine_unavailable", "resources": "35408", "timestamp": 1432079.99}
{"type": "machine_available", "resources": "35408", "timestamp": 1432679.99}
{"type": "machine_unavailable", "resources": "39530", "timestamp": 1440257.53}
{"type": "machine_available", "resources": "39530", "timestamp": 1440857.53}
{"type": "machine_unavailable", "resources": "18851", "timestamp": 1468782.89}
{"type": "machine_available", "resources": "18851", "timestamp": 1469382.89}
{"type": "machine_unavailable", "resources": "39078", "timestamp": 1489978.52}
{"type": "machine_available", "resources": "39078", "timestamp": 1490578.52}
{"type": "machine_unavailable", "resources": "20777", "timestamp": 1547548.49}
{"type": "machine_available", "resources": "20777", "timestamp": 1548148.49}
{"type": "machine_unavailable", "resources": "19027", "timestamp": 1578407.66}
{"type": "machine_available", "resources": "19027", "timestamp": 1579007.66}
{"type": "machine_unavailable", "resources": "12237", "timestamp": 1585722.14}
{"type": "machine_available", "resources": "12237", "timestamp": 1586322.14}
{"type": "machine_unavailable", "resources": "43034", "timestamp": 1586929.16}
{"type": "machine_available", "resources": "43034", "timestamp": 1587529.16}
{"type": "machine_unavailable", "resources": "4527", "timestamp": 1597771.68}
{"type": "machine_available", "resources": "4527", "timestamp": 1598371.68}
{"type": "machine_unavailable", "resources": "8534", "timestamp": 1601159.92}
{"type": "machine_available", "resources": "8534", "timestamp": 1601759.92}
{"type": "machine_unavailable", "resources": "2532", "timestamp": 1676533.33}
{"type": "machine_available", "resources": "2532", "timestamp": 1677133.33}
{"type": "machine_unavailable", "resources": "45830", "timestamp": 1743064.11}
{"type": "machine_available", "resources": "45830", "timestamp": 1743664.11}
{"type": "machine_unavailable", "resources": "35428", "timestamp": 1835404.87}
{"type": "machine_available", "resources": "35428", "timestamp": 1836004.87}
{"type": "machine_unavailable", "resources": "46221", "timestamp": 1876820.24}
{"type": "machine_available", "resources": "46221", "timestamp": 1877420.24}
{"type": "machine_unavailable", "resources": "34196", "timestamp": 1903587.82}
{"type": "machine_available", "resources": "34196", "timestamp": 1904187.82}
{"type": "machine_unavailable", "resources": "14103", "timestamp": 1963684.07}
{"type": "machine_available", "resources": "14103", "timestamp": 1964284.07}
{"type": "machine_unavailable", "resources": "38653", "timestamp": 2044834.05}
{"type": "machine_available", "resources": "38653", "timestamp": 2045434.05}
{"type": "machine_unavailable", "resources": "27487", "timestamp": 2107635.15}
{"type": "machine_available", "resources": "27487", "timestamp": 2108235.15}
{"type": "machine_unavailable", "resources": "29528", "timestamp": 2138839.04}
{"type": "machine_available", "resources": "29528", "timestamp": 2139439.04}
{"type": "machine_unavailable", "resources": "42021", "timestamp": 2163267.37}
{"type": "machine_available", "resources": "42021", "timestamp": 2163867.37}
{"type": "machine_unavailable", "resources": "23420", "timestamp": 2364438.69}
{"type": "machine_available", "resources": "23420", "timestamp": 2365038.69}
{"type": "machine_unavailable", "resources": "40159", "timestamp": 2367533.4}
{"type": "machine_available", "resources": "40159", "timestamp": 2368133.4}
{"type": "machine_unavailable", "resources": "38474", "timestamp": 2371945.66}
{"type": "machine_available", "resources": "38474", "timestamp": 2372545.66}
{"type": "machine_unavailable", "resources": "12476", "timestamp": 2407753.08}
{"type": "machine_available", "resources": "12476", "timestamp": 2408353.08}
{"type": "machine_unavailable", "resources": "47938", "timestamp": 2417776.89}
{"type": "machine_available", "resources": "47938", "timestamp": 2418376.89}
{"type": "machine_unavailable", "resources": "46224", "timestamp": 2429157.7}
{"type": "machine_available", "resources": "46224", "timestamp": 2429757.7}
{"type": "machine_unavailable", "resources": "11172", "timestamp": 2438123.57}
{"type": "machine_available", "resources": "11172", "timestamp": 2438723.57}
{"type": "machine_unavailable", "resources": "4075", "timestamp": 2452677.29}
{"type": "machine_available", "resources": "4075", "timestamp": 2453277.29}
{"type": "machine_unavailable", "resources": "9591", "timestamp": 2456494.58}
{"type": "machine_available", "resources": "9591", "timestamp": 2457094.58}
{"type": "machine_unavailable", "resources": "14337", "timestamp": 2526091.54}
{"type": "machine_available", "resources": "14337", "timestamp": 2526691.54}
{"type": "machine_unavailable", "resources": "37608", "timestamp": 2527757.95}
{"type": "machine_available", "resources": "37608", "timestamp": 2528357.95}
{"type": "machine_unavailable", "resources": "35009", "timestamp": 2563962.65}
{"type": "machine_available", "resources": "35009", "timestamp": 2564562.65}
{"type": "machine_unavailable", "resources": "4849", "timestamp": 2597144.99}
{"type": "machine_available", "resources": "4849", "timestamp": 2597744.99}
{"type": "machine_unavailable", "resources": "41615", "timestamp": 2598119.14}
{"type": "machine_available", "resources": "41615", "timestamp": 2598719.14}
{"type": "machine_unavailable", "resources": "37745", "timestamp": 2605639.41}
{"type": "machine_available", "resources": "37745", "timestamp": 2606239.41}
{"type": "machine_unavailable", "resources": "5998", "timestamp": 2610228.96}
{"type": "machine_available", "resources": "5998", "timestamp": 2610828.96}
{"type": "machine_unavailable", "resources": "7605", "timestamp": 2626870.23}
{"type": "machine_available", "resources": "7605", "timestamp": 2627470.23}
{"type": "machine_unavailable", "resources": "1417", "timestamp": 2628204.78}
{"type": "machine_available", "resources": "1417", "timestamp": 2628804.78}
{"type": "machine_unavailable", "resources": "12122", "timestamp": 2635995.36}
{"type": "machine_available", "resources": "12122", "timestamp": 2636595.36}
{"type": "machine_unavailable", "resources": "31407", "timestamp": 2681580.37}
{"type": "machine_available", "resources": "31407", "timestamp": 2682180.37}
{"type": "machine_unavailable", "resources": "4003", "timestamp": 2690092.65}
{"type": "machine_available", "resources": "4003", "timestamp": 2690692.65}
{"type": "machine_unavailable", "resources": "1493", "timestamp": 2789601.37}
{"type": "machine_available", "resources": "1493", "timestamp": 2790201.37}
{"type": "machine_unavailable", "resources": "40671", "timestamp": 2817889.41}
{"type": "machine_available", "resources": "40671", "timestamp": 2818489.41}
{"type": "machine_unavailable", "resources": "17034", "timestamp": 2821742.45}
{"type": "machine_available", "resources": "17034", "timestamp": 2822342.45}
{"type": "machine_unavailable", "resources": "4716", "timestamp": 2824355.16}
{"type": "machine_available", "resources": "4716", "timestamp": 2824955.16}
{"type": "machine_unavailable", "resources": "22956", "timestamp": 2861833.93}
{"type": "machine_available", "resources": "22956", "timestamp": 2862433.93}
{"type": "machine_unavailable", "resources": "4000", "timestamp": 2882455.55}
{"type": "machine_available", "resources": "4000", "timestamp": 2883055.55}
{"type": "machine_unavailable", "resources": "2580", "timestamp": 2907671.63}
{"type": "machine_available", "resources": "2580", "timestamp": 2908271.63}
{"type": "machine_unavailable", "resources": "45830", "timestamp": 2940343.12}
{"type": "machine_available", "resources": "45830", "timestamp": 2940943.12}
{"type": "machine_unavailable", "resources": "13064", "timestamp": 3100278.12}
{"type": "machine_available", "resources": "13064", "timestamp": 3100878.12}
{"type": "machine_unavailable", "resources": "47946", "timestamp": 3111124.39}
{"type": "machine_available", "resources": "47946", "timestamp": 3111724.39}
{"type": "machine_unavailable", "resources": "37340", "timestamp": 3133994.69}
{"type": "machine_available", "resources": "37340", "timestamp": 3134594.69}
{"type": "machine_unavailable", "resources": "44082", "timestamp": 3140677.61}
{"type": "machine_available", "resources": "44082", "timestamp": 3141277.61}
{"type": "machine_unavailable", "resources": "3804", "timestamp": 3148864.77}
{"type": "machine_available", "resources": "3804", "timestamp": 3149464.77}
{"type": "machine_unavailable", "resources": "10368", "timestamp": 3204817.11}
{"type": "machine_available", "resources": "10368", "timestamp": 3205417.11}
{"type": "machine_unavailable", "resources": "22433", "timestamp": 3272031.75}
{"type": "machine_available", "resources": "22433", "timestamp": 3272631.75}
{"type": "machine_unavailable", "resources": "7681", "timestamp": 3299172.31}
{"type": "machine_available", "resources": "7681", "timestamp": 3299772.31}
{"type": "machine_unavailable", "resources": "28987", "timestamp": 3331871.15}
{"type": "machine_available", "resources": "28987", "timestamp": 3332471.15}
{"type": "machine_unavailable", "resources": "865", "timestamp": 3371306.8}
{"type": "machine_available", "resources": "865", "timestamp": 3371906.8}
{"type": "machine_unavailable", "resources": "26863", "timestamp": 3394272.99}
{"type": "machine_available", "resources": "26863", "timestamp": 3394872.99}
{"type": "machine_unavailable", "resources": "33331", "timestamp": 3477201.37}
{"type": "machine_available", "resources": "33331", "timestamp": 3477801.37}
{"type": "machine_unavailable", "resources": "42528", "timestamp": 3567024.68}
{"type": "machine_available", "resources": "42528", "timestamp": 3567624.68}
{"type": "machine_unavailable", "resources": "43097", "timestamp": 3582931.15}
{"type": "machine_available", "resources": "43097", "timestamp": 3583531.15}
{"type": "machine_unavailable", "resources": "36739", "timestamp": 3593332.5}
{"type": "machine_available", "resources": "36739", "timestamp": 3593932.5}
{"type": "machine_unavailable", "resources": "30012", "timestamp": 3635590.76}
{"type": "machine_available", "resources": "30012", "timestamp": 3636190.76}
{"type": "machine_unavailable", "resources": "22014", "timestamp": 3684304.06}
{"type": "machine_available", "resources": "22014", "timestamp": 3684904.06}
{"type": "machine_unavailable", "resources": "35672", "timestamp": 3732662.74}
{"type": "machine_available", "resources": "35672", "timestamp": 3733262.74}
{"type": "machine_unavailable", "resources": "15737", "timestamp": 3744533.07}
{"type": "machine_available", "resources": "15737", "timestamp": 3745133.07}
{"type": "machine_unavailable", "resources": "31577", "timestamp": 3796235.73}
{"type": "machine_available", "resources": "31577", "timestamp": 3796835.73}
{"type": "machine_unavailable", "resources": "18866", "timestamp": 3811867.39}
{"type": "machine_available", "resources": "18866", "timestamp": 3812467.39}
{"type": "machine_unavailable", "resources": "38684", "timestamp": 3852152.46}
{"type": "machine_available", "resources": "38684", "timestamp": 3852752.46}
{"type": "machine_unavailable", "resources": "41533", "timestamp": 3957837.24}
{"type": "machine_available", "resources": "41533", "timestamp": 3958437.24}
{"type": "machine_unavailable", "resources": "8673", "timestamp": 4027051.0}
{"type": "machine_available", "resources": "8673", "timestamp": 4027651.0}
{"type": "machine_unavailable", "resources": "25429", "timestamp": 4072318.9}
{"type": "machine_available", "resources": "25429", "timestamp": 4072918.9}
{"type": "machine_unavailable", "resources": "42652", "timestamp": 4122008.12}
{"type": "machine_available", "resources": "42652", "timestamp": 4122608.12}
{"type": "machine_unavailable", "resources": "38966", "timestamp": 4125038.16}
{"type": "machine_available", "resources": "38966", "timestamp": 4125638.16}
{"type": "machine_unavailable", "resources": "21915", "timestamp": 4132726.91}
{"type": "machine_available", "resources": "21915", "timestamp": 4133326.91}
{"type": "machine_unavailable", "resources": "14620", "timestamp": 4139007.05}
{"type": "machine_available", "resources": "14620", "timestamp": 4139607.05}
{"type": "machine_unavailable", "resources": "24815", "timestamp": 4175527.37}
{"type": "machine_available", "resources": "24815", "timestamp": 4176127.37}
{"type": "machine_unavailable", "resources": "44156", "timestamp": 4220134.32}
{"type": "machine_available", "resources": "44156", "timestamp": 4220734.32}
{"type": "machine_unavailable", "resources": "27158", "timestamp": 4250362.81}
{"type": "machine_available", "resources": "27158", "timestamp": 4250962.81}
{"type": "machine_unavailable", "resources": "45995", "timestamp": 4251516.75}
{"type": "machine_available", "resources": "45995", "timestamp": 4252116.75}
{"type": "machine_unavailable", "resources": "43397", "timestamp": 4281688.67}
{"type": "machine_available", "resources": "43397", "timestamp": 4282288.67}
{"type": "machine_unavailable", "resources": "10857", "timestamp": 4326128.97}
{"type": "machine_available", "resources": "10857", "timestamp": 4326728.97}
{"type": "machine_unavailable", "resources": "16988", "timestamp": 4347348.16}
{"type": "machine_available", "resources": "16988", "timestamp": 4347948.16}
{"type": "machine_unavailable", "resources": "29252", "timestamp": 4390873.58}
{"type": "machine_available", "resources": "29252", "timestamp": 4391473.58}
{"type": "machine_unavailable", "resources": "31933", "timestamp": 4417868.98}
{"type": "machine_available", "resources": "31933", "timestamp": 4418468.98}
{"type": "machine_unavailable", "resources": "39582", "timestamp": 4503779.38}
{"type": "machine_available", "resources": "39582", "timestamp": 4504379.38}
{"type": "machine_unavailable", "resources": "2550", "timestamp": 4554484.58}
{"type": "machine_available", "resources": "2550", "timestamp": 4555084.58}
{"type": "machine_unavailable", "resources": "20451", "timestamp": 4579049.93}
{"type": "machine_available", "resources": "20451", "timestamp": 4579649.93}
{"type": "machine_unavailable", "resources": "3267", "timestamp": 4644517.22}
{"type": "machine_available", "resources": "3267", "timestamp": 4645117.22}
{"type": "machine_unavailable", "resources": "27206", "timestamp": 4704123.21}
{"type": "machine_available", "resources": "27206", "timestamp": 4704723.21}
{"type": "machine_unavailable", "resources": "41490", "timestamp": 4711620.45}
{"type": "machine_available", "resources": "41490", "timestamp": 4712220.45}
{"type": "machine_unavailable", "resources": "47549", "timestamp": 4849970.08}
{"type": "machine_available", "resources": "47549", "timestamp": 4850570.08}
{"type": "machine_unavailable", "resources": "965", "timestamp": 4855005.11}
{"type": "machine_available", "resources": "965", "timestamp": 4855605.11}
{"type": "machine_unavailable", "resources": "44467", "timestamp": 4873504.01}
{"type": "machine_available", "resources": "44467", "timestamp": 4874104.01}
{"type": "machine_unavailable", "resources": "222", "timestamp": 4892958.43}
{"type": "machine_available", "resources": "222", "timestamp": 4893558.43}
{"type": "machine_unavailable", "resources": "47010", "timestamp": 4901605.41}
{"type": "machine_available", "resources": "47010", "timestamp": 4902205.41}
{"type": "machine_unavailable", "resources": "44286", "timestamp": 4952203.15}
{"type": "machine_available", "resources": "44286", "timestamp": 4952803.15}
{"type": "machine_unavailable", "resources": "6408", "timestamp": 4979257.49}
{"type": "machine_available", "resources": "6408", "timestamp": 4979857.49}
{"type": "machine_unavailable", "resources": "39869", "timestamp": 4986863.89}
{"type": "machine_available", "resources": "39869", "timestamp": 4987463.89}
{"type": "machine_unavailable", "resources": "19819", "timestamp": 5024582.01}
{"type": "machine_available", "resources": "19819", "timestamp": 5025182.01}
