{"type": "machine_unavailable", "resources": "6761", "timestamp": 9693.02}
{"type": "machine_available", "resources": "6761", "timestamp": 10293.02}
{"type": "machine_unavailable", "resources": "31383", "timestamp": 55676.58}
{"type": "machine_available", "resources": "31383", "timestamp": 56276.58}
{"type": "machine_unavailable", "resources": "4359", "timestamp": 61738.47}
{"type": "machine_available", "resources": "4359", "timestamp": 62338.47}
{"type": "machine_unavailable", "resources": "36005", "timestamp": 62459.05}
{"type": "machine_available", "resources": "36005", "timestamp": 63059.05}
{"type": "machine_unavailable", "resources": "3856", "timestamp": 152476.62}
{"type": "machine_available", "resources": "3856", "timestamp": 153076.62}
{"type": "machine_unavailable", "resources": "35171", "timestamp": 161510.33}
{"type": "machine_available", "resources": "35171", "timestamp": 162110.33}
{"type": "machine_unavailable", "resources": "11315", "timestamp": 177590.44}
{"type": "machine_available", "resources": "11315", "timestamp": 178190.44}
{"type": "machine_unavailable", "resources": "17152", "timestamp": 240724.44}
{"type": "machine_available", "resources": "17152", "timestamp": 241324.44}
{"type": "machine_unavailable", "resources": "1680", "timestamp": 249411.53}
{"type": "machine_available", "resources": "1680", "timestamp": 250011.53}
{"type": "machine_unavailable", "resources": "17056", "timestamp": 312974.0}
{"type": "machine_available", "resources": "17056", "timestamp": 313574.0}
{"type": "machine_unavailable", "resources": "12676", "timestamp": 370994.47}
{"type": "machine_available", "resources": "12676", "timestamp": 371594.47}
{"type": "machine_unavailable", "resources": "18981", "timestamp": 377478.28}
{"type": "machine_available", "resources": "18981", "timestamp": 378078.28}
{"type": "machine_unavailable", "resources": "47965", "timestamp": 412978.29}
{"type": "machine_available", "resources": "47965", "timestamp": 413578.29}
{"type": "machine_unavailable", "resources": "24405", "timestamp": 529698.22}
{"type": "machine_available", "resources": "24405", "timestamp": 530298.22}
{"type": "machine_unavailable", "resources": "39705", "timestamp": 532963.81}
{"type": "machine_available", "resources": "39705", "timestamp": 533563.81}
{"type": "machine_unavailable", "resources": "25423", "timestamp": 547780.96}
{"type": "machine_available", "resources": "25423", "timestamp": 548380.96}
{"type": "machine_unavailable", "resources": "11651", "timestamp": 573165.5}
{"type": "machine_available", "resources": "11651", "timestamp": 573765.5}
{"type": "machine_unavailable", "resources": "18349", "timestamp": 583393.75}
{"type": "machine_available", "resources": "18349", "timestamp": 583993.75}
{"type": "machine_unavailable", "resources": "35890", "timestamp": 586763.08}
{"type": "machine_available", "resources": "35890", "timestamp": 587363.08}
{"type": "machine_unavailable", "resources": "472", "timestamp": 652840.27}
{"type": "machine_available", "resources": "472", "timestamp": 653440.27}
{"type": "machine_unavailable", "resources": "37510", "timestamp": 739077.24}
{"type": "machine_available", "resources": "37510", "timestamp": 739677.24}
{"type": "machine_unavailable", "resources": "20431", "timestamp": 783013.96}
{"type": "machine_available", "resources": "20431", "timestamp": 783613.96}
{"type": "machine_unavailable", "resources": "33316", "timestamp": 850843.89}
{"type": "machine_available", "resources": "33316", "timestamp": 851443.89}
{"type": "machine_unavailable", "resources": "27769", "timestamp": 858658.36}
{"type": "machine_available", "resources": "27769", "timestamp": 859258.36}
{"type": "machine_unavailable", "resources": "28248", "timestamp": 891547.08}
{"type": "machine_available", "resources": "28248", "timestamp": 892147.08}
{"type": "machine_unavailable", "resources": "15284", "timestamp": 913159.15}
{"type": "machine_available", "resources": "15284", "timestamp": 913759.15}
{"type": "machine_unavailable", "resources": "2833", "timestamp": 926263.29}
{"type": "machine_available", "resources": "2833", "timestamp": 926863.29}
{"type": "machine_unavailable", "resources": "30321", "timestamp": 929307.14}
{"type": "machine_available", "resources": "30321", "timestamp": 929907.14}
{"type": "machine_unavailable", "resources": "18378", "timestamp": 964746.9}
{"type": "machine_available", "resources": "18378", "timestamp": 965346.9}
{"type": "machine_unavailable", "resources": "42467", "timestamp": 991085.3}
{"type": "machine_available", "resources": "42467", "timestamp": 991685.3}
{"type": "machine_unavailable", "resources": "22468", "timestamp": 1014025.25}
{"type": "machine_available", "resources": "22468", "timestamp": 1014625.25}
{"type": "machine_unavailable", "resources": "44156", "timestamp": 1019667.43}
{"type": "machine_available", "resources": "44156", "timestamp": 1020267.43}
{"type": "machine_unavailable", "resources": "27052", "timestamp": 1027501.95}
{"type": "machine_available", "resources": "27052", "timestamp": 1028101.95}
{"type": "machine_unavailable", "resources": "41616", "timestamp": 1115629.19}
{"type": "machine_available", "resources": "41616", "timestamp": 1116229.19}
{"type": "machine_unavailable", "resources": "18107", "timestamp": 1151682.51}
{"type": "machine_available", "resources": "18107", "timestamp": 1152282.51}
{"type": "machine_unavailable", "resources": "28568", "timestamp": 1158989.71}
{"type": "machine_available", "resources": "28568", "timestamp": 1159589.71}
{"type": "machine_unavailable", "resources": "21015", "timestamp": 1208458.72}
{"type": "machine_available", "resources": "21015", "timestamp": 1209058.72}
{"type": "machine_unavailable", "resources": "13022", "timestamp": 1244685.65}
{"type": "machine_available", "resources": "13022", "timestamp": 1245285.65}
{"type": "machine_unavailable", "resources": "6617", "timestamp": 1329166.66}
{"type": "machine_available", "resources": "6617", "timestamp": 1329766.66}
{"type": "machine_unavailable", "resources": "46410", "timestamp": 1395010.75}
{"type": "machine_available", "resources": "46410", "timestamp": 1395610.75}
{"type": "machine_unavailable", "resources": "38155", "timestamp": 1404367.06}
{"type": "machine_available", "resources": "38155", "timestamp": 1404967.06}
{"type": "machine_unavailable", "resources": "15559", "timestamp": 1438769.91}
{"type": "machine_available", "resources": "15559", "timestamp": 1439369.91}
{"type": "machine_unavailable", "resources": "11635", "timestamp": 1443459.78}
{"type": "machine_available", "resources": "11635", "timestamp": 1444059.78}
{"type": "machine_unavailable", "resources": "1682", "timestamp": 1455836.33}
{"type": "machine_available", "resources": "1682", "timestamp": 1456436.33}
{"type": "machine_unavailable", "resources": "45697", "timestamp": 1457411.5}
{"type": "machine_available", "resources": "45697", "timestamp": 1458011.5}
{"type": "machine_unavailable", "resources": "18722", "timestamp": 1460515.53}
{"type": "machine_available", "resources": "18722", "timestamp": 1461115.53}
{"type": "machine_unavailable", "resources": "21438", "timestamp": 1508307.87}
{"type": "machine_available", "resources": "21438", "timestamp": 1508907.87}
{"type": "machine_unavailable", "resources": "18939", "timestamp": 1508968.65}
{"type": "machine_available", "resources": "18939", "timestamp": 1509568.65}
{"type": "machine_unavailable", "resources": "10021", "timestamp": 1522941.34}
{"type": "machine_available", "resources": "10021", "timestamp": 1523541.34}
{"type": "machine_unavailable", "resources": "26897", "timestamp": 1576679.25}
{"type": "machine_available", "resources": "26897", "timestamp": 1577279.25}
{"type": "machine_unavailable", "resources": "40665", "timestamp": 1647814.14}
{"type": "machine_available", "resources": "40665", "timestamp": 1648414.14}
{"type": "machine_unavailable", "resources": "5095", "timestamp": 1688838.69}
{"type": "machine_available", "resources": "5095", "timestamp": 1689438.69}
{"type": "machine_unavailable", "resources": "12544", "timestamp": 1701341.67}
{"type": "machine_available", "resources": "12544", "timestamp": 1701941.67}
{"type": "machine_unavailable", "resources": "19136", "timestamp": 1782165.48}
{"type": "machine_available", "resources": "19136", "timestamp": 1782765.48}
{"type": "machine_unavailable", "resources": "25010", "timestamp": 1787446.29}
{"type": "machine_available", "resources": "25010", "timestamp": 1788046.29}
{"type": "machine_unavailable", "resources": "10413", "timestamp": 1820325.79}
{"type": "machine_available", "resources": "10413", "timestamp": 1820925.79}
{"type": "machine_unavailable", "resources": "615", "timestamp": 1834813.29}
{"type": "machine_available", "resources": "615", "timestamp": 1835413.29}
{"type": "machine_unavailable", "resources": "29804", "timestamp": 1851067.14}
{"type": "machine_available", "resources": "29804", "timestamp": 1851667.14}
{"type": "machine_unavailable", "resources": "23771", "timestamp": 1857756.23}
{"type": "machine_available", "resources": "23771", "timestamp": 1858356.23}
{"type": "machine_unavailable", "resources": "37450", "timestamp": 2069180.13}
{"type": "machine_available", "resources": "37450", "timestamp": 2069780.13}
{"type": "machine_unavailable", "resources": "13581", "timestamp": 2072857.38}
{"type": "machine_available", "resources": "13581", "timestamp": 2073457.38}
{"type": "machine_unavailable", "resources": "13626", "timestamp": 2092713.73}
{"type": "machine_available", "resources": "13626", "timestamp": 2093313.73}
{"type": "machine_unavailable", "resources": "4076", "timestamp": 2097055.6}
{"type": "machine_available", "resources": "4076", "timestamp": 2097655.6}
{"type": "machine_unavailable", "resources": "11053", "timestamp": 2099102.44}
{"type": "machine_available", "resources": "11053", "timestamp": 2099702.44}
{"type": "machine_unavailable", "resources": "9806", "timestamp": 2131689.27}
{"type": "machine_available", "resources": "9806", "timestamp": 2132289.27}
{"type": "machine_unavailable", "resources": "35797", "timestamp": 2165267.14}
{"type": "machine_available", "resources": "35797", "timestamp": 2165867.14}
{"type": "machine_unavailable", "resources": "16322", "timestamp": 2189554.7}
{"type": "machine_available", "resources": "16322", "timestamp": 2190154.7}
{"type": "machine_unavailable", "resources": "2331", "timestamp": 2203514.49}
{"type": "machine_available", "resources": "2331", "timestamp": 2204114.49}
{"type": "machine_unavailable", "resources": "34684", "timestamp": 2208209.61}
{"type": "machine_available", "resources": "34684", "timestamp": 2208809.61}
{"type": "machine_unavailable", "resources": "26825", "timestamp": 2220686.98}
{"type": "machine_available", "resources": "26825", "timestamp": 2221286.98}
{"type": "machine_unavailable", "resources": "13124", "timestamp": 2258646.78}
{"type": "machine_available", "resources": "13124", "timestamp": 2259246.78}
{"type": "machine_unavailable", "resources": "15850", "timestamp": 2282033.52}
{"type": "machine_available", "resources": "15850", "timestamp": 2282633.52}
{"type": "machine_unavailable", "resources": "32239", "timestamp": 2302830.84}
{"type": "machine_available", "resources": "32239", "timestamp": 2303430.84}
{"type": "machine_unavailable", "resources": "27605", "timestamp": 2304183.22}
{"type": "machine_available", "resources": "27605", "timestamp": 2304783.22}
{"type": "machine_unavailable", "resources": "42430", "timestamp": 2325282.53}
{"type": "machine_available", "resources": "42430", "timestamp": 2325882.53}
{"type": "machine_unavailable", "resources": "14137", "timestamp": 2404516.2}
{"type": "machine_available", "resources": "14137", "timestamp": 2405116.2}
{"type": "machine_unavailable", "resources": "2074", "timestamp": 2429367.38}
{"type": "machine_available", "resources": "2074", "timestamp": 2429967.38}
{"type": "machine_unavailable", "resources": "16605", "timestamp": 2430717.39}
{"type": "machine_available", "resources": "16605", "timestamp": 2431317.39}
{"type": "machine_unavailable", "resources": "13635", "timestamp": 2440710.46}
{"type": "machine_available", "resources": "13635", "timestamp": 2441310.46}
{"type": "machine_unavailable", "resources": "27337", "timestamp": 2493983.07}
{"type": "machine_available", "resources": "27337", "timestamp": 2494583.07}
{"type": "machine_unavailable", "resources": "9286", "timestamp": 2567350.67}
{"type": "machine_available", "resources": "9286", "timestamp": 2567950.67}
{"type": "machine_unavailable", "resources": "20612", "timestamp": 2581500.95}
{"type": "machine_available", "resources": "20612", "timestamp": 2582100.95}
{"type": "machine_unavailable", "resources": "37336", "timestamp": 2611496.18}
{"type": "machine_available", "resources": "37336", "timestamp": 2612096.18}
{"type": "machine_unavailable", "resources": "42792", "timestamp": 2630064.07}
{"type": "machine_available", "resources": "42792", "timestamp": 2630664.07}
{"type": "machine_unavailable", "resources": "47012", "timestamp": 2668268.7}
{"type": "machine_available", "resources": "47012", "timestamp": 2668868.7}
{"type": "machine_unavailable", "resources": "32393", "timestamp": 2717423.78}
{"type": "machine_available", "resources": "32393", "timestamp": 2718023.78}
{"type": "machine_unavailable", "resources": "28187", "timestamp": 2735069.6}
{"type": "machine_available", "resources": "28187", "timestamp": 2735669.6}
{"type": "machine_unavailable", "resources": "37506", "timestamp": 2743597.61}
{"type": "machine_available", "resources": "37506", "timestamp": 2744197.61}
{"type": "machine_unavailable", "resources": "10843", "timestamp": 2826405.04}
{"type": "machine_available", "resources": "10843", "timestamp": 2827005.04}
{"type": "machine_unavailable", "resources": "43051", "timestamp": 2841178.05}
{"type": "machine_available", "resources": "43051", "timestamp": 2841778.05}
{"type": "machine_unavailable", "resources": "42106", "timestamp": 2864117.25}
{"type": "machine_available", "resources": "42106", "timestamp": 2864717.25}
{"type": "machine_unavailable", "resources": "27524", "timestamp": 2877739.31}
{"type": "machine_available", "resources": "27524", "timestamp": 2878339.31}
{"type": "machine_unavailable", "resources": "42908", "timestamp": 2904769.08}
{"type": "machine_available", "resources": "42908", "timestamp": 2905369.08}
{"type": "machine_unavailable", "resources": "17583", "timestamp": 2962961.24}
{"type": "machine_available", "resources": "17583", "timestamp": 2963561.24}
{"type": "machine_unavailable", "resources": "25702", "timestamp": 2977839.74}
{"type": "machine_available", "resources": "25702", "timestamp": 2978439.74}
{"type": "machine_unavailable", "resources": "4874", "timestamp": 3090517.15}
{"type": "machine_available", "resources": "4874", "timestamp": 3091117.15}
{"type": "machine_unavailable", "resources": "18355", "timestamp": 3160941.42}
{"type": "machine_available", "resources": "18355", "timestamp": 3161541.42}
{"type": "machine_unavailable", "resources": "43801", "timestamp": 3278453.87}
{"type": "machine_available", "resources": "43801", "timestamp": 3279053.87}
{"type": "machine_unavailable", "resources": "25873", "timestamp": 3286095.76}
{"type": "machine_available", "resources": "25873", "timestamp": 3286695.76}
{"type": "machine_unavailable", "resources": "8364", "timestamp": 3368619.82}
{"type": "machine_available", "resources": "8364", "timestamp": 3369219.82}
{"type": "machine_unavailable", "resources": "17658", "timestamp": 3421033.87}
{"type": "machine_available", "resources": "17658", "timestamp": 3421633.87}
{"type": "machine_unavailable", "resources": "3963", "timestamp": 3460640.47}
{"type": "machine_available", "resources": "3963", "timestamp": 3461240.47}
{"type": "machine_unavailable", "resources": "45079", "timestamp": 3534110.55}
{"type": "machine_available", "resources": "45079", "timestamp": 3534710.55}
{"type": "machine_unavailable", "resources": "37303", "timestamp": 3570412.16}
{"type": "machine_available", "resources": "37303", "timestamp": 3571012.16}
{"type": "machine_unavailable", "resources": "26458", "timestamp": 3593416.38}
{"type": "machine_available", "resources": "26458", "timestamp": 3594016.38}
{"type": "machine_unavailable", "resources": "14322", "timestamp": 3687876.99}
{"type": "machine_available", "resources": "14322", "timestamp": 3688476.99}
{"type": "machine_unavailable", "resources": "13840", "timestamp": 3745460.9}
{"type": "machine_available", "resources": "13840", "timestamp": 3746060.9}
{"type": "machine_unavailable", "resources": "859", "timestamp": 3837466.04}
{"type": "machine_available", "resources": "859", "timestamp": 3838066.04}
{"type": "machine_unavailable", "resources": "16864", "timestamp": 3871364.78}
{"type": "machine_available", "resources": "16864", "timestamp": 3871964.78}
{"type": "machine_unavailable", "resources": "24974", "timestamp": 3875799.04}
{"type": "machine_available", "resources": "24974", "timestamp": 3876399.04}
{"type": "machine_unavailable", "resources": "36084", "timestamp": 3951497.45}
{"type": "machine_available", "resources": "36084", "timestamp": 3952097.45}
{"type": "machine_unavailable", "resources": "13216", "timestamp": 3953473.11}
{"type": "machine_available", "resources": "13216", "timestamp": 3954073.11}
{"type": "machine_unavailable", "resources": "39864", "timestamp": 3959831.42}
{"type": "machine_available", "resources": "39864", "timestamp": 3960431.42}
{"type": "machine_unavailable", "resources": "36855", "timestamp": 3974283.18}
{"type": "machine_available", "resources": "36855", "timestamp": 3974883.18}
{"type": "machine_unavailable", "resources": "30900", "timestamp": 4027755.29}
{"type": "machine_available", "resources": "30900", "timestamp": 4028355.29}
{"type": "machine_unavailable", "resources": "28812", "timestamp": 4116598.64}
{"type": "machine_available", "resources": "28812", "timestamp": 4117198.64}
{"type": "machine_unavailable", "resources": "2240", "timestamp": 4117561.57}
{"type": "machine_available", "resources": "2240", "timestamp": 4118161.57}
{"type": "machine_unavailable", "resources": "7400", "timestamp": 4160359.97}
{"type": "machine_available", "resources": "7400", "timestamp": 4160959.97}
{"type": "machine_unavailable", "resources": "16839", "timestamp": 4184517.97}
{"type": "machine_available", "resources": "16839", "timestamp": 4185117.97}
{"type": "machine_unavailable", "resources": "9093", "timestamp": 4218243.23}
{"type": "machine_available", "resources": "9093", "timestamp": 4218843.23}
{"type": "machine_unavailable", "resources": "5222", "timestamp": 4219764.47}
{"type": "machine_available", "resources": "5222", "timestamp": 4220364.47}
{"type": "machine_unavailable", "resources": "34274", "timestamp": 4272295.92}
{"type": "machine_available", "resources": "34274", "timestamp": 4272895.92}
{"type": "machine_unavailable", "resources": "19460", "timestamp": 4357049.07}
{"type": "machine_available", "resources": "19460", "timestamp": 4357649.07}
{"type": "machine_unavailable", "resources": "4897", "timestamp": 4422505.74}
{"type": "machine_available", "resources": "4897", "timestamp": 4423105.74}
{"type": "machine_unavailable", "resources": "35610", "timestamp": 4425709.21}
{"type": "machine_available", "resources": "35610", "timestamp": 4426309.21}
{"type": "machine_unavailable", "resources": "13457", "timestamp": 4447478.94}
{"type": "machine_available", "resources": "13457", "timestamp": 4448078.94}
{"type": "machine_unavailable", "resources": "20392", "timestamp": 4503217.16}
{"type": "machine_available", "resources": "20392", "timestamp": 4503817.16}
{"type": "machine_unavailable", "resources": "31893", "timestamp": 4520931.1}
{"type": "machine_available", "resources": "31893", "timestamp": 4521531.1}
{"type": "machine_unavailable", "resources": "26218", "timestamp": 4590565.91}
{"type": "machine_available", "resources": "26218", "timestamp": 4591165.91}
{"type": "machine_unavailable", "resources": "7500", "timestamp": 4594164.2}
{"type": "machine_available", "resources": "7500", "timestamp": 4594764.2}
{"type": "machine_unavailable", "resources": "23978", "timestamp": 4683229.31}
{"type": "machine_available", "resources": "23978", "timestamp": 4683829.31}
{"type": "machine_unavailable", "resources": "28439", "timestamp": 4709092.18}
{"type": "machine_available", "resources": "28439", "timestamp": 4709692.18}
{"type": "machine_unavailable", "resources": "46611", "timestamp": 4728448.33}
{"type": "machine_available", "resources": "46611", "timestamp": 4729048.33}
{"type": "machine_unavailable", "resources": "4385", "timestamp": 4782402.6}
{"type": "machine_available", "resources": "4385", "timestamp": 4783002.6}
{"type": "machine_unavailable", "resources": "12835", "timestamp": 4818058.99}
{"type": "machine_available", "resources": "12835", "timestamp": 4818658.99}
{"type": "machine_unavailable", "resources": "31370", "timestamp": 4854533.42}
{"type": "machine_available", "resources": "31370", "timestamp": 4855133.42}
{"type": "machine_unavailable", "resources": "36588", "timestamp": 4874296.89}
{"type": "machine_available", "resources": "36588", "timestamp": 4874896.89}
{"type": "machine_unavailable", "resources": "10670", "timestamp": 4880891.16}
{"type": "machine_available", "resources": "10670", "timestamp": 4881491.16}
{"type": "machine_unavailable", "resources": "9784", "timestamp": 4887875.55}
{"type": "machine_available", "resources": "9784", "timestamp": 4888475.55}
{"type": "machine_unavailable", "resources": "22189", "timestamp": 4902108.1}
{"type": "machine_available", "resources": "22189", "timestamp": 4902708.1}
{"type": "machine_unavailable", "resources": "319", "timestamp": 4912880.38}
{"type": "machine_available", "resources": "319", "timestamp": 4913480.38}
{"type": "machine_unavailable", "resources": "364", "timestamp": 4957507.44}
{"type": "machine_available", "resources": "364", "timestamp": 4958107.44}
{"type": "machine_unavailable", "resources": "7926", "timestamp": 4995106.58}
{"type": "machine_available", "resources": "7926", "timestamp": 4995706.58}
{"type": "machine_unavailable", "resources": "31883", "timestamp": 5023450.99}
{"type": "machine_available", "resources": "31883", "timestamp": 5024050.99}
