{"type": "machine_unavailable", "resources": "6761", "timestamp": 4846.51}
{"type": "machine_available", "resources": "6761", "timestamp": 91246.51}
{"type": "machine_unavailable", "resources": "31383", "timestamp": 27838.29}
{"type": "machine_available", "resources": "31383", "timestamp": 114238.29}
{"type": "machine_unavailable", "resources": "4359", "timestamp": 30869.24}
{"type": "machine_available", "resources": "4359", "timestamp": 117269.24}
{"type": "machine_unavailable", "resources": "36005", "timestamp": 31229.53}
{"type": "machine_available", "resources": "36005", "timestamp": 117629.53}
{"type": "machine_unavailable", "resources": "3856", "timestamp": 76238.31}
{"type": "machine_available", "resources": "3856", "timestamp": 162638.31}
{"type": "machine_unavailable", "resources": "35171", "timestamp": 80755.17}
{"type": "machine_available", "resources": "35171", "timestamp": 167155.17}
{"type": "machine_unavailable", "resources": "11315", "timestamp": 88795.23}
{"type": "machine_available", "resources": "11315", "timestamp": 175195.23}
{"type": "machine_unavailable", "resources": "17152", "timestamp": 120362.23}
{"type": "machine_available", "resources": "17152", "timestamp": 206762.23}
{"type": "machine_unavailable", "resources": "1680", "timestamp": 124705.78}
{"type": "machine_available", "resources": "1680", "timestamp": 211105.78}
{"type": "machine_unavailable", "resources": "17056", "timestamp": 156487.02}
{"type": "machine_available", "resources": "17056", "timestamp": 242887.02}
{"type": "machine_unavailable", "resources": "12676", "timestamp": 185497.25}
{"type": "machine_available", "resources": "12676", "timestamp": 271897.25}
{"type": "machine_unavailable", "resources": "18981", "timestamp": 188739.16}
{"type": "machine_available", "resources": "18981", "timestamp": 275139.16}
{"type": "machine_unavailable", "resources": "47965", "timestamp": 206489.17}
{"type": "machine_available", "resources": "47965", "timestamp": 292889.17}
{"type": "machine_unavailable", "resources": "24405", "timestamp": 264849.13}
{"type": "machine_available", "resources": "24405", "timestamp": 351249.13}
{"type": "machine_unavailable", "resources": "39705", "timestamp": 266481.93}
{"type": "machine_available", "resources": "39705", "timestamp": 352881.93}
{"type": "machine_unavailable", "resources": "25423", "timestamp": 273890.51}
{"type": "machine_available", "resources": "25423", "timestamp": 360290.51}
{"type": "machine_unavailable", "resources": "11651", "timestamp": 286582.78}
{"type": "machine_available", "resources": "11651", "timestamp": 372982.78}
{"type": "machine_unavailable", "resources": "18349", "timestamp": 291696.91}
{"type": "machine_available", "resources": "18349", "timestamp": 378096.91}
{"type": "machine_unavailable", "resources": "35890", "timestamp": 293381.57}
{"type": "machine_available", "resources": "35890", "timestamp": 379781.57}
{"type": "machine_unavailable", "resources": "472", "timestamp": 326420.16}
{"type": "machine_available", "resources": "472", "timestamp": 412820.16}
{"type": "machine_unavailable", "resources": "37510", "timestamp": 369538.65}
{"type": "machine_available", "resources": "37510", "timestamp": 455938.65}
{"type": "machine_unavailable", "resources": "20431", "timestamp": 391507.01}
{"type": "machine_available", "resources": "20431", "timestamp": 477907.01}
{"type": "machine_unavailable", "resources": "33316", "timestamp": 425421.98}
{"type": "machine_available", "resources": "33316", "timestamp": 511821.98}
{"type": "machine_unavailable", "resources": "27769", "timestamp": 429329.21}
{"type": "machine_available", "resources": "27769", "timestamp": 515729.21}
{"type": "machine_unavailable", "resources": "28248", "timestamp": 445773.57}
{"type": "machine_available", "resources": "28248", "timestamp": 532173.57}
{"type": "machine_unavailable", "resources": "15284", "timestamp": 456579.61}
{"type": "machine_available", "resources": "15284", "timestamp": 542979.61}
{"type": "machine_unavailable", "resources": "2833", "timestamp": 463131.68}
{"type": "machine_available", "resources": "2833", "timestamp": 549531.68}
{"type": "machine_unavailable", "resources": "30321", "timestamp": 464653.6}
{"type": "machine_available", "resources": "30321", "timestamp": 551053.6}
{"type": "machine_unavailable", "resources": "18378", "timestamp": 482373.48}
{"type": "machine_available", "resources": "18378", "timestamp": 568773.48}
{"type": "machine_unavailable", "resources": "42467", "timestamp": 495542.68}
{"type": "machine_available", "resources": "42467", "timestamp": 581942.68}
{"type": "machine_unavailable", "resources": "22468", "timestamp": 507012.65}
{"type": "machine_available", "resources": "22468", "timestamp": 593412.65}
{"type": "machine_unavailable", "resources": "44156", "timestamp": 509833.74}
{"type": "machine_available", "resources": "44156", "timestamp": 596233.74}
{"type": "machine_unavailable", "resources": "27052", "timestamp": 513751.0}
{"type": "machine_available", "resources": "27052", "timestamp": 600151.0}
{"type": "machine_unavailable", "resources": "41616", "timestamp": 557814.62}
{"type": "machine_available", "resources": "41616", "timestamp": 644214.62}
{"type": "machine_unavailable", "resources": "18107", "timestamp": 575841.28}
{"type": "machine_available", "resources": "18107", "timestamp": 662241.28}
{"type": "machine_unavailable", "resources": "28568", "timestamp": 579494.88}
{"type": "machine_available", "resources": "28568", "timestamp": 665894.88}
{"type": "machine_unavailable", "resources": "21015", "timestamp": 604229.39}
{"type": "machine_available", "resources": "21015", "timestamp": 690629.39}
{"type": "machine_unavailable", "resources": "13022", "timestamp": 622342.85}
{"type": "machine_available", "resources": "13022", "timestamp": 708742.85}
{"type": "machine_unavailable", "resources": "6617", "timestamp": 664583.36}
{"type": "machine_available", "resources": "6617", "timestamp": 750983.36}
{"type": "machine_unavailable", "resources": "46410", "timestamp": 697505.4}
{"type": "machine_available", "resources": "46410", "timestamp": 783905.4}
{"type": "machine_unavailable", "resources": "38155", "timestamp": 702183.56}
{"type": "machine_available", "resources": "38155", "timestamp": 788583.56}
{"type": "machine_unavailable", "resources": "15559", "timestamp": 719384.99}
{"type": "machine_available", "resources": "15559", "timestamp": 805784.99}
{"type": "machine_unavailable", "resources": "11635", "timestamp": 721729.93}
{"type": "machine_available", "resources": "11635", "timestamp": 808129.93}
{"type": "machine_unavailable", "resources": "1682", "timestamp": 727918.2}
{"type": "machine_available", "resources": "1682", "timestamp": 814318.2}
{"type": "machine_unavailable", "resources": "45697", "timestamp": 728705.78}
{"type": "machine_available", "resources": "45697", "timestamp": 815105.78}
{"type": "machine_unavailable", "resources": "18722", "timestamp": 730257.79}
{"type": "machine_available", "resources": "18722", "timestamp": 816657.79}
{"type": "machine_unavailable", "resources": "21438", "timestamp": 754153.96}
{"type": "machine_available", "resources": "21438", "timestamp": 840553.96}
{"type": "machine_unavailable", "resources": "18939", "timestamp": 754484.35}
{"type": "machine_available", "resources": "18939", "timestamp": 840884.35}
{"type": "machine_unavailable", "resources": "10021", "timestamp": 761470.7}
{"type": "machine_available", "resources": "10021", "timestamp": 847870.7}
{"type": "machine_unavailable", "resources": "26897", "timestamp": 788339.65}
{"type": "machine_available", "resources": "26897", "timestamp": 874739.65}
{"type": "machine_unavailable", "resources": "40665", "timestamp": 823907.09}
{"type": "machine_available", "resources": "40665", "timestamp": 910307.09}
{"type": "machine_unavailable", "resources": "5095", "timestamp": 844419.37}
{"type": "machine_available", "resources": "5095", "timestamp": 930819.37}
{"type": "machine_unavailable", "resources": "12544", "timestamp": 850670.86}
{"type": "machine_available", "resources": "12544", "timestamp": 937070.86}
{"type": "machine_unavailable", "resources": "19136", "timestamp": 891082.77}
{"type": "machine_available", "resources": "19136", "timestamp": 977482.77}
{"type": "machine_unavailable", "resources": "25010", "timestamp": 893723.17}
{"type": "machine_available", "resources": "25010", "timestamp": 980123.17}
{"type": "machine_unavailable", "resources": "10413", "timestamp": 910162.92}
{"type": "machine_available", "resources": "10413", "timestamp": 996562.92}
{"type": "machine_unavailable", "resources": "615", "timestamp": 917406.67}
{"type": "machine_available", "resources": "615", "timestamp": 1003806.67}
{"type": "machine_unavailable", "resources": "29804", "timestamp": 925533.59}
{"type": "machine_available", "resources": "29804", "timestamp": 1011933.59}
{"type": "machine_unavailable", "resources": "23771", "timestamp": 928878.14}
{"type": "machine_available", "resources": "23771", "timestamp": 1015278.14}
{"type": "machine_unavailable", "resources": "37450", "timestamp": 1034590.09}
{"type": "machine_available", "resources": "37450", "timestamp": 1120990.09}
{"type": "machine_unavailable", "resources": "13581", "timestamp": 1036428.72}
{"type": "machine_available", "resources": "13581", "timestamp": 1122828.72}
{"type": "machine_unavailable", "resources": "13626", "timestamp": 1046356.89}
{"type": "machine_available", "resources": "13626", "timestamp": 1132756.89}
{"type": "machine_unavailable", "resources": "4076", "timestamp": 1048527.83}
{"type": "machine_available", "resources": "4076", "timestamp": 1134927.83}
{"type": "machine_unavailable", "resources": "11053", "timestamp": 1049551.25}
{"type": "machine_available", "resources": "11053", "timestamp": 1135951.25}
{"type": "machine_unavailable", "resources": "9806", "timestamp": 1065844.66}
{"type": "machine_available", "resources": "9806", "timestamp": 1152244.66}
{"type": "machine_unavailable", "resources": "35797", "timestamp": 1082633.6}
{"type": "machine_available", "resources": "35797", "timestamp": 1169033.6}
{"type": "machine_unavailable", "resources": "16322", "timestamp": 1094777.38}
{"type": "machine_available", "resources": "16322", "timestamp": 1181177.38}
{"type": "machine_unavailable", "resources": "2331", "timestamp": 1101757.28}
{"type": "machine_available", "resources": "2331", "timestamp": 1188157.28}
{"type": "machine_unavailable", "resources": "34684", "timestamp": 1104104.84}
{"type": "machine_available", "resources": "34684", "timestamp": 1190504.84}
{"type": "machine_unavailable", "resources": "26825", "timestamp": 1110343.53}
{"type": "machine_available", "resources": "26825", "timestamp": 1196743.53}
{"type": "machine_unavailable", "resources": "13124", "timestamp": 1129323.43}
{"type": "machine_available", "resources": "13124", "timestamp": 1215723.43}
{"type": "machine_unavailable", "resources": "15850", "timestamp": 1141016.8}
{"type": "machine_available", "resources": "15850", "timestamp": 1227416.8}
{"type": "machine_unavailable", "resources": "32239", "timestamp": 1151415.46}
{"type": "machine_available", "resources": "32239", "timestamp": 1237815.46}
{"type": "machine_unavailable", "resources": "27605", "timestamp": 1152091.65}
{"type": "machine_available", "resources": "27605", "timestamp": 1238491.65}
{"type": "machine_unavailable", "resources": "42430", "timestamp": 1162641.3}
{"type": "machine_available", "resources": "42430", "timestamp": 1249041.3}
{"type": "machine_unavailable", "resources": "14137", "timestamp": 1202258.13}
{"type": "machine_available", "resources": "14137", "timestamp": 1288658.13}
{"type": "machine_unavailable", "resources": "2074", "timestamp": 1214683.72}
{"type": "machine_available", "resources": "2074", "timestamp": 1301083.72}
{"type": "machine_unavailable", "resources": "16605", "timestamp": 1215358.73}
{"type": "machine_available", "resources": "16605", "timestamp": 1301758.73}
{"type": "machine_unavailable", "resources": "13635", "timestamp": 1220355.27}
{"type": "machine_available", "resources": "13635", "timestamp": 1306755.27}
{"type": "machine_unavailable", "resources": "27337", "timestamp": 1246991.58}
{"type": "machine_available", "resources": "27337", "timestamp": 1333391.58}
{"type": "machine_unavailable", "resources": "9286", "timestamp": 1283675.38}
{"type": "machine_available", "resources": "9286", "timestamp": 1370075.38}
{"type": "machine_unavailable", "resources": "20612", "timestamp": 1290750.52}
{"type": "machine_available", "resources": "20612", "timestamp": 1377150.52}
{"type": "machine_unavailable", "resources": "37336", "timestamp": 1305748.13}
{"type": "machine_available", "resources": "37336", "timestamp": 1392148.13}
{"type": "machine_unavailable", "resources": "42792", "timestamp": 1315032.07}
{"type": "machine_available", "resources": "42792", "timestamp": 1401432.07}
{"type": "machine_unavailable", "resources": "47012", "timestamp": 1334134.39}
{"type": "machine_available", "resources": "47012", "timestamp": 1420534.39}
{"type": "machine_unavailable", "resources": "32393", "timestamp": 1358711.93}
{"type": "machine_available", "resources": "32393", "timestamp": 1445111.93}
{"type": "machine_unavailable", "resources": "28187", "timestamp": 1367534.84}
{"type": "machine_available", "resources": "28187", "timestamp": 1453934.84}
{"type": "machine_unavailable", "resources": "37506", "timestamp": 1371798.85}
{"type": "machine_available", "resources": "37506", "timestamp": 1458198.85}
{"type": "machine_unavailable", "resources": "10843", "timestamp": 1413202.57}
{"type": "machine_available", "resources": "10843", "timestamp": 1499602.57}
{"type": "machine_unavailable", "resources": "43051", "timestamp": 1420589.08}
{"type": "machine_available", "resources": "43051", "timestamp": 1506989.08}
{"type": "machine_unavailable", "resources": "42106", "timestamp": 1432058.68}
{"type": "machine_available", "resources": "42106", "timestamp": 1518458.68}
{"type": "machine_unavailable", "resources": "27524", "timestamp": 1438869.71}
{"type": "machine_available", "resources": "27524", "timestamp": 1525269.71}
{"type": "machine_unavailable", "resources": "42908", "timestamp": 1452384.59}
{"type": "machine_available", "resources": "42908", "timestamp": 1538784.59}
{"type": "machine_unavailable", "resources": "17583", "timestamp": 1481480.67}
{"type": "machine_available", "resources": "17583", "timestamp": 1567880.67}
{"type": "machine_unavailable", "resources": "25702", "timestamp": 1488919.92}
{"type": "machine_available", "resources": "25702", "timestamp": 1575319.92}
{"type": "machine_unavailable", "resources": "4874", "timestamp": 1545258.63}
{"type": "machine_available", "resources": "4874", "timestamp": 1631658.63}
{"type": "machine_unavailable", "resources": "18355", "timestamp": 1580470.77}
{"type": "machine_available", "resources": "18355", "timestamp": 1666870.77}
{"type": "machine_unavailable", "resources": "43801", "timestamp": 1639226.99}
{"type": "machine_available", "resources": "43801", "timestamp": 1725626.99}
{"type": "machine_unavailable", "resources": "25873", "timestamp": 1643047.94}
{"type": "machine_available", "resources": "25873", "timestamp": 1729447.94}
{"type": "machine_unavailable", "resources": "8364", "timestamp": 1684309.97}
{"type": "machine_available", "resources": "8364", "timestamp": 1770709.97}
{"type": "machine_unavailable", "resources": "17658", "timestamp": 1710516.99}
{"type": "machine_available", "resources": "17658", "timestamp": 1796916.99}
{"type": "machine_unavailable", "resources": "3963", "timestamp": 1730320.29}
{"type": "machine_available", "resources": "3963", "timestamp": 1816720.29}
{"type": "machine_unavailable", "resources": "45079", "timestamp": 1767055.33}
{"type": "machine_available", "resources": "45079", "timestamp": 1853455.33}
{"type": "machine_unavailable", "resources": "37303", "timestamp": 1785206.13}
{"type": "machine_available", "resources": "37303", "timestamp": 1871606.13}
{"type": "machine_unavailable", "resources": "26458", "timestamp": 1796708.24}
{"type": "machine_available", "resources": "26458", "timestamp": 1883108.24}
{"type": "machine_unavailable", "resources": "14322", "timestamp": 1843938.55}
{"type": "machine_available", "resources": "14322", "timestamp": 1930338.55}
{"type": "machine_unavailable", "resources": "13840", "timestamp": 1872730.51}
{"type": "machine_available", "resources": "13840", "timestamp": 1959130.51}
{"type": "machine_unavailable", "resources": "859", "timestamp": 1918733.08}
{"type": "machine_available", "resources": "859", "timestamp": 2005133.08}
{"type": "machine_unavailable", "resources": "16864", "timestamp": 1935682.45}
{"type": "machine_available", "resources": "16864", "timestamp": 2022082.45}
{"type": "machine_unavailable", "resources": "24974", "timestamp": 1937899.58}
{"type": "machine_available", "resources": "24974", "timestamp": 2024299.58}
{"type": "machine_unavailable", "resources": "36084", "timestamp": 1975748.79}
{"type": "machine_available", "resources": "36084", "timestamp": 2062148.79}
{"type": "machine_unavailable", "resources": "13216", "timestamp": 1976736.62}
{"type": "machine_available", "resources": "13216", "timestamp": 2063136.62}
{"type": "machine_unavailable", "resources": "39864", "timestamp": 1979915.77}
{"type": "machine_available", "resources": "39864", "timestamp": 2066315.77}
{"type": "machine_unavailable", "resources": "36855", "timestamp": 1987141.65}
{"type": "machine_available", "resources": "36855", "timestamp": 2073541.65}
{"type": "machine_unavailable", "resources": "30900", "timestamp": 2013877.71}
{"type": "machine_available", "resources": "30900", "timestamp": 2100277.71}
{"type": "machine_unavailable", "resources": "28812", "timestamp": 2058299.38}
{"type": "machine_available", "resources": "28812", "timestamp": 2144699.38}
{"type": "machine_unavailable", "resources": "2240", "timestamp": 2058780.84}
{"type": "machine_available", "resources": "2240", "timestamp": 2145180.84}
{"type": "machine_unavailable", "resources": "7400", "timestamp": 2080180.04}
{"type": "machine_available", "resources": "7400", "timestamp": 2166580.04}
{"type": "machine_unavailable", "resources": "16839", "timestamp": 2092259.04}
{"type": "machine_available", "resources": "16839", "timestamp": 2178659.04}
{"type": "machine_unavailable", "resources": "9093", "timestamp": 2109121.67}
{"type": "machine_available", "resources": "9093", "timestamp": 2195521.67}
{"type": "machine_unavailable", "resources": "5222", "timestamp": 2109882.29}
{"type": "machine_available", "resources": "5222", "timestamp": 2196282.29}
{"type": "machine_unavailable", "resources": "34274", "timestamp": 2136148.02}
{"type": "machine_available", "resources": "34274", "timestamp": 2222548.02}
{"type": "machine_unavailable", "resources": "19460", "timestamp": 2178524.59}
{"type": "machine_available", "resources": "19460", "timestamp": 2264924.59}
{"type": "machine_unavailable", "resources": "4897", "timestamp": 2211252.92}
{"type": "machine_available", "resources": "4897", "timestamp": 2297652.92}
{"type": "machine_unavailable", "resources": "35610", "timestamp": 2212854.66}
{"type": "machine_available", "resources": "35610", "timestamp": 2299254.66}
{"type": "machine_unavailable", "resources": "13457", "timestamp": 2223739.53}
{"type": "machine_available", "resources": "13457", "timestamp": 2310139.53}
{"type": "machine_unavailable", "resources": "20392", "timestamp": 2251608.64}
{"type": "machine_available", "resources": "20392", "timestamp": 2338008.64}
{"type": "machine_unavailable", "resources": "31893", "timestamp": 2260465.61}
{"type": "machine_available", "resources": "31893", "timestamp": 2346865.61}
{"type": "machine_unavailable", "resources": "26218", "timestamp": 2295283.02}
{"type": "machine_available", "resources": "26218", "timestamp": 2381683.02}
{"type": "machine_unavailable", "resources": "7500", "timestamp": 2297082.17}
{"type": "machine_available", "resources": "7500", "timestamp": 2383482.17}
{"type": "machine_unavailable", "resources": "23978", "timestamp": 2341614.72}
{"type": "machine_available", "resources": "23978", "timestamp": 2428014.72}
{"type": "machine_unavailable", "resources": "28439", "timestamp": 2354546.15}
{"type": "machine_available", "resources": "28439", "timestamp": 2440946.15}
{"type": "machine_unavailable", "resources": "46611", "timestamp": 2364224.22}
{"type": "machine_available", "resources": "46611", "timestamp": 2450624.22}
{"type": "machine_unavailable", "resources": "4385", "timestamp": 2391201.36}
{"type": "machine_available", "resources": "4385", "timestamp": 2477601.36}
{"type": "machine_unavailable", "resources": "12835", "timestamp": 2409029.56}
{"type": "machine_available", "resources": "12835", "timestamp": 2495429.56}
{"type": "machine_unavailable", "resources": "31370", "timestamp": 2427266.78}
{"type": "machine_available", "resources": "31370", "timestamp": 2513666.78}
{"type": "machine_unavailable", "resources": "36588", "timestamp": 2437148.51}
{"type": "machine_available", "resources": "36588", "timestamp": 2523548.51}
{"type": "machine_unavailable", "resources": "10670", "timestamp": 2440445.65}
{"type": "machine_available", "resources": "10670", "timestamp": 2526845.65}
{"type": "machine_unavailable", "resources": "9784", "timestamp": 2443937.84}
{"type": "machine_available", "resources": "9784", "timestamp": 2530337.84}
{"type": "machine_unavailable", "resources": "22189", "timestamp": 2451054.12}
{"type": "machine_available", "resources": "22189", "timestamp": 2537454.12}
{"type": "machine_unavailable", "resources": "319", "timestamp": 2456440.26}
{"type": "machine_available", "resources": "319", "timestamp": 2542840.26}
{"type": "machine_unavailable", "resources": "364", "timestamp": 2478753.79}
{"type": "machine_available", "resources": "364", "timestamp": 2565153.79}
{"type": "machine_unavailable", "resources": "7926", "timestamp": 2497553.36}
{"type": "machine_available", "resources": "7926", "timestamp": 2583953.36}
{"type": "machine_unavailable", "resources": "31883", "timestamp": 2511725.56}
{"type": "machine_available", "resources": "31883", "timestamp": 2598125.56}
{"type": "machine_unavailable", "resources": "39386", "timestamp": 2539496.12}
{"type": "machine_available", "resources": "39386", "timestamp": 2625896.12}
{"type": "machine_unavailable", "resources": "4960", "timestamp": 2551414.5}
{"type": "machine_available", "resources": "4960", "timestamp": 2637814.5}
{"type": "machine_unavailable", "resources": "26946", "timestamp": 2564652.76}
{"type": "machine_available", "resources": "26946", "timestamp": 2651052.76}
{"type": "machine_unavailable", "resources": "23382", "timestamp": 2598511.67}
{"type": "machine_available", "resources": "23382", "timestamp": 2684911.67}
{"type": "machine_unavailable", "resources": "11823", "timestamp": 2603197.75}
{"type": "machine_available", "resources": "11823", "timestamp": 2689597.75}
{"type": "machine_unavailable", "resources": "41071", "timestamp": 2679785.02}
{"type": "machine_available", "resources": "41071", "timestamp": 2766185.02}
{"type": "machine_unavailable", "resources": "3468", "timestamp": 2679815.51}
{"type": "machine_available", "resources": "3468", "timestamp": 2766215.51}
{"type": "machine_unavailable", "resources": "20530", "timestamp": 2696743.01}
{"type": "machine_available", "resources": "20530", "timestamp": 2783143.01}
{"type": "machine_unavailable", "resources": "30607", "timestamp": 2710881.08}
{"type": "machine_available", "resources": "30607", "timestamp": 2797281.08}
{"type": "machine_unavailable", "resources": "37246", "timestamp": 2738337.22}
{"type": "machine_available", "resources": "37246", "timestamp": 2824737.22}
{"type": "machine_unavailable", "resources": "33204", "timestamp": 2744903.25}
{"type": "machine_available", "resources": "33204", "timestamp": 2831303.25}
{"type": "machine_unavailable", "resources": "40173", "timestamp": 2772726.86}
{"type": "machine_available", "resources": "40173", "timestamp": 2859126.86}
{"type": "machine_unavailable", "resources": "25677", "timestamp": 2790023.43}
{"type": "machine_available", "resources": "25677", "timestamp": 2876423.43}
{"type": "machine_unavailable", "resources": "39130", "timestamp": 2792752.22}
{"type": "machine_available", "resources": "39130", "timestamp": 2879152.22}
{"type": "machine_unavailable", "resources": "43390", "timestamp": 2800846.79}
{"type": "machine_available", "resources": "43390", "timestamp": 2887246.79}
{"type": "machine_unavailable", "resources": "28403", "timestamp": 2808327.27}
{"type": "machine_available", "resources": "28403", "timestamp": 2894727.27}
{"type": "machine_unavailable", "resources": "9433", "timestamp": 2809878.3}
{"type": "machine_available", "resources": "9433", "timestamp": 2896278.3}
{"type": "machine_unavailable", "resources": "40771", "timestamp": 2830130.52}
{"type": "machine_available", "resources": "40771", "timestamp": 2916530.52}
{"type": "machine_unavailable", "resources": "24378", "timestamp": 2833651.53}
{"type": "machine_available", "resources": "24378", "timestamp": 2920051.53}
{"type": "machine_unavailable", "resources": "22966", "timestamp": 2837611.66}
{"type": "machine_available", "resources": "22966", "timestamp": 2924011.66}
{"type": "machine_unavailable", "resources": "6125", "timestamp": 2857840.56}
{"type": "machine_available", "resources": "6125", "timestamp": 2944240.56}
{"type": "machine_unavailable", "resources": "42315", "timestamp": 2859284.02}
{"type": "machine_available", "resources": "42315", "timestamp": 2945684.02}
{"type": "machine_unavailable", "resources": "11775", "timestamp": 2908816.69}
{"type": "machine_available", "resources": "11775", "timestamp": 2995216.69}
{"type": "machine_unavailable", "resources": "24372", "timestamp": 2916015.82}
{"type": "machine_available", "resources": "24372", "timestamp": 3002415.82}
{"type": "machine_unavailable", "resources": "19698", "timestamp": 2923135.24}
{"type": "machine_available", "resources": "19698", "timestamp": 3009535.24}
{"type": "machine_unavailable", "resources": "39568", "timestamp": 2961799.49}
{"type": "machine_available", "resources": "39568", "timestamp": 3048199.49}
{"type": "machine_unavailable", "resources": "5813", "timestamp": 2962164.98}
{"type": "machine_available", "resources": "5813", "timestamp": 3048564.98}
{"type": "machine_unavailable", "resources": "6448", "timestamp": 2991234.54}
{"type": "machine_available", "resources": "6448", "timestamp": 3077634.54}
{"type": "machine_unavailable", "resources": "38284", "timestamp": 2994340.05}
{"type": "machine_available", "resources": "38284", "timestamp": 3080740.05}
{"type": "machine_unavailable", "resources": "43319", "timestamp": 3072562.41}
{"type": "machine_available", "resources": "43319", "timestamp": 3158962.41}
{"type": "machine_unavailable", "resources": "5039", "timestamp": 3087916.37}
{"type": "machine_available", "resources": "5039", "timestamp": 3174316.37}
{"type": "machine_unavailable", "resources": "7656", "timestamp": 3113623.37}
{"type": "machine_available", "resources": "7656", "timestamp": 3200023.37}
{"type": "machine_unavailable", "resources": "31400", "timestamp": 3117021.19}
{"type": "machine_available", "resources": "31400", "timestamp": 3203421.19}
{"type": "machine_unavailable", "resources": "48837", "timestamp": 3137273.91}
{"type": "machine_available", "resources": "48837", "timestamp": 3223673.91}
{"type": "machine_unavailable", "resources": "43271", "timestamp": 3141796.41}
{"type": "machine_available", "resources": "43271", "timestamp": 3228196.41}
{"type": "machine_unavailable", "resources": "45072", "timestamp": 3148290.38}
{"type": "machine_available", "resources": "45072", "timestamp": 3234690.38}
{"type": "machine_unavailable", "resources": "39258", "timestamp": 3157669.52}
{"type": "machine_available", "resources": "39258", "timestamp": 3244069.52}
{"type": "machine_unavailable", "resources": "32101", "timestamp": 3162548.7}
{"type": "machine_available", "resources": "32101", "timestamp": 3248948.7}
{"type": "machine_unavailable", "resources": "20294", "timestamp": 3184436.88}
{"type": "machine_available", "resources": "20294", "timestamp": 3270836.88}
{"type": "machine_unavailable", "resources": "48868", "timestamp": 3192685.57}
{"type": "machine_available", "resources": "48868", "timestamp": 3279085.57}
{"type": "machine_unavailable", "resources": "41077", "timestamp": 3199803.52}
{"type": "machine_available", "resources": "41077", "timestamp": 3286203.52}
{"type": "machine_unavailable", "resources": "29614", "timestamp": 3213384.77}
{"type": "machine_available", "resources": "29614", "timestamp": 3299784.77}
{"type": "machine_unavailable", "resources": "26228", "timestamp": 3254655.37}
{"type": "machine_available", "resources": "26228", "timestamp": 3341055.37}
{"type": "machine_unavailable", "resources": "20521", "timestamp": 3267359.71}
{"type": "machine_available", "resources": "20521", "timestamp": 3353759.71}
{"type": "machine_unavailable", "resources": "26972", "timestamp": 3273367.31}
{"type": "machine_available", "resources": "26972", "timestamp": 3359767.31}
{"type": "machine_unavailable", "resources": "16468", "timestamp": 3289334.36}
{"type": "machine_available", "resources": "16468", "timestamp": 3375734.36}
{"type": "machine_unavailable", "resources": "35402", "timestamp": 3292992.12}
{"type": "machine_available", "resources": "35402", "timestamp": 3379392.12}
{"type": "machine_unavailable", "resources": "36774", "timestamp": 3304034.71}
{"type": "machine_available", "resources": "36774", "timestamp": 3390434.71}
{"type": "machine_unavailable", "resources": "23874", "timestamp": 3321204.7}
{"type": "machine_available", "resources": "23874", "timestamp": 3407604.7}
{"type": "machine_unavailable", "resources": "25470", "timestamp": 3330525.89}
{"type": "machine_available", "resources": "25470", "timestamp": 3416925.89}
{"type": "machine_unavailable", "resources": "10227", "timestamp": 3348096.02}
{"type": "machine_available", "resources": "10227", "timestamp": 3434496.02}
{"type": "machine_unavailable", "resources": "30028", "timestamp": 3360984.38}
{"type": "machine_available", "resources": "30028", "timestamp": 3447384.38}
{"type": "machine_unavailable", "resources": "41325", "timestamp": 3426533.47}
{"type": "machine_available", "resources": "41325", "timestamp": 3512933.47}
{"type": "machine_unavailable", "resources": "39570", "timestamp": 3471988.52}
{"type": "machine_available", "resources": "39570", "timestamp": 3558388.52}
{"type": "machine_unavailable", "resources": "5986", "timestamp": 3500623.05}
{"type": "machine_available", "resources": "5986", "timestamp": 3587023.05}
{"type": "machine_unavailable", "resources": "31683", "timestamp": 3525981.47}
{"type": "machine_available", "resources": "31683", "timestamp": 3612381.47}
{"type": "machine_unavailable", "resources": "31250", "timestamp": 3530503.73}
{"type": "machine_available", "resources": "31250", "timestamp": 3616903.73}
{"type": "machine_unavailable", "resources": "4344", "timestamp": 3570659.18}
{"type": "machine_available", "resources": "4344", "timestamp": 3657059.18}
{"type": "machine_unavailable", "resources": "15620", "timestamp": 3573557.58}
{"type": "machine_available", "resources": "15620", "timestamp": 3659957.58}
{"type": "machine_unavailable", "resources": "8692", "timestamp": 3574846.03}
{"type": "machine_available", "resources": "8692", "timestamp": 3661246.03}
{"type": "machine_unavailable", "resources": "10703", "timestamp": 3628038.44}
{"type": "machine_available", "resources": "10703", "timestamp": 3714438.44}
{"type": "machine_unavailable", "resources": "38128", "timestamp": 3637170.63}
{"type": "machine_available", "resources": "38128", "timestamp": 3723570.63}
{"type": "machine_unavailable", "resources": "35857", "timestamp": 3657719.66}
{"type": "machine_available", "resources": "35857", "timestamp": 3744119.66}
{"type": "machine_unavailable", "resources": "35290", "timestamp": 3680190.8}
{"type": "machine_available", "resources": "35290", "timestamp": 3766590.8}
{"type": "machine_unavailable", "resources": "34364", "timestamp": 3685667.6}
{"type": "machine_available", "resources": "34364", "timestamp": 3772067.6}
{"type": "machine_unavailable", "resources": "6341", "timestamp": 3690735.47}
{"type": "machine_available", "resources": "6341", "timestamp": 3777135.47}
{"type": "machine_unavailable", "resources": "20743", "timestamp": 3694875.97}
{"type": "machine_available", "resources": "20743", "timestamp": 3781275.97}
{"type": "machine_unavailable", "resources": "17735", "timestamp": 3696414.91}
{"type": "machine_available", "resources": "17735", "timestamp": 3782814.91}
{"type": "machine_unavailable", "resources": "42161", "timestamp": 3697552.75}
{"type": "machine_available", "resources": "42161", "timestamp": 3783952.75}
{"type": "machine_unavailable", "resources": "41386", "timestamp": 3703693.67}
{"type": "machine_available", "resources": "41386", "timestamp": 3790093.67}
{"type": "machine_unavailable", "resources": "47928", "timestamp": 3725484.57}
{"type": "machine_available", "resources": "47928", "timestamp": 3811884.57}
{"type": "machine_unavailable", "resources": "27194", "timestamp": 3728392.92}
{"type": "machine_available", "resources": "27194", "timestamp": 3814792.92}
{"type": "machine_unavailable", "resources": "46476", "timestamp": 3783282.23}
{"type": "machine_available", "resources": "46476", "timestamp": 3869682.23}
{"type": "machine_unavailable", "resources": "36697", "timestamp": 3806159.23}
{"type": "machine_available", "resources": "36697", "timestamp": 3892559.23}
{"type": "machine_unavailable", "resources": "170", "timestamp": 3814313.98}
{"type": "machine_available", "resources": "170", "timestamp": 3900713.98}
{"type": "machine_unavailable", "resources": "36199", "timestamp": 3837467.23}
{"type": "machine_available", "resources": "36199", "timestamp": 3923867.23}
{"type": "machine_unavailable", "resources": "26995", "timestamp": 3840515.42}
{"type": "machine_available", "resources": "26995", "timestamp": 3926915.42}
{"type": "machine_unavailable", "resources": "19537", "timestamp": 3843529.95}
{"type": "machine_available", "resources": "19537", "timestamp": 3929929.95}
{"type": "machine_unavailable", "resources": "4443", "timestamp": 3855446.31}
{"type": "machine_available", "resources": "4443", "timestamp": 3941846.31}
{"type": "machine_unavailable", "resources": "10709", "timestamp": 3863934.31}
{"type": "machine_available", "resources": "10709", "timestamp": 3950334.31}
{"type": "machine_unavailable", "resources": "16781", "timestamp": 3901333.03}
{"type": "machine_available", "resources": "16781", "timestamp": 3987733.03}
{"type": "machine_unavailable", "resources": "35215", "timestamp": 3914351.89}
{"type": "machine_available", "resources": "35215", "timestamp": 4000751.89}
{"type": "machine_unavailable", "resources": "26255", "timestamp": 3934982.53}
{"type": "machine_available", "resources": "26255", "timestamp": 4021382.53}
{"type": "machine_unavailable", "resources": "25349", "timestamp": 3942148.78}
{"type": "machine_available", "resources": "25349", "timestamp": 4028548.78}
{"type": "machine_unavailable", "resources": "1838", "timestamp": 3943299.36}
{"type": "machine_available", "resources": "1838", "timestamp": 4029699.36}
{"type": "machine_unavailable", "resources": "44316", "timestamp": 3949177.48}
{"type": "machine_available", "resources": "44316", "timestamp": 4035577.48}
{"type": "machine_unavailable", "resources": "9995", "timestamp": 3949522.76}
{"type": "machine_available", "resources": "9995", "timestamp": 4035922.76}
{"type": "machine_unavailable", "resources": "7599", "timestamp": 3951137.86}
{"type": "machine_available", "resources": "7599", "timestamp": 4037537.86}
{"type": "machine_unavailable", "resources": "1007", "timestamp": 3985117.47}
{"type": "machine_available", "resources": "1007", "timestamp": 4071517.47}
{"type": "machine_unavailable", "resources": "36275", "timestamp": 3989869.28}
{"type": "machine_available", "resources": "36275", "timestamp": 4076269.28}
{"type": "machine_unavailable", "resources": "47090", "timestamp": 3990024.99}
{"type": "machine_available", "resources": "47090", "timestamp": 4076424.99}
{"type": "machine_unavailable", "resources": "29642", "timestamp": 4003701.34}
{"type": "machine_available", "resources": "29642", "timestamp": 4090101.34}
{"type": "machine_unavailable", "resources": "46298", "timestamp": 4105181.13}
{"type": "machine_available", "resources": "46298", "timestamp": 4191581.13}
{"type": "machine_unavailable", "resources": "44798", "timestamp": 4141844.31}
{"type": "machine_available", "resources": "44798", "timestamp": 4228244.31}
{"type": "machine_unavailable", "resources": "24868", "timestamp": 4191642.78}
{"type": "machine_available", "resources": "24868", "timestamp": 4278042.78}
{"type": "machine_unavailable", "resources": "11309", "timestamp": 4199019.54}
{"type": "machine_available", "resources": "11309", "timestamp": 4285419.54}
{"type": "machine_unavailable", "resources": "38484", "timestamp": 4231317.25}
{"type": "machine_available", "resources": "38484", "timestamp": 4317717.25}
{"type": "machine_unavailable", "resources": "31123", "timestamp": 4235064.83}
{"type": "machine_available", "resources": "31123", "timestamp": 4321464.83}
{"type": "machine_unavailable", "resources": "23382", "timestamp": 4252445.71}
{"type": "machine_available", "resources": "23382", "timestamp": 4338845.71}
{"type": "machine_unavailable", "resources": "42391", "timestamp": 4258998.73}
{"type": "machine_available", "resources": "42391", "timestamp": 4345398.73}
{"type": "machine_unavailable", "resources": "27093", "timestamp": 4291089.79}
{"type": "machine_available", "resources": "27093", "timestamp": 4377489.79}
{"type": "machine_unavailable", "resources": "2439", "timestamp": 4307587.57}
{"type": "machine_available", "resources": "2439", "timestamp": 4393987.57}
{"type": "machine_unavailable", "resources": "13893", "timestamp": 4338524.37}
{"type": "machine_available", "resources": "13893", "timestamp": 4424924.37}
{"type": "machine_unavailable", "resources": "43381", "timestamp": 4343839.22}
{"type": "machine_available", "resources": "43381", "timestamp": 4430239.22}
{"type": "machine_unavailable", "resources": "31292", "timestamp": 4359933.43}
{"type": "machine_available", "resources": "31292", "timestamp": 4446333.43}
{"type": "machine_unavailable", "resources": "22226", "timestamp": 4377590.97}
{"type": "machine_available", "resources": "22226", "timestamp": 4463990.97}
{"type": "machine_unavailable", "resources": "5459", "timestamp": 4407231.88}
{"type": "machine_available", "resources": "5459", "timestamp": 4493631.88}
{"type": "machine_unavailable", "resources": "20711", "timestamp": 4447230.14}
{"type": "machine_available", "resources": "20711", "timestamp": 4533630.14}
{"type": "machine_unavailable", "resources": "43144", "timestamp": 4485891.34}
{"type": "machine_available", "resources": "43144", "timestamp": 4572291.34}
{"type": "machine_unavailable", "resources": "2506", "timestamp": 4552710.85}
{"type": "machine_available", "resources": "2506", "timestamp": 4639110.85}
{"type": "machine_unavailable", "resources": "34543", "timestamp": 4569415.99}
{"type": "machine_available", "resources": "34543", "timestamp": 4655815.99}
{"type": "machine_unavailable", "resources": "23138", "timestamp": 4581053.77}
{"type": "machine_available", "resources": "23138", "timestamp": 4667453.77}
{"type": "machine_unavailable", "resources": "11608", "timestamp": 4628489.84}
{"type": "machine_available", "resources": "11608", "timestamp": 4714889.84}
{"type": "machine_unavailable", "resources": "32642", "timestamp": 4650990.76}
{"type": "machine_available", "resources": "32642", "timestamp": 4737390.76}
{"type": "machine_unavailable", "resources": "39182", "timestamp": 4664169.53}
{"type": "machine_available", "resources": "39182", "timestamp": 4750569.53}
{"type": "machine_unavailable", "resources": "2553", "timestamp": 4686513.84}
{"type": "machine_available", "resources": "2553", "timestamp": 4772913.84}
{"type": "machine_unavailable", "resources": "4675", "timestamp": 4690549.53}
{"type": "machine_available", "resources": "4675", "timestamp": 4776949.53}
{"type": "machine_unavailable", "resources": "39434", "timestamp": 4697930.67}
{"type": "machine_available", "resources": "39434", "timestamp": 4784330.67}
{"type": "machine_unavailable", "resources": "45659", "timestamp": 4740968.7}
{"type": "machine_available", "resources": "45659", "timestamp": 4827368.7}
{"type": "machine_unavailable", "resources": "33263", "timestamp": 4747610.15}
{"type": "machine_available", "resources": "33263", "timestamp": 4834010.15}
{"type": "machine_unavailable", "resources": "33377", "timestamp": 4816738.85}
{"type": "machine_available", "resources": "33377", "timestamp": 4903138.85}
{"type": "machine_unavailable", "resources": "4685", "timestamp": 4849600.77}
{"type": "machine_available", "resources": "4685", "timestamp": 4936000.77}
{"type": "machine_unavailable", "resources": "40852", "timestamp": 4883026.44}
{"type": "machine_available", "resources": "40852", "timestamp": 4969426.44}
{"type": "machine_unavailable", "resources": "1197", "timestamp": 4888795.61}
{"type": "machine_available", "resources": "1197", "timestamp": 4975195.61}
{"type": "machine_unavailable", "resources": "2247", "timestamp": 4928626.88}
{"type": "machine_available", "resources": "2247", "timestamp": 5015026.88}
{"type": "machine_unavailable", "resources": "45723", "timestamp": 4928817.0}
{"type": "machine_available", "resources": "45723", "timestamp": 5015217.0}
{"type": "machine_unavailable", "resources": "23582", "timestamp": 4931633.89}
{"type": "machine_available", "resources": "23582", "timestamp": 5018033.89}
{"type": "machine_unavailable", "resources": "48393", "timestamp": 4936793.26}
{"type": "machine_available", "resources": "48393", "timestamp": 5023193.26}
{"type": "machine_unavailable", "resources": "19538", "timestamp": 4961631.14}
{"type": "machine_available", "resources": "19538", "timestamp": 5048031.14}
{"type": "machine_unavailable", "resources": "41431", "timestamp": 4996753.98}
{"type": "machine_available", "resources": "41431", "timestamp": 5083153.98}
{"type": "machine_unavailable", "resources": "2230", "timestamp": 5013464.8}
{"type": "machine_available", "resources": "2230", "timestamp": 5099864.8}
