{"type": "machine_unavailable", "resources": "4135", "timestamp": 5194.48}
{"type": "machine_available", "resources": "4135", "timestamp": 5794.48}
{"type": "machine_unavailable", "resources": "32468", "timestamp": 15795.17}
{"type": "machine_available", "resources": "32468", "timestamp": 16395.17}
{"type": "machine_unavailable", "resources": "30949", "timestamp": 67316.02}
{"type": "machine_available", "resources": "30949", "timestamp": 67916.02}
{"type": "machine_unavailable", "resources": "13759", "timestamp": 105273.84}
{"type": "machine_available", "resources": "13759", "timestamp": 105873.84}
{"type": "machine_unavailable", "resources": "1857", "timestamp": 108822.04}
{"type": "machine_available", "resources": "1857", "timestamp": 109422.04}
{"type": "machine_unavailable", "resources": "25546", "timestamp": 189386.22}
{"type": "machine_available", "resources": "25546", "timestamp": 189986.22}
{"type": "machine_unavailable", "resources": "138", "timestamp": 209797.69}
{"type": "machine_available", "resources": "138", "timestamp": 210397.69}
{"type": "machine_unavailable", "resources": "17454", "timestamp": 252644.1}
{"type": "machine_available", "resources": "17454", "timestamp": 253244.1}
{"type": "machine_unavailable", "resources": "14992", "timestamp": 298669.42}
{"type": "machine_available", "resources": "14992", "timestamp": 299269.42}
{"type": "machine_unavailable", "resources": "6699", "timestamp": 330868.37}
{"type": "machine_available", "resources": "6699", "timestamp": 331468.37}
{"type": "machine_unavailable", "resources": "2004", "timestamp": 414279.02}
{"type": "machine_available", "resources": "2004", "timestamp": 414879.02}
{"type": "machine_unavailable", "resources": "42568", "timestamp": 415091.72}
{"type": "machine_available", "resources": "42568", "timestamp": 415691.72}
{"type": "machine_unavailable", "resources": "24982", "timestamp": 443157.47}
{"type": "machine_available", "resources": "24982", "timestamp": 443757.47}
{"type": "machine_unavailable", "resources": "27663", "timestamp": 484914.03}
{"type": "machine_available", "resources": "27663", "timestamp": 485514.03}
{"type": "machine_unavailable", "resources": "34578", "timestamp": 531501.25}
{"type": "machine_available", "resources": "34578", "timestamp": 532101.25}
{"type": "machine_unavailable", "resources": "28697", "timestamp": 540524.02}
{"type": "machine_available", "resources": "28697", "timestamp": 541124.02}
{"type": "machine_unavailable", "resources": "36232", "timestamp": 641310.45}
{"type": "machine_available", "resources": "36232", "timestamp": 641910.45}
{"type": "machine_unavailable", "resources": "15130", "timestamp": 650864.08}
{"type": "machine_available", "resources": "15130", "timestamp": 651464.08}
{"type": "machine_unavailable", "resources": "30120", "timestamp": 691530.91}
{"type": "machine_available", "resources": "30120", "timestamp": 692130.91}
{"type": "machine_unavailable", "resources": "1408", "timestamp": 801030.67}
{"type": "machine_available", "resources": "1408", "timestamp": 801630.67}
{"type": "machine_unavailable", "resources": "36467", "timestamp": 820404.52}
{"type": "machine_available", "resources": "36467", "timestamp": 821004.52}
{"type": "machine_unavailable", "resources": "6553", "timestamp": 912329.33}
{"type": "machine_available", "resources": "6553", "timestamp": 912929.33}
{"type": "machine_unavailable", "resources": "47424", "timestamp": 919733.8}
{"type": "machine_available", "resources": "47424", "timestamp": 920333.8}
{"type": "machine_unavailable", "resources": "7922", "timestamp": 990500.12}
{"type": "machine_available", "resources": "7922", "timestamp": 991100.12}
{"type": "machine_unavailable", "resources": "47283", "timestamp": 1039433.12}
{"type": "machine_available", "resources": "47283", "timestamp": 1040033.12}
{"type": "machine_unavailable", "resources": "32820", "timestamp": 1169800.11}
{"type": "machine_available", "resources": "32820", "timestamp": 1170400.11}
{"type": "machine_unavailable", "resources": "27663", "timestamp": 1269008.2}
{"type": "machine_available", "resources": "27663", "timestamp": 1269608.2}
{"type": "machine_unavailable", "resources": "43929", "timestamp": 1294521.47}
{"type": "machine_available", "resources": "43929", "timestamp": 1295121.47}
{"type": "machine_unavailable", "resources": "18622", "timestamp": 1302100.75}
{"type": "machine_available", "resources": "18622", "timestamp": 1302700.75}
{"type": "machine_unavailable", "resources": "32726", "timestamp": 1333986.47}
{"type": "machine_available", "resources": "32726", "timestamp": 1334586.47}
{"type": "machine_unavailable", "resources": "33114", "timestamp": 1401381.55}
{"type": "machine_available", "resources": "33114", "timestamp": 1401981.55}
{"type": "machine_unavailable", "resources": "2262", "timestamp": 1419374.68}
{"type": "machine_available", "resources": "2262", "timestamp": 1419974.68}
{"type": "machine_unavailable", "resources": "48741", "timestamp": 1442931.75}
{"type": "machine_available", "resources": "48741", "timestamp": 1443531.75}
{"type": "machine_unavailable", "resources": "27152", "timestamp": 1500407.29}
{"type": "machine_available", "resources": "27152", "timestamp": 1501007.29}
{"type": "machine_unavailable", "resources": "24059", "timestamp": 1539750.23}
{"type": "machine_available", "resources": "24059", "timestamp": 1540350.23}
{"type": "machine_unavailable", "resources": "46074", "timestamp": 1568400.54}
{"type": "machine_available", "resources": "46074", "timestamp": 1569000.54}
{"type": "machine_unavailable", "resources": "48379", "timestamp": 1622234.39}
{"type": "machine_available", "resources": "48379", "timestamp": 1622834.39}
{"type": "machine_unavailable", "resources": "28767", "timestamp": 1639137.42}
{"type": "machine_available", "resources": "28767", "timestamp": 1639737.42}
{"type": "machine_unavailable", "resources": "7073", "timestamp": 1678374.67}
{"type": "machine_available", "resources": "7073", "timestamp": 1678974.67}
{"type": "machine_unavailable", "resources": "34140", "timestamp": 1732629.32}
{"type": "machine_available", "resources": "34140", "timestamp": 1733229.32}
{"type": "machine_unavailable", "resources": "24282", "timestamp": 1798591.35}
{"type": "machine_available", "resources": "24282", "timestamp": 1799191.35}
{"type": "machine_unavailable", "resources": "1938", "timestamp": 1822810.13}
{"type": "machine_available", "resources": "1938", "timestamp": 1823410.13}
{"type": "machine_unavailable", "resources": "20219", "timestamp": 1845619.6}
{"type": "machine_available", "resources": "20219", "timestamp": 1846219.6}
{"type": "machine_unavailable", "resources": "40292", "timestamp": 1889370.78}
{"type": "machine_available", "resources": "40292", "timestamp": 1889970.78}
{"type": "machine_unavailable", "resources": "25794", "timestamp": 1921748.95}
{"type": "machine_available", "resources": "25794", "timestamp": 1922348.95}
{"type": "machine_unavailable", "resources": "11048", "timestamp": 1959251.22}
{"type": "machine_available", "resources": "11048", "timestamp": 1959851.22}
{"type": "machine_unavailable", "resources": "806", "timestamp": 1984366.06}
{"type": "machine_available", "resources": "806", "timestamp": 1984966.06}
{"type": "machine_unavailable", "resources": "35364", "timestamp": 2037356.37}
{"type": "machine_available", "resources": "35364", "timestamp": 2037956.37}
{"type": "machine_unavailable", "resources": "35935", "timestamp": 2128321.52}
{"type": "machine_available", "resources": "35935", "timestamp": 2128921.52}
{"type": "machine_unavailable", "resources": "33670", "timestamp": 2137832.54}
{"type": "machine_available", "resources": "33670", "timestamp": 2138432.54}
{"type": "machine_unavailable", "resources": "37866", "timestamp": 2153000.39}
{"type": "machine_available", "resources": "37866", "timestamp": 2153600.39}
{"type": "machine_unavailable", "resources": "17647", "timestamp": 2168690.37}
{"type": "machine_available", "resources": "17647", "timestamp": 2169290.37}
{"type": "machine_unavailable", "resources": "39907", "timestamp": 2207444.48}
{"type": "machine_available", "resources": "39907", "timestamp": 2208044.48}
{"type": "machine_unavailable", "resources": "374", "timestamp": 2320817.95}
{"type": "machine_available", "resources": "374", "timestamp": 2321417.95}
{"type": "machine_unavailable", "resources": "48529", "timestamp": 2338242.12}
{"type": "machine_available", "resources": "48529", "timestamp": 2338842.12}
{"type": "machine_unavailable", "resources": "8470", "timestamp": 2364106.85}
{"type": "machine_available", "resources": "8470", "timestamp": 2364706.85}
{"type": "machine_unavailable", "resources": "36789", "timestamp": 2390430.75}
{"type": "machine_available", "resources": "36789", "timestamp": 2391030.75}
{"type": "machine_unavailable", "resources": "3678", "timestamp": 2398711.6}
{"type": "machine_available", "resources": "3678", "timestamp": 2399311.6}
{"type": "machine_unavailable", "resources": "23903", "timestamp": 2422329.31}
{"type": "machine_available", "resources": "23903", "timestamp": 2422929.31}
{"type": "machine_unavailable", "resources": "13096", "timestamp": 2452712.18}
{"type": "machine_available", "resources": "13096", "timestamp": 2453312.18}
{"type": "machine_unavailable", "resources": "27092", "timestamp": 2554608.27}
{"type": "machine_available", "resources": "27092", "timestamp": 2555208.27}
{"type": "machine_unavailable", "resources": "23382", "timestamp": 2578492.22}
{"type": "machine_available", "resources": "23382", "timestamp": 2579092.22}
{"type": "machine_unavailable", "resources": "103", "timestamp": 2597757.99}
{"type": "machine_available", "resources": "103", "timestamp": 2598357.99}
{"type": "machine_unavailable", "resources": "40861", "timestamp": 2625594.17}
{"type": "machine_available", "resources": "40861", "timestamp": 2626194.17}
{"type": "machine_unavailable", "resources": "21701", "timestamp": 2681173.06}
{"type": "machine_available", "resources": "21701", "timestamp": 2681773.06}
{"type": "machine_unavailable", "resources": "1833", "timestamp": 2703232.43}
{"type": "machine_available", "resources": "1833", "timestamp": 2703832.43}
{"type": "machine_unavailable", "resources": "41639", "timestamp": 2762004.24}
{"type": "machine_available", "resources": "41639", "timestamp": 2762604.24}
{"type": "machine_unavailable", "resources": "38303", "timestamp": 2769026.25}
{"type": "machine_available", "resources": "38303", "timestamp": 2769626.25}
{"type": "machine_unavailable", "resources": "6003", "timestamp": 2776204.92}
{"type": "machine_available", "resources": "6003", "timestamp": 2776804.92}
{"type": "machine_unavailable", "resources": "16730", "timestamp": 2833864.79}
{"type": "machine_available", "resources": "16730", "timestamp": 2834464.79}
{"type": "machine_unavailable", "resources": "44113", "timestamp": 2835052.7}
{"type": "machine_available", "resources": "44113", "timestamp": 2835652.7}
{"type": "machine_unavailable", "resources": "1093", "timestamp": 2837682.8}
{"type": "machine_available", "resources": "1093", "timestamp": 2838282.8}
{"type": "machine_unavailable", "resources": "18428", "timestamp": 2859401.75}
{"type": "machine_available", "resources": "18428", "timestamp": 2860001.75}
{"type": "machine_unavailable", "resources": "7175", "timestamp": 2869737.15}
{"type": "machine_available", "resources": "7175", "timestamp": 2870337.15}
{"type": "machine_unavailable", "resources": "12098", "timestamp": 2927191.98}
{"type": "machine_available", "resources": "12098", "timestamp": 2927791.98}
{"type": "machine_unavailable", "resources": "4555", "timestamp": 2942392.6}
{"type": "machine_available", "resources": "4555", "timestamp": 2942992.6}
{"type": "machine_unavailable", "resources": "16725", "timestamp": 2948990.91}
{"type": "machine_available", "resources": "16725", "timestamp": 2949590.91}
{"type": "machine_unavailable", "resources": "11019", "timestamp": 2975971.63}
{"type": "machine_available", "resources": "11019", "timestamp": 2976571.63}
{"type": "machine_unavailable", "resources": "42480", "timestamp": 3014456.49}
{"type": "machine_available", "resources": "42480", "timestamp": 3015056.49}
{"type": "machine_unavailable", "resources": "29799", "timestamp": 3059217.88}
{"type": "machine_available", "resources": "29799", "timestamp": 3059817.88}
{"type": "machine_unavailable", "resources": "32538", "timestamp": 3102877.35}
{"type": "machine_available", "resources": "32538", "timestamp": 3103477.35}
{"type": "machine_unavailable", "resources": "1548", "timestamp": 3125990.03}
{"type": "machine_available", "resources": "1548", "timestamp": 3126590.03}
{"type": "machine_unavailable", "resources": "22501", "timestamp": 3139453.08}
{"type": "machine_available", "resources": "22501", "timestamp": 3140053.08}
{"type": "machine_unavailable", "resources": "12323", "timestamp": 3159120.32}
{"type": "machine_available", "resources": "12323", "timestamp": 3159720.32}
{"type": "machine_unavailable", "resources": "16610", "timestamp": 3169883.36}
{"type": "machine_available", "resources": "16610", "timestamp": 3170483.36}
{"type": "machine_unavailable", "resources": "33430", "timestamp": 3252711.14}
{"type": "machine_available", "resources": "33430", "timestamp": 3253311.14}
{"type": "machine_unavailable", "resources": "39691", "timestamp": 3388105.2}
{"type": "machine_available", "resources": "39691", "timestamp": 3388705.2}
{"type": "machine_unavailable", "resources": "1364", "timestamp": 3408446.19}
{"type": "machine_available", "resources": "1364", "timestamp": 3409046.19}
{"type": "machine_unavailable", "resources": "26038", "timestamp": 3417639.69}
{"type": "machine_available", "resources": "26038", "timestamp": 3418239.69}
{"type": "machine_unavailable", "resources": "47109", "timestamp": 3423340.83}
{"type": "machine_available", "resources": "47109", "timestamp": 3423940.83}
{"type": "machine_unavailable", "resources": "29207", "timestamp": 3539124.47}
{"type": "machine_available", "resources": "29207", "timestamp": 3539724.47}
{"type": "machine_unavailable", "resources": "44444", "timestamp": 3583024.45}
{"type": "machine_available", "resources": "44444", "timestamp": 3583624.45}
{"type": "machine_unavailable", "resources": "14457", "timestamp": 3603050.71}
{"type": "machine_available", "resources": "14457", "timestamp": 3603650.71}
{"type": "machine_unavailable", "resources": "41338", "timestamp": 3738814.81}
{"type": "machine_available", "resources": "41338", "timestamp": 3739414.81}
{"type": "machine_unavailable", "resources": "33855", "timestamp": 3796362.67}
{"type": "machine_available", "resources": "33855", "timestamp": 3796962.67}
{"type": "machine_unavailable", "resources": "34334", "timestamp": 3817940.16}
{"type": "machine_available", "resources": "34334", "timestamp": 3818540.16}
{"type": "machine_unavailable", "resources": "25880", "timestamp": 3855580.46}
{"type": "machine_available", "resources": "25880", "timestamp": 3856180.46}
{"type": "machine_unavailable", "resources": "21053", "timestamp": 3896031.15}
{"type": "machine_available", "resources": "21053", "timestamp": 3896631.15}
{"type": "machine_unavailable", "resources": "27937", "timestamp": 3934849.66}
{"type": "machine_available", "resources": "27937", "timestamp": 3935449.66}
{"type": "machine_unavailable", "resources": "19569", "timestamp": 3937030.68}
{"type": "machine_available", "resources": "19569", "timestamp": 3937630.68}
{"type": "machine_unavailable", "resources": "13902", "timestamp": 3941865.93}
{"type": "machine_available", "resources": "13902", "timestamp": 3942465.93}
{"type": "machine_unavailable", "resources": "20079", "timestamp": 4016880.02}
{"type": "machine_available", "resources": "20079", "timestamp": 4017480.02}
{"type": "machine_unavailable", "resources": "5009", "timestamp": 4019520.71}
{"type": "machine_available", "resources": "5009", "timestamp": 4020120.71}
{"type": "machine_unavailable", "resources": "19521", "timestamp": 4032897.98}
{"type": "machine_available", "resources": "19521", "timestamp": 4033497.98}
{"type": "machine_unavailable", "resources": "27274", "timestamp": 4081928.59}
{"type": "machine_available", "resources": "27274", "timestamp": 4082528.59}
{"type": "machine_unavailable", "resources": "8545", "timestamp": 4111890.42}
{"type": "machine_available", "resources": "8545", "timestamp": 4112490.42}
{"type": "machine_unavailable", "resources": "2484", "timestamp": 4112197.01}
{"type": "machine_available", "resources": "2484", "timestamp": 4112797.01}
{"type": "machine_unavailable", "resources": "14260", "timestamp": 4144345.85}
{"type": "machine_available", "resources": "14260", "timestamp": 4144945.85}
{"type": "machine_unavailable", "resources": "37373", "timestamp": 4262262.98}
{"type": "machine_available", "resources": "37373", "timestamp": 4262862.98}
{"type": "machine_unavailable", "resources": "46138", "timestamp": 4284502.56}
{"type": "machine_available", "resources": "46138", "timestamp": 4285102.56}
{"type": "machine_unavailable", "resources": "2452", "timestamp": 4319617.37}
{"type": "machine_available", "resources": "2452", "timestamp": 4320217.37}
{"type": "machine_unavailable", "resources": "22736", "timestamp": 4336708.91}
{"type": "machine_available", "resources": "22736", "timestamp": 4337308.91}
{"type": "machine_unavailable", "resources": "37577", "timestamp": 4340462.92}
{"type": "machine_available", "resources": "37577", "timestamp": 4341062.92}
{"type": "machine_unavailable", "resources": "28373", "timestamp": 4380830.71}
{"type": "machine_available", "resources": "28373", "timestamp": 4381430.71}
{"type": "machine_unavailable", "resources": "32266", "timestamp": 4413052.2}
{"type": "machine_available", "resources": "32266", "timestamp": 4413652.2}
{"type": "machine_unavailable", "resources": "43644", "timestamp": 4417022.58}
{"type": "machine_available", "resources": "43644", "timestamp": 4417622.58}
{"type": "machine_unavailable", "resources": "33037", "timestamp": 4434820.82}
{"type": "machine_available", "resources": "33037", "timestamp": 4435420.82}
{"type": "machine_unavailable", "resources": "21321", "timestamp": 4459759.72}
{"type": "machine_available", "resources": "21321", "timestamp": 4460359.72}
{"type": "machine_unavailable", "resources": "26366", "timestamp": 4493854.63}
{"type": "machine_available", "resources": "26366", "timestamp": 4494454.63}
{"type": "machine_unavailable", "resources": "1185", "timestamp": 4576632.06}
{"type": "machine_available", "resources": "1185", "timestamp": 4577232.06}
{"type": "machine_unavailable", "resources": "21478", "timestamp": 4582778.96}
{"type": "machine_available", "resources": "21478", "timestamp": 4583378.96}
{"type": "machine_unavailable", "resources": "36919", "timestamp": 4642781.76}
{"type": "machine_available", "resources": "36919", "timestamp": 4643381.76}
{"type": "machine_unavailable", "resources": "22222", "timestamp": 4697734.97}
{"type": "machine_available", "resources": "22222", "timestamp": 4698334.97}
{"type": "machine_unavailable", "resources": "17467", "timestamp": 4717923.31}
{"type": "machine_available", "resources": "17467", "timestamp": 4718523.31}
{"type": "machine_unavailable", "resources": "24853", "timestamp": 4758324.48}
{"type": "machine_available", "resources": "24853", "timestamp": 4758924.48}
{"type": "machine_unavailable", "resources": "22534", "timestamp": 4855200.78}
{"type": "machine_available", "resources": "22534", "timestamp": 4855800.78}
{"type": "machine_unavailable", "resources": "45030", "timestamp": 4943710.08}
{"type": "machine_available", "resources": "45030", "timestamp": 4944310.08}
{"type": "machine_unavailable", "resources": "34899", "timestamp": 4971224.09}
{"type": "machine_available", "resources": "34899", "timestamp": 4971824.09}
{"type": "machine_unavailable", "resources": "47544", "timestamp": 4980850.83}
{"type": "machine_available", "resources": "47544", "timestamp": 4981450.83}
{"type": "machine_unavailable", "resources": "8717", "timestamp": 4982335.44}
{"type": "machine_available", "resources": "8717", "timestamp": 4982935.44}
{"type": "machine_unavailable", "resources": "35272", "timestamp": 4989030.04}
{"type": "machine_available", "resources": "35272", "timestamp": 4989630.04}
{"type": "machine_unavailable", "resources": "21773", "timestamp": 4997651.56}
{"type": "machine_available", "resources": "21773", "timestamp": 4998251.56}
{"type": "machine_unavailable", "resources": "16730", "timestamp": 5030656.83}
{"type": "machine_available", "resources": "16730", "timestamp": 5031256.83}
