{"type": "machine_unavailable", "resources": "3706", "timestamp": 112476.41}
{"type": "machine_available", "resources": "3706", "timestamp": 113076.41}
{"type": "machine_unavailable", "resources": "23662", "timestamp": 115934.34}
{"type": "machine_available", "resources": "23662", "timestamp": 116534.34}
{"type": "machine_unavailable", "resources": "48232", "timestamp": 180908.5}
{"type": "machine_available", "resources": "48232", "timestamp": 181508.5}
{"type": "machine_unavailable", "resources": "20194", "timestamp": 240498.69}
{"type": "machine_available", "resources": "20194", "timestamp": 241098.69}
{"type": "machine_unavailable", "resources": "13907", "timestamp": 250931.32}
{"type": "machine_available", "resources": "13907", "timestamp": 251531.32}
{"type": "machine_unavailable", "resources": "38089", "timestamp": 284535.21}
{"type": "machine_available", "resources": "38089", "timestamp": 285135.21}
{"type": "machine_unavailable", "resources": "28224", "timestamp": 325695.31}
{"type": "machine_available", "resources": "28224", "timestamp": 326295.31}
{"type": "machine_unavailable", "resources": "47383", "timestamp": 362322.21}
{"type": "machine_available", "resources": "47383", "timestamp": 362922.21}
{"type": "machine_unavailable", "resources": "33362", "timestamp": 433165.1}
{"type": "machine_available", "resources": "33362", "timestamp": 433765.1}
{"type": "machine_unavailable", "resources": "35663", "timestamp": 540578.81}
{"type": "machine_available", "resources": "35663", "timestamp": 541178.81}
{"type": "machine_unavailable", "resources": "32903", "timestamp": 639376.4}
{"type": "machine_available", "resources": "32903", "timestamp": 639976.4}
{"type": "machine_unavailable", "resources": "2354", "timestamp": 650619.33}
{"type": "machine_available", "resources": "2354", "timestamp": 651219.33}
{"type": "machine_unavailable", "resources": "23856", "timestamp": 724354.48}
{"type": "machine_available", "resources": "23856", "timestamp": 724954.48}
{"type": "machine_unavailable", "resources": "20870", "timestamp": 746864.93}
{"type": "machine_available", "resources": "20870", "timestamp": 747464.93}
{"type": "machine_unavailable", "resources": "27761", "timestamp": 832662.08}
{"type": "machine_available", "resources": "27761", "timestamp": 833262.08}
{"type": "machine_unavailable", "resources": "34455", "timestamp": 912714.43}
{"type": "machine_available", "resources": "34455", "timestamp": 913314.43}
{"type": "machine_unavailable", "resources": "11628", "timestamp": 919184.03}
{"type": "machine_available", "resources": "11628", "timestamp": 919784.03}
{"type": "machine_unavailable", "resources": "1563", "timestamp": 928880.6}
{"type": "machine_available", "resources": "1563", "timestamp": 929480.6}
{"type": "machine_unavailable", "resources": "11376", "timestamp": 935881.12}
{"type": "machine_available", "resources": "11376", "timestamp": 936481.12}
{"type": "machine_unavailable", "resources": "33438", "timestamp": 941172.76}
{"type": "machine_available", "resources": "33438", "timestamp": 941772.76}
{"type": "machine_unavailable", "resources": "33668", "timestamp": 957221.74}
{"type": "machine_available", "resources": "33668", "timestamp": 957821.74}
{"type": "machine_unavailable", "resources": "11917", "timestamp": 997625.64}
{"type": "machine_available", "resources": "11917", "timestamp": 998225.64}
{"type": "machine_unavailable", "resources": "29205", "timestamp": 1189667.57}
{"type": "machine_available", "resources": "29205", "timestamp": 1190267.57}
{"type": "machine_unavailable", "resources": "48129", "timestamp": 1247028.79}
{"type": "machine_available", "resources": "48129", "timestamp": 1247628.79}
{"type": "machine_unavailable", "resources": "23871", "timestamp": 1273856.38}
{"type": "machine_available", "resources": "23871", "timestamp": 1274456.38}
{"type": "machine_unavailable", "resources": "23185", "timestamp": 1329996.46}
{"type": "machine_available", "resources": "23185", "timestamp": 1330596.46}
{"type": "machine_unavailable", "resources": "29213", "timestamp": 1346169.06}
{"type": "machine_available", "resources": "29213", "timestamp": 1346769.06}
{"type": "machine_unavailable", "resources": "26205", "timestamp": 1352496.59}
{"type": "machine_available", "resources": "26205", "timestamp": 1353096.59}
{"type": "machine_unavailable", "resources": "30238", "timestamp": 1397705.24}
{"type": "machine_available", "resources": "30238", "timestamp": 1398305.24}
{"type": "machine_unavailable", "resources": "16377", "timestamp": 1436007.54}
{"type": "machine_available", "resources": "16377", "timestamp": 1436607.54}
{"type": "machine_unavailable", "resources": "32641", "timestamp": 1460248.93}
{"type": "machine_available", "resources": "32641", "timestamp": 1460848.93}
{"type": "machine_unavailable", "resources": "23194", "timestamp": 1485262.84}
{"type": "machine_available", "resources": "23194", "timestamp": 1485862.84}
{"type": "machine_unavailable", "resources": "29798", "timestamp": 1524278.91}
{"type": "machine_available", "resources": "29798", "timestamp": 1524878.91}
{"type": "machine_unavailable", "resources": "30212", "timestamp": 1607064.35}
{"type": "machine_available", "resources": "30212", "timestamp": 1607664.35}
{"type": "machine_unavailable", "resources": "47571", "timestamp": 1622615.47}
{"type": "machine_available", "resources": "47571", "timestamp": 1623215.47}
{"type": "machine_unavailable", "resources": "47433", "timestamp": 1713690.71}
{"type": "machine_available", "resources": "47433", "timestamp": 1714290.71}
{"type": "machine_unavailable", "resources": "43180", "timestamp": 1735644.22}
{"type": "machine_available", "resources": "43180", "timestamp": 1736244.22}
{"type": "machine_unavailable", "resources": "21277", "timestamp": 1744672.51}
{"type": "machine_available", "resources": "21277", "timestamp": 1745272.51}
{"type": "machine_unavailable", "resources": "10883", "timestamp": 1805357.38}
{"type": "machine_available", "resources": "10883", "timestamp": 1805957.38}
{"type": "machine_unavailable", "resources": "40392", "timestamp": 1880709.12}
{"type": "machine_available", "resources": "40392", "timestamp": 1881309.12}
{"type": "machine_unavailable", "resources": "31441", "timestamp": 1891946.98}
{"type": "machine_available", "resources": "31441", "timestamp": 1892546.98}
{"type": "machine_unavailable", "resources": "46281", "timestamp": 1905282.49}
{"type": "machine_available", "resources": "46281", "timestamp": 1905882.49}
{"type": "machine_unavailable", "resources": "36843", "timestamp": 1969299.78}
{"type": "machine_available", "resources": "36843", "timestamp": 1969899.78}
{"type": "machine_unavailable", "resources": "42691", "timestamp": 1995554.15}
{"type": "machine_available", "resources": "42691", "timestamp": 1996154.15}
{"type": "machine_unavailable", "resources": "26651", "timestamp": 2029992.23}
{"type": "machine_available", "resources": "26651", "timestamp": 2030592.23}
{"type": "machine_unavailable", "resources": "13619", "timestamp": 2043446.88}
{"type": "machine_available", "resources": "13619", "timestamp": 2044046.88}
{"type": "machine_unavailable", "resources": "24025", "timestamp": 2067610.18}
{"type": "machine_available", "resources": "24025", "timestamp": 2068210.18}
{"type": "machine_unavailable", "resources": "40846", "timestamp": 2165546.09}
{"type": "machine_available", "resources": "40846", "timestamp": 2166146.09}
{"type": "machine_unavailable", "resources": "22377", "timestamp": 2242501.86}
{"type": "machine_available", "resources": "22377", "timestamp": 2243101.86}
{"type": "machine_unavailable", "resources": "12543", "timestamp": 2289101.78}
{"type": "machine_available", "resources": "12543", "timestamp": 2289701.78}
{"type": "machine_unavailable", "resources": "6957", "timestamp": 2499063.65}
{"type": "machine_available", "resources": "6957", "timestamp": 2499663.65}
{"type": "machine_unavailable", "resources": "42789", "timestamp": 2501243.66}
{"type": "machine_available", "resources": "42789", "timestamp": 2501843.66}
{"type": "machine_unavailable", "resources": "38777", "timestamp": 2503048.94}
{"type": "machine_available", "resources": "38777", "timestamp": 2503648.94}
{"type": "machine_unavailable", "resources": "6964", "timestamp": 2512300.23}
{"type": "machine_available", "resources": "6964", "timestamp": 2512900.23}
{"type": "machine_unavailable", "resources": "8945", "timestamp": 2562841.64}
{"type": "machine_available", "resources": "8945", "timestamp": 2563441.64}
{"type": "machine_unavailable", "resources": "16045", "timestamp": 2632096.94}
{"type": "machine_available", "resources": "16045", "timestamp": 2632696.94}
{"type": "machine_unavailable", "resources": "3957", "timestamp": 2694791.93}
{"type": "machine_available", "resources": "3957", "timestamp": 2695391.93}
{"type": "machine_unavailable", "resources": "46986", "timestamp": 2714583.66}
{"type": "machine_available", "resources": "46986", "timestamp": 2715183.66}
{"type": "machine_unavailable", "resources": "3722", "timestamp": 2765871.32}
{"type": "machine_available", "resources": "3722", "timestamp": 2766471.32}
{"type": "machine_unavailable", "resources": "11264", "timestamp": 2782070.48}
{"type": "machine_available", "resources": "11264", "timestamp": 2782670.48}
{"type": "machine_unavailable", "resources": "1536", "timestamp": 2792403.12}
{"type": "machine_available", "resources": "1536", "timestamp": 2793003.12}
{"type": "machine_unavailable", "resources": "4421", "timestamp": 2795518.64}
{"type": "machine_available", "resources": "4421", "timestamp": 2796118.64}
{"type": "machine_unavailable", "resources": "47803", "timestamp": 2796442.81}
{"type": "machine_available", "resources": "47803", "timestamp": 2797042.81}
{"type": "machine_unavailable", "resources": "24451", "timestamp": 2886757.78}
{"type": "machine_available", "resources": "24451", "timestamp": 2887357.78}
{"type": "machine_unavailable", "resources": "10296", "timestamp": 2897388.5}
{"type": "machine_available", "resources": "10296", "timestamp": 2897988.5}
{"type": "machine_unavailable", "resources": "34281", "timestamp": 2945168.5}
{"type": "machine_available", "resources": "34281", "timestamp": 2945768.5}
{"type": "machine_unavailable", "resources": "25268", "timestamp": 2987505.17}
{"type": "machine_available", "resources": "25268", "timestamp": 2988105.17}
{"type": "machine_unavailable", "resources": "16241", "timestamp": 3019555.16}
{"type": "machine_available", "resources": "16241", "timestamp": 3020155.16}
{"type": "machine_unavailable", "resources": "2376", "timestamp": 3025466.04}
{"type": "machine_available", "resources": "2376", "timestamp": 3026066.04}
{"type": "machine_unavailable", "resources": "40320", "timestamp": 3025617.42}
{"type": "machine_available", "resources": "40320", "timestamp": 3026217.42}
{"type": "machine_unavailable", "resources": "48999", "timestamp": 3061192.85}
{"type": "machine_available", "resources": "48999", "timestamp": 3061792.85}
{"type": "machine_unavailable", "resources": "22099", "timestamp": 3065514.28}
{"type": "machine_available", "resources": "22099", "timestamp": 3066114.28}
{"type": "machine_unavailable", "resources": "20210", "timestamp": 3089667.33}
{"type": "machine_available", "resources": "20210", "timestamp": 3090267.33}
{"type": "machine_unavailable", "resources": "39659", "timestamp": 3111101.42}
{"type": "machine_available", "resources": "39659", "timestamp": 3111701.42}
{"type": "machine_unavailable", "resources": "17297", "timestamp": 3159588.69}
{"type": "machine_available", "resources": "17297", "timestamp": 3160188.69}
{"type": "machine_unavailable", "resources": "40736", "timestamp": 3210320.01}
{"type": "machine_available", "resources": "40736", "timestamp": 3210920.01}
{"type": "machine_unavailable", "resources": "30984", "timestamp": 3254310.23}
{"type": "machine_available", "resources": "30984", "timestamp": 3254910.23}
{"type": "machine_unavailable", "resources": "6124", "timestamp": 3369111.7}
{"type": "machine_available", "resources": "6124", "timestamp": 3369711.7}
{"type": "machine_unavailable", "resources": "20729", "timestamp": 3408036.68}
{"type": "machine_available", "resources": "20729", "timestamp": 3408636.68}
{"type": "machine_unavailable", "resources": "1586", "timestamp": 3473651.72}
{"type": "machine_available", "resources": "1586", "timestamp": 3474251.72}
{"type": "machine_unavailable", "resources": "8358", "timestamp": 3495031.56}
{"type": "machine_available", "resources": "8358", "timestamp": 3495631.56}
{"type": "machine_unavailable", "resources": "25752", "timestamp": 3521326.14}
{"type": "machine_available", "resources": "25752", "timestamp": 3521926.14}
{"type": "machine_unavailable", "resources": "21493", "timestamp": 3545349.91}
{"type": "machine_available", "resources": "21493", "timestamp": 3545949.91}
{"type": "machine_unavailable", "resources": "22351", "timestamp": 3550940.2}
{"type": "machine_available", "resources": "22351", "timestamp": 3551540.2}
{"type": "machine_unavailable", "resources": "39719", "timestamp": 3561736.05}
{"type": "machine_available", "resources": "39719", "timestamp": 3562336.05}
{"type": "machine_unavailable", "resources": "42815", "timestamp": 3688801.96}
{"type": "machine_available", "resources": "42815", "timestamp": 3689401.96}
{"type": "machine_unavailable", "resources": "36565", "timestamp": 3689457.08}
{"type": "machine_available", "resources": "36565", "timestamp": 3690057.08}
{"type": "machine_unavailable", "resources": "43945", "timestamp": 3804447.64}
{"type": "machine_available", "resources": "43945", "timestamp": 3805047.64}
{"type": "machine_unavailable", "resources": "2199", "timestamp": 3806552.08}
{"type": "machine_available", "resources": "2199", "timestamp": 3807152.08}
{"type": "machine_unavailable", "resources": "11187", "timestamp": 3811636.01}
{"type": "machine_available", "resources": "11187", "timestamp": 3812236.01}
{"type": "machine_unavailable", "resources": "41620", "timestamp": 3815264.24}
{"type": "machine_available", "resources": "41620", "timestamp": 3815864.24}
{"type": "machine_unavailable", "resources": "46405", "timestamp": 3824750.83}
{"type": "machine_available", "resources": "46405", "timestamp": 3825350.83}
{"type": "machine_unavailable", "resources": "16171", "timestamp": 3922673.6}
{"type": "machine_available", "resources": "16171", "timestamp": 3923273.6}
{"type": "machine_unavailable", "resources": "29143", "timestamp": 3932198.58}
{"type": "machine_available", "resources": "29143", "timestamp": 3932798.58}
{"type": "machine_unavailable", "resources": "5271", "timestamp": 3934948.72}
{"type": "machine_available", "resources": "5271", "timestamp": 3935548.72}
{"type": "machine_unavailable", "resources": "40905", "timestamp": 3967155.06}
{"type": "machine_available", "resources": "40905", "timestamp": 3967755.06}
{"type": "machine_unavailable", "resources": "40888", "timestamp": 4023610.88}
{"type": "machine_available", "resources": "40888", "timestamp": 4024210.88}
{"type": "machine_unavailable", "resources": "16817", "timestamp": 4068112.13}
{"type": "machine_available", "resources": "16817", "timestamp": 4068712.13}
{"type": "machine_unavailable", "resources": "18267", "timestamp": 4109648.53}
{"type": "machine_available", "resources": "18267", "timestamp": 4110248.53}
{"type": "machine_unavailable", "resources": "316", "timestamp": 4136538.69}
{"type": "machine_available", "resources": "316", "timestamp": 4137138.69}
{"type": "machine_unavailable", "resources": "25215", "timestamp": 4142436.64}
{"type": "machine_available", "resources": "25215", "timestamp": 4143036.64}
{"type": "machine_unavailable", "resources": "7285", "timestamp": 4161353.79}
{"type": "machine_available", "resources": "7285", "timestamp": 4161953.79}
{"type": "machine_unavailable", "resources": "5755", "timestamp": 4187187.66}
{"type": "machine_available", "resources": "5755", "timestamp": 4187787.66}
{"type": "machine_unavailable", "resources": "6538", "timestamp": 4197108.41}
{"type": "machine_available", "resources": "6538", "timestamp": 4197708.41}
{"type": "machine_unavailable", "resources": "15173", "timestamp": 4197828.43}
{"type": "machine_available", "resources": "15173", "timestamp": 4198428.43}
{"type": "machine_unavailable", "resources": "1601", "timestamp": 4201830.99}
{"type": "machine_available", "resources": "1601", "timestamp": 4202430.99}
{"type": "machine_unavailable", "resources": "30435", "timestamp": 4228309.15}
{"type": "machine_available", "resources": "30435", "timestamp": 4228909.15}
{"type": "machine_unavailable", "resources": "35096", "timestamp": 4250084.68}
{"type": "machine_available", "resources": "35096", "timestamp": 4250684.68}
{"type": "machine_unavailable", "resources": "13923", "timestamp": 4287040.43}
{"type": "machine_available", "resources": "13923", "timestamp": 4287640.43}
{"type": "machine_unavailable", "resources": "13771", "timestamp": 4328591.21}
{"type": "machine_available", "resources": "13771", "timestamp": 4329191.21}
{"type": "machine_unavailable", "resources": "28425", "timestamp": 4375584.96}
{"type": "machine_available", "resources": "28425", "timestamp": 4376184.96}
{"type": "machine_unavailable", "resources": "1397", "timestamp": 4395544.35}
{"type": "machine_available", "resources": "1397", "timestamp": 4396144.35}
{"type": "machine_unavailable", "resources": "3357", "timestamp": 4426866.74}
{"type": "machine_available", "resources": "3357", "timestamp": 4427466.74}
{"type": "machine_unavailable", "resources": "34410", "timestamp": 4503629.94}
{"type": "machine_available", "resources": "34410", "timestamp": 4504229.94}
{"type": "machine_unavailable", "resources": "6146", "timestamp": 4534975.09}
{"type": "machine_available", "resources": "6146", "timestamp": 4535575.09}
{"type": "machine_unavailable", "resources": "31444", "timestamp": 4574162.51}
{"type": "machine_available", "resources": "31444", "timestamp": 4574762.51}
{"type": "machine_unavailable", "resources": "34026", "timestamp": 4590578.39}
{"type": "machine_available", "resources": "34026", "timestamp": 4591178.39}
{"type": "machine_unavailable", "resources": "7771", "timestamp": 4707065.98}
{"type": "machine_available", "resources": "7771", "timestamp": 4707665.98}
{"type": "machine_unavailable", "resources": "18977", "timestamp": 4741011.03}
{"type": "machine_available", "resources": "18977", "timestamp": 4741611.03}
{"type": "machine_unavailable", "resources": "24394", "timestamp": 4783219.48}
{"type": "machine_available", "resources": "24394", "timestamp": 4783819.48}
{"type": "machine_unavailable", "resources": "44912", "timestamp": 4796487.86}
{"type": "machine_available", "resources": "44912", "timestamp": 4797087.86}
{"type": "machine_unavailable", "resources": "6882", "timestamp": 4815620.45}
{"type": "machine_available", "resources": "6882", "timestamp": 4816220.45}
{"type": "machine_unavailable", "resources": "44077", "timestamp": 4828766.62}
{"type": "machine_available", "resources": "44077", "timestamp": 4829366.62}
{"type": "machine_unavailable", "resources": "29584", "timestamp": 4891594.65}
{"type": "machine_available", "resources": "29584", "timestamp": 4892194.65}
{"type": "machine_unavailable", "resources": "41765", "timestamp": 4893821.81}
{"type": "machine_available", "resources": "41765", "timestamp": 4894421.81}
{"type": "machine_unavailable", "resources": "13647", "timestamp": 4917771.36}
{"type": "machine_available", "resources": "13647", "timestamp": 4918371.36}
{"type": "machine_unavailable", "resources": "40210", "timestamp": 4997083.65}
{"type": "machine_available", "resources": "40210", "timestamp": 4997683.65}
{"type": "machine_unavailable", "resources": "18635", "timestamp": 4999843.18}
{"type": "machine_available", "resources": "18635", "timestamp": 5000443.18}
{"type": "machine_unavailable", "resources": "20042", "timestamp": 5000722.95}
{"type": "machine_available", "resources": "20042", "timestamp": 5001322.95}
