{"type": "machine_unavailable", "resources": "35666", "timestamp": 4891.72}
{"type": "machine_available", "resources": "35666", "timestamp": 8491.72}
{"type": "machine_unavailable", "resources": "39578", "timestamp": 7407.19}
{"type": "machine_available", "resources": "39578", "timestamp": 11007.19}
{"type": "machine_unavailable", "resources": "38066", "timestamp": 18973.2}
{"type": "machine_available", "resources": "38066", "timestamp": 22573.2}
{"type": "machine_unavailable", "resources": "862", "timestamp": 20193.14}
{"type": "machine_available", "resources": "862", "timestamp": 23793.14}
{"type": "machine_unavailable", "resources": "30751", "timestamp": 63301.38}
{"type": "machine_available", "resources": "30751", "timestamp": 66901.38}
{"type": "machine_unavailable", "resources": "15357", "timestamp": 68705.57}
{"type": "machine_available", "resources": "15357", "timestamp": 72305.57}
{"type": "machine_unavailable", "resources": "46999", "timestamp": 72537.35}
{"type": "machine_available", "resources": "46999", "timestamp": 76137.35}
{"type": "machine_unavailable", "resources": "36020", "timestamp": 83974.11}
{"type": "machine_available", "resources": "36020", "timestamp": 87574.11}
{"type": "machine_unavailable", "resources": "41881", "timestamp": 95618.99}
{"type": "machine_available", "resources": "41881", "timestamp": 99218.99}
{"type": "machine_unavailable", "resources": "15199", "timestamp": 131140.92}
{"type": "machine_available", "resources": "15199", "timestamp": 134740.92}
{"type": "machine_unavailable", "resources": "34287", "timestamp": 149275.49}
{"type": "machine_available", "resources": "34287", "timestamp": 152875.49}
{"type": "machine_unavailable", "resources": "992", "timestamp": 158170.96}
{"type": "machine_available", "resources": "992", "timestamp": 161770.96}
{"type": "machine_unavailable", "resources": "4196", "timestamp": 178204.04}
{"type": "machine_available", "resources": "4196", "timestamp": 181804.04}
{"type": "machine_unavailable", "resources": "38738", "timestamp": 181329.55}
{"type": "machine_available", "resources": "38738", "timestamp": 184929.55}
{"type": "machine_unavailable", "resources": "2032", "timestamp": 182116.72}
{"type": "machine_available", "resources": "2032", "timestamp": 185716.72}
{"type": "machine_unavailable", "resources": "17657", "timestamp": 213343.73}
{"type": "machine_available", "resources": "17657", "timestamp": 216943.73}
{"type": "machine_unavailable", "resources": "47108", "timestamp": 224865.15}
{"type": "machine_available", "resources": "47108", "timestamp": 228465.15}
{"type": "machine_unavailable", "resources": "25402", "timestamp": 270363.54}
{"type": "machine_available", "resources": "25402", "timestamp": 273963.54}
{"type": "machine_unavailable", "resources": "27979", "timestamp": 292903.43}
{"type": "machine_available", "resources": "27979", "timestamp": 296503.43}
{"type": "machine_unavailable", "resources": "37808", "timestamp": 301947.82}
{"type": "machine_available", "resources": "37808", "timestamp": 305547.82}
{"type": "machine_unavailable", "resources": "8791", "timestamp": 312533.7}
{"type": "machine_available", "resources": "8791", "timestamp": 316133.7}
{"type": "machine_unavailable", "resources": "6386", "timestamp": 350529.24}
{"type": "machine_available", "resources": "6386", "timestamp": 354129.24}
{"type": "machine_unavailable", "resources": "32432", "timestamp": 351187.08}
{"type": "machine_available", "resources": "32432", "timestamp": 354787.08}
{"type": "machine_unavailable", "resources": "44042", "timestamp": 355589.99}
{"type": "machine_available", "resources": "44042", "timestamp": 359189.99}
{"type": "machine_unavailable", "resources": "41068", "timestamp": 365903.78}
{"type": "machine_available", "resources": "41068", "timestamp": 369503.78}
{"type": "machine_unavailable", "resources": "27600", "timestamp": 400690.19}
{"type": "machine_available", "resources": "27600", "timestamp": 404290.19}
{"type": "machine_unavailable", "resources": "25288", "timestamp": 413429.49}
{"type": "machine_available", "resources": "25288", "timestamp": 417029.49}
{"type": "machine_unavailable", "resources": "35002", "timestamp": 428790.14}
{"type": "machine_available", "resources": "35002", "timestamp": 432390.14}
{"type": "machine_unavailable", "resources": "38289", "timestamp": 444623.94}
{"type": "machine_available", "resources": "38289", "timestamp": 448223.94}
{"type": "machine_unavailable", "resources": "22070", "timestamp": 449384.38}
{"type": "machine_available", "resources": "22070", "timestamp": 452984.38}
{"type": "machine_unavailable", "resources": "1878", "timestamp": 470006.04}
{"type": "machine_available", "resources": "1878", "timestamp": 473606.04}
{"type": "machine_unavailable", "resources": "39702", "timestamp": 504939.14}
{"type": "machine_available", "resources": "39702", "timestamp": 508539.14}
{"type": "machine_unavailable", "resources": "10688", "timestamp": 524964.67}
{"type": "machine_available", "resources": "10688", "timestamp": 528564.67}
{"type": "machine_unavailable", "resources": "21390", "timestamp": 546553.32}
{"type": "machine_available", "resources": "21390", "timestamp": 550153.32}
{"type": "machine_unavailable", "resources": "37483", "timestamp": 606708.86}
{"type": "machine_available", "resources": "37483", "timestamp": 610308.86}
{"type": "machine_unavailable", "resources": "46780", "timestamp": 621863.0}
{"type": "machine_available", "resources": "46780", "timestamp": 625463.0}
{"type": "machine_unavailable", "resources": "41482", "timestamp": 641045.49}
{"type": "machine_available", "resources": "41482", "timestamp": 644645.49}
{"type": "machine_unavailable", "resources": "37587", "timestamp": 673111.77}
{"type": "machine_available", "resources": "37587", "timestamp": 676711.77}
{"type": "machine_unavailable", "resources": "8154", "timestamp": 678704.83}
{"type": "machine_available", "resources": "8154", "timestamp": 682304.83}
{"type": "machine_unavailable", "resources": "41861", "timestamp": 679884.98}
{"type": "machine_available", "resources": "41861", "timestamp": 683484.98}
{"type": "machine_unavailable", "resources": "5801", "timestamp": 762432.21}
{"type": "machine_available", "resources": "5801", "timestamp": 766032.21}
{"type": "machine_unavailable", "resources": "4365", "timestamp": 770023.11}
{"type": "machine_available", "resources": "4365", "timestamp": 773623.11}
{"type": "machine_unavailable", "resources": "9880", "timestamp": 779534.59}
{"type": "machine_available", "resources": "9880", "timestamp": 783134.59}
{"type": "machine_unavailable", "resources": "27993", "timestamp": 779900.54}
{"type": "machine_available", "resources": "27993", "timestamp": 783500.54}
{"type": "machine_unavailable", "resources": "7793", "timestamp": 806260.41}
{"type": "machine_available", "resources": "7793", "timestamp": 809860.41}
{"type": "machine_unavailable", "resources": "40274", "timestamp": 807073.94}
{"type": "machine_available", "resources": "40274", "timestamp": 810673.94}
{"type": "machine_unavailable", "resources": "24759", "timestamp": 832885.04}
{"type": "machine_available", "resources": "24759", "timestamp": 836485.04}
{"type": "machine_unavailable", "resources": "21689", "timestamp": 855698.45}
{"type": "machine_available", "resources": "21689", "timestamp": 859298.45}
{"type": "machine_unavailable", "resources": "18289", "timestamp": 870105.68}
{"type": "machine_available", "resources": "18289", "timestamp": 873705.68}
{"type": "machine_unavailable", "resources": "2360", "timestamp": 882778.53}
{"type": "machine_available", "resources": "2360", "timestamp": 886378.53}
{"type": "machine_unavailable", "resources": "5044", "timestamp": 889449.07}
{"type": "machine_available", "resources": "5044", "timestamp": 893049.07}
{"type": "machine_unavailable", "resources": "35099", "timestamp": 891508.68}
{"type": "machine_available", "resources": "35099", "timestamp": 895108.68}
{"type": "machine_unavailable", "resources": "12935", "timestamp": 892082.53}
{"type": "machine_available", "resources": "12935", "timestamp": 895682.53}
{"type": "machine_unavailable", "resources": "19111", "timestamp": 956078.85}
{"type": "machine_available", "resources": "19111", "timestamp": 959678.85}
{"type": "machine_unavailable", "resources": "10236", "timestamp": 973049.38}
{"type": "machine_available", "resources": "10236", "timestamp": 976649.38}
{"type": "machine_unavailable", "resources": "22270", "timestamp": 994115.18}
{"type": "machine_available", "resources": "22270", "timestamp": 997715.18}
{"type": "machine_unavailable", "resources": "9065", "timestamp": 1000894.53}
{"type": "machine_available", "resources": "9065", "timestamp": 1004494.53}
{"type": "machine_unavailable", "resources": "24758", "timestamp": 1041749.62}
{"type": "machine_available", "resources": "24758", "timestamp": 1045349.62}
{"type": "machine_unavailable", "resources": "34083", "timestamp": 1050260.19}
{"type": "machine_available", "resources": "34083", "timestamp": 1053860.19}
{"type": "machine_unavailable", "resources": "39036", "timestamp": 1059045.53}
{"type": "machine_available", "resources": "39036", "timestamp": 1062645.53}
{"type": "machine_unavailable", "resources": "6722", "timestamp": 1079610.04}
{"type": "machine_available", "resources": "6722", "timestamp": 1083210.04}
{"type": "machine_unavailable", "resources": "33228", "timestamp": 1097032.53}
{"type": "machine_available", "resources": "33228", "timestamp": 1100632.53}
{"type": "machine_unavailable", "resources": "41568", "timestamp": 1102729.42}
{"type": "machine_available", "resources": "41568", "timestamp": 1106329.42}
{"type": "machine_unavailable", "resources": "15573", "timestamp": 1125662.82}
{"type": "machine_available", "resources": "15573", "timestamp": 1129262.82}
{"type": "machine_unavailable", "resources": "28668", "timestamp": 1175265.54}
{"type": "machine_available", "resources": "28668", "timestamp": 1178865.54}
{"type": "machine_unavailable", "resources": "34152", "timestamp": 1243801.3}
{"type": "machine_available", "resources": "34152", "timestamp": 1247401.3}
{"type": "machine_unavailable", "resources": "22210", "timestamp": 1250298.58}
{"type": "machine_available", "resources": "22210", "timestamp": 1253898.58}
{"type": "machine_unavailable", "resources": "27211", "timestamp": 1250506.01}
{"type": "machine_available", "resources": "27211", "timestamp": 1254106.01}
{"type": "machine_unavailable", "resources": "20635", "timestamp": 1329319.14}
{"type": "machine_available", "resources": "20635", "timestamp": 1332919.14}
{"type": "machine_unavailable", "resources": "40356", "timestamp": 1329683.76}
{"type": "machine_available", "resources": "40356", "timestamp": 1333283.76}
{"type": "machine_unavailable", "resources": "8733", "timestamp": 1345697.58}
{"type": "machine_available", "resources": "8733", "timestamp": 1349297.58}
{"type": "machine_unavailable", "resources": "41113", "timestamp": 1346812.88}
{"type": "machine_available", "resources": "41113", "timestamp": 1350412.88}
{"type": "machine_unavailable", "resources": "23128", "timestamp": 1354087.44}
{"type": "machine_available", "resources": "23128", "timestamp": 1357687.44}
{"type": "machine_unavailable", "resources": "23106", "timestamp": 1374556.88}
{"type": "machine_available", "resources": "23106", "timestamp": 1378156.88}
{"type": "machine_unavailable", "resources": "18279", "timestamp": 1391453.48}
{"type": "machine_available", "resources": "18279", "timestamp": 1395053.48}
{"type": "machine_unavailable", "resources": "1453", "timestamp": 1415565.23}
{"type": "machine_available", "resources": "1453", "timestamp": 1419165.23}
{"type": "machine_unavailable", "resources": "44303", "timestamp": 1431586.66}
{"type": "machine_available", "resources": "44303", "timestamp": 1435186.66}
{"type": "machine_unavailable", "resources": "24193", "timestamp": 1431973.33}
{"type": "machine_available", "resources": "24193", "timestamp": 1435573.33}
{"type": "machine_unavailable", "resources": "29904", "timestamp": 1437178.56}
{"type": "machine_available", "resources": "29904", "timestamp": 1440778.56}
{"type": "machine_unavailable", "resources": "39416", "timestamp": 1443563.68}
{"type": "machine_available", "resources": "39416", "timestamp": 1447163.68}
{"type": "machine_unavailable", "resources": "23852", "timestamp": 1450506.28}
{"type": "machine_available", "resources": "23852", "timestamp": 1454106.28}
{"type": "machine_unavailable", "resources": "24192", "timestamp": 1454193.92}
{"type": "machine_available", "resources": "24192", "timestamp": 1457793.92}
{"type": "machine_unavailable", "resources": "17310", "timestamp": 1487617.76}
{"type": "machine_available", "resources": "17310", "timestamp": 1491217.76}
{"type": "machine_unavailable", "resources": "24717", "timestamp": 1494048.3}
{"type": "machine_available", "resources": "24717", "timestamp": 1497648.3}
{"type": "machine_unavailable", "resources": "1764", "timestamp": 1496042.49}
{"type": "machine_available", "resources": "1764", "timestamp": 1499642.49}
{"type": "machine_unavailable", "resources": "44809", "timestamp": 1560004.72}
{"type": "machine_available", "resources": "44809", "timestamp": 1563604.72}
{"type": "machine_unavailable", "resources": "20317", "timestamp": 1583920.95}
{"type": "machine_available", "resources": "20317", "timestamp": 1587520.95}
{"type": "machine_unavailable", "resources": "42842", "timestamp": 1596397.99}
{"type": "machine_available", "resources": "42842", "timestamp": 1599997.99}
{"type": "machine_unavailable", "resources": "15643", "timestamp": 1625713.87}
{"type": "machine_available", "resources": "15643", "timestamp": 1629313.87}
{"type": "machine_unavailable", "resources": "44437", "timestamp": 1632863.1}
{"type": "machine_available", "resources": "44437", "timestamp": 1636463.1}
{"type": "machine_unavailable", "resources": "45748", "timestamp": 1643147.3}
{"type": "machine_available", "resources": "45748", "timestamp": 1646747.3}
{"type": "machine_unavailable", "resources": "39369", "timestamp": 1644984.34}
{"type": "machine_available", "resources": "39369", "timestamp": 1648584.34}
{"type": "machine_unavailable", "resources": "21872", "timestamp": 1651978.38}
{"type": "machine_available", "resources": "21872", "timestamp": 1655578.38}
{"type": "machine_unavailable", "resources": "14710", "timestamp": 1672205.1}
{"type": "machine_available", "resources": "14710", "timestamp": 1675805.1}
{"type": "machine_unavailable", "resources": "11094", "timestamp": 1682591.46}
{"type": "machine_available", "resources": "11094", "timestamp": 1686191.46}
{"type": "machine_unavailable", "resources": "48632", "timestamp": 1684091.32}
{"type": "machine_available", "resources": "48632", "timestamp": 1687691.32}
{"type": "machine_unavailable", "resources": "37250", "timestamp": 1703000.07}
{"type": "machine_available", "resources": "37250", "timestamp": 1706600.07}
{"type": "machine_unavailable", "resources": "14747", "timestamp": 1713797.24}
{"type": "machine_available", "resources": "14747", "timestamp": 1717397.24}
{"type": "machine_unavailable", "resources": "2222", "timestamp": 1741634.16}
{"type": "machine_available", "resources": "2222", "timestamp": 1745234.16}
{"type": "machine_unavailable", "resources": "12504", "timestamp": 1755210.31}
{"type": "machine_available", "resources": "12504", "timestamp": 1758810.31}
{"type": "machine_unavailable", "resources": "37672", "timestamp": 1762024.07}
{"type": "machine_available", "resources": "37672", "timestamp": 1765624.07}
{"type": "machine_unavailable", "resources": "18257", "timestamp": 1765675.08}
{"type": "machine_available", "resources": "18257", "timestamp": 1769275.08}
{"type": "machine_unavailable", "resources": "42070", "timestamp": 1773157.35}
{"type": "machine_available", "resources": "42070", "timestamp": 1776757.35}
{"type": "machine_unavailable", "resources": "40588", "timestamp": 1774766.82}
{"type": "machine_available", "resources": "40588", "timestamp": 1778366.82}
{"type": "machine_unavailable", "resources": "8499", "timestamp": 1782390.75}
{"type": "machine_available", "resources": "8499", "timestamp": 1785990.75}
{"type": "machine_unavailable", "resources": "33973", "timestamp": 1792235.37}
{"type": "machine_available", "resources": "33973", "timestamp": 1795835.37}
{"type": "machine_unavailable", "resources": "17771", "timestamp": 1820661.13}
{"type": "machine_available", "resources": "17771", "timestamp": 1824261.13}
{"type": "machine_unavailable", "resources": "41561", "timestamp": 1831910.53}
{"type": "machine_available", "resources": "41561", "timestamp": 1835510.53}
{"type": "machine_unavailable", "resources": "27510", "timestamp": 1841619.84}
{"type": "machine_available", "resources": "27510", "timestamp": 1845219.84}
{"type": "machine_unavailable", "resources": "2329", "timestamp": 1856741.62}
{"type": "machine_available", "resources": "2329", "timestamp": 1860341.62}
{"type": "machine_unavailable", "resources": "10223", "timestamp": 1902343.05}
{"type": "machine_available", "resources": "10223", "timestamp": 1905943.05}
{"type": "machine_unavailable", "resources": "31283", "timestamp": 1906349.99}
{"type": "machine_available", "resources": "31283", "timestamp": 1909949.99}
{"type": "machine_unavailable", "resources": "40806", "timestamp": 1957999.44}
{"type": "machine_available", "resources": "40806", "timestamp": 1961599.44}
{"type": "machine_unavailable", "resources": "28465", "timestamp": 2036050.79}
{"type": "machine_available", "resources": "28465", "timestamp": 2039650.79}
{"type": "machine_unavailable", "resources": "47006", "timestamp": 2050782.33}
{"type": "machine_available", "resources": "47006", "timestamp": 2054382.33}
{"type": "machine_unavailable", "resources": "48858", "timestamp": 2055302.95}
{"type": "machine_available", "resources": "48858", "timestamp": 2058902.95}
{"type": "machine_unavailable", "resources": "43449", "timestamp": 2066283.68}
{"type": "machine_available", "resources": "43449", "timestamp": 2069883.68}
{"type": "machine_unavailable", "resources": "18942", "timestamp": 2091094.58}
{"type": "machine_available", "resources": "18942", "timestamp": 2094694.58}
{"type": "machine_unavailable", "resources": "14907", "timestamp": 2105223.82}
{"type": "machine_available", "resources": "14907", "timestamp": 2108823.82}
{"type": "machine_unavailable", "resources": "38579", "timestamp": 2140811.79}
{"type": "machine_available", "resources": "38579", "timestamp": 2144411.79}
{"type": "machine_unavailable", "resources": "7864", "timestamp": 2204517.81}
{"type": "machine_available", "resources": "7864", "timestamp": 2208117.81}
{"type": "machine_unavailable", "resources": "2954", "timestamp": 2234429.16}
{"type": "machine_available", "resources": "2954", "timestamp": 2238029.16}
{"type": "machine_unavailable", "resources": "45462", "timestamp": 2235073.14}
{"type": "machine_available", "resources": "45462", "timestamp": 2238673.14}
{"type": "machine_unavailable", "resources": "13006", "timestamp": 2247998.04}
{"type": "machine_available", "resources": "13006", "timestamp": 2251598.04}
{"type": "machine_unavailable", "resources": "28173", "timestamp": 2288837.03}
{"type": "machine_available", "resources": "28173", "timestamp": 2292437.03}
{"type": "machine_unavailable", "resources": "861", "timestamp": 2304321.94}
{"type": "machine_available", "resources": "861", "timestamp": 2307921.94}
{"type": "machine_unavailable", "resources": "7917", "timestamp": 2316128.92}
{"type": "machine_available", "resources": "7917", "timestamp": 2319728.92}
{"type": "machine_unavailable", "resources": "19653", "timestamp": 2319522.4}
{"type": "machine_available", "resources": "19653", "timestamp": 2323122.4}
{"type": "machine_unavailable", "resources": "1300", "timestamp": 2324439.69}
{"type": "machine_available", "resources": "1300", "timestamp": 2328039.69}
{"type": "machine_unavailable", "resources": "27115", "timestamp": 2337838.26}
{"type": "machine_available", "resources": "27115", "timestamp": 2341438.26}
{"type": "machine_unavailable", "resources": "40118", "timestamp": 2338823.16}
{"type": "machine_available", "resources": "40118", "timestamp": 2342423.16}
{"type": "machine_unavailable", "resources": "8218", "timestamp": 2340993.47}
{"type": "machine_available", "resources": "8218", "timestamp": 2344593.47}
{"type": "machine_unavailable", "resources": "35453", "timestamp": 2346231.24}
{"type": "machine_available", "resources": "35453", "timestamp": 2349831.24}
{"type": "machine_unavailable", "resources": "4021", "timestamp": 2357905.17}
{"type": "machine_available", "resources": "4021", "timestamp": 2361505.17}
{"type": "machine_unavailable", "resources": "12932", "timestamp": 2365710.33}
{"type": "machine_available", "resources": "12932", "timestamp": 2369310.33}
{"type": "machine_unavailable", "resources": "7812", "timestamp": 2368056.82}
{"type": "machine_available", "resources": "7812", "timestamp": 2371656.82}
{"type": "machine_unavailable", "resources": "17941", "timestamp": 2371439.02}
{"type": "machine_available", "resources": "17941", "timestamp": 2375039.02}
{"type": "machine_unavailable", "resources": "8420", "timestamp": 2417304.05}
{"type": "machine_available", "resources": "8420", "timestamp": 2420904.05}
{"type": "machine_unavailable", "resources": "491", "timestamp": 2448523.74}
{"type": "machine_available", "resources": "491", "timestamp": 2452123.74}
{"type": "machine_unavailable", "resources": "37414", "timestamp": 2460555.97}
{"type": "machine_available", "resources": "37414", "timestamp": 2464155.97}
{"type": "machine_unavailable", "resources": "3272", "timestamp": 2496277.48}
{"type": "machine_available", "resources": "3272", "timestamp": 2499877.48}
{"type": "machine_unavailable", "resources": "16269", "timestamp": 2521704.15}
{"type": "machine_available", "resources": "16269", "timestamp": 2525304.15}
{"type": "machine_unavailable", "resources": "34554", "timestamp": 2527334.11}
{"type": "machine_available", "resources": "34554", "timestamp": 2530934.11}
{"type": "machine_unavailable", "resources": "3340", "timestamp": 2540533.26}
{"type": "machine_available", "resources": "3340", "timestamp": 2544133.26}
{"type": "machine_unavailable", "resources": "118", "timestamp": 2552059.83}
{"type": "machine_available", "resources": "118", "timestamp": 2555659.83}
{"type": "machine_unavailable", "resources": "8314", "timestamp": 2587071.05}
{"type": "machine_available", "resources": "8314", "timestamp": 2590671.05}
{"type": "machine_unavailable", "resources": "3265", "timestamp": 2587922.19}
{"type": "machine_available", "resources": "3265", "timestamp": 2591522.19}
{"type": "machine_unavailable", "resources": "2163", "timestamp": 2589197.84}
{"type": "machine_available", "resources": "2163", "timestamp": 2592797.84}
{"type": "machine_unavailable", "resources": "5644", "timestamp": 2623887.95}
{"type": "machine_available", "resources": "5644", "timestamp": 2627487.95}
{"type": "machine_unavailable", "resources": "32112", "timestamp": 2636927.89}
{"type": "machine_available", "resources": "32112", "timestamp": 2640527.89}
{"type": "machine_unavailable", "resources": "20616", "timestamp": 2643761.51}
{"type": "machine_available", "resources": "20616", "timestamp": 2647361.51}
{"type": "machine_unavailable", "resources": "25283", "timestamp": 2645102.17}
{"type": "machine_available", "resources": "25283", "timestamp": 2648702.17}
{"type": "machine_unavailable", "resources": "38444", "timestamp": 2663840.94}
{"type": "machine_available", "resources": "38444", "timestamp": 2667440.94}
{"type": "machine_unavailable", "resources": "17362", "timestamp": 2670367.3}
{"type": "machine_available", "resources": "17362", "timestamp": 2673967.3}
{"type": "machine_unavailable", "resources": "21546", "timestamp": 2674184.34}
{"type": "machine_available", "resources": "21546", "timestamp": 2677784.34}
{"type": "machine_unavailable", "resources": "8363", "timestamp": 2684261.46}
{"type": "machine_available", "resources": "8363", "timestamp": 2687861.46}
{"type": "machine_unavailable", "resources": "46926", "timestamp": 2698857.0}
{"type": "machine_available", "resources": "46926", "timestamp": 2702457.0}
{"type": "machine_unavailable", "resources": "5236", "timestamp": 2721966.84}
{"type": "machine_available", "resources": "5236", "timestamp": 2725566.84}
{"type": "machine_unavailable", "resources": "2815", "timestamp": 2737022.11}
{"type": "machine_available", "resources": "2815", "timestamp": 2740622.11}
{"type": "machine_unavailable", "resources": "39612", "timestamp": 2745432.55}
{"type": "machine_available", "resources": "39612", "timestamp": 2749032.55}
{"type": "machine_unavailable", "resources": "35476", "timestamp": 2764343.3}
{"type": "machine_available", "resources": "35476", "timestamp": 2767943.3}
{"type": "machine_unavailable", "resources": "2846", "timestamp": 2772955.63}
{"type": "machine_available", "resources": "2846", "timestamp": 2776555.63}
{"type": "machine_unavailable", "resources": "28284", "timestamp": 2790511.3}
{"type": "machine_available", "resources": "28284", "timestamp": 2794111.3}
{"type": "machine_unavailable", "resources": "41120", "timestamp": 2791492.74}
{"type": "machine_available", "resources": "41120", "timestamp": 2795092.74}
{"type": "machine_unavailable", "resources": "46063", "timestamp": 2803831.38}
{"type": "machine_available", "resources": "46063", "timestamp": 2807431.38}
{"type": "machine_unavailable", "resources": "45490", "timestamp": 2810640.09}
{"type": "machine_available", "resources": "45490", "timestamp": 2814240.09}
{"type": "machine_unavailable", "resources": "1174", "timestamp": 2820392.28}
{"type": "machine_available", "resources": "1174", "timestamp": 2823992.28}
{"type": "machine_unavailable", "resources": "35116", "timestamp": 2825452.94}
{"type": "machine_available", "resources": "35116", "timestamp": 2829052.94}
{"type": "machine_unavailable", "resources": "38659", "timestamp": 2831119.97}
{"type": "machine_available", "resources": "38659", "timestamp": 2834719.97}
{"type": "machine_unavailable", "resources": "27845", "timestamp": 2832456.87}
{"type": "machine_available", "resources": "27845", "timestamp": 2836056.87}
{"type": "machine_unavailable", "resources": "8543", "timestamp": 2837031.95}
{"type": "machine_available", "resources": "8543", "timestamp": 2840631.95}
{"type": "machine_unavailable", "resources": "21336", "timestamp": 2875147.15}
{"type": "machine_available", "resources": "21336", "timestamp": 2878747.15}
{"type": "machine_unavailable", "resources": "36639", "timestamp": 2883585.22}
{"type": "machine_available", "resources": "36639", "timestamp": 2887185.22}
{"type": "machine_unavailable", "resources": "17182", "timestamp": 2911755.64}
{"type": "machine_available", "resources": "17182", "timestamp": 2915355.64}
{"type": "machine_unavailable", "resources": "45256", "timestamp": 2914086.34}
{"type": "machine_available", "resources": "45256", "timestamp": 2917686.34}
{"type": "machine_unavailable", "resources": "47941", "timestamp": 2916451.81}
{"type": "machine_available", "resources": "47941", "timestamp": 2920051.81}
{"type": "machine_unavailable", "resources": "34745", "timestamp": 2935992.01}
{"type": "machine_available", "resources": "34745", "timestamp": 2939592.01}
{"type": "machine_unavailable", "resources": "43749", "timestamp": 2964296.59}
{"type": "machine_available", "resources": "43749", "timestamp": 2967896.59}
{"type": "machine_unavailable", "resources": "20866", "timestamp": 2966366.5}
{"type": "machine_available", "resources": "20866", "timestamp": 2969966.5}
{"type": "machine_unavailable", "resources": "6758", "timestamp": 2981302.09}
{"type": "machine_available", "resources": "6758", "timestamp": 2984902.09}
{"type": "machine_unavailable", "resources": "46961", "timestamp": 3011349.46}
{"type": "machine_available", "resources": "46961", "timestamp": 3014949.46}
{"type": "machine_unavailable", "resources": "9405", "timestamp": 3011437.9}
{"type": "machine_available", "resources": "9405", "timestamp": 3015037.9}
{"type": "machine_unavailable", "resources": "25472", "timestamp": 3016282.57}
{"type": "machine_available", "resources": "25472", "timestamp": 3019882.57}
{"type": "machine_unavailable", "resources": "6016", "timestamp": 3017098.41}
{"type": "machine_available", "resources": "6016", "timestamp": 3020698.41}
{"type": "machine_unavailable", "resources": "43201", "timestamp": 3032053.73}
{"type": "machine_available", "resources": "43201", "timestamp": 3035653.73}
{"type": "machine_unavailable", "resources": "11741", "timestamp": 3070288.8}
{"type": "machine_available", "resources": "11741", "timestamp": 3073888.8}
{"type": "machine_unavailable", "resources": "22379", "timestamp": 3101099.9}
{"type": "machine_available", "resources": "22379", "timestamp": 3104699.9}
{"type": "machine_unavailable", "resources": "7948", "timestamp": 3134259.95}
{"type": "machine_available", "resources": "7948", "timestamp": 3137859.95}
{"type": "machine_unavailable", "resources": "7542", "timestamp": 3134724.3}
{"type": "machine_available", "resources": "7542", "timestamp": 3138324.3}
{"type": "machine_unavailable", "resources": "45635", "timestamp": 3154874.07}
{"type": "machine_available", "resources": "45635", "timestamp": 3158474.07}
{"type": "machine_unavailable", "resources": "37950", "timestamp": 3209686.96}
{"type": "machine_available", "resources": "37950", "timestamp": 3213286.96}
{"type": "machine_unavailable", "resources": "5818", "timestamp": 3216091.23}
{"type": "machine_available", "resources": "5818", "timestamp": 3219691.23}
{"type": "machine_unavailable", "resources": "36938", "timestamp": 3216756.21}
{"type": "machine_available", "resources": "36938", "timestamp": 3220356.21}
{"type": "machine_unavailable", "resources": "46868", "timestamp": 3229645.27}
{"type": "machine_available", "resources": "46868", "timestamp": 3233245.27}
{"type": "machine_unavailable", "resources": "36337", "timestamp": 3234545.04}
{"type": "machine_available", "resources": "36337", "timestamp": 3238145.04}
{"type": "machine_unavailable", "resources": "36262", "timestamp": 3259423.97}
{"type": "machine_available", "resources": "36262", "timestamp": 3263023.97}
{"type": "machine_unavailable", "resources": "21249", "timestamp": 3260559.56}
{"type": "machine_available", "resources": "21249", "timestamp": 3264159.56}
{"type": "machine_unavailable", "resources": "11824", "timestamp": 3297203.77}
{"type": "machine_available", "resources": "11824", "timestamp": 3300803.77}
{"type": "machine_unavailable", "resources": "15867", "timestamp": 3328894.67}
{"type": "machine_available", "resources": "15867", "timestamp": 3332494.67}
{"type": "machine_unavailable", "resources": "42334", "timestamp": 3444216.77}
{"type": "machine_available", "resources": "42334", "timestamp": 3447816.77}
{"type": "machine_unavailable", "resources": "40368", "timestamp": 3449394.23}
{"type": "machine_available", "resources": "40368", "timestamp": 3452994.23}
{"type": "machine_unavailable", "resources": "25803", "timestamp": 3471072.54}
{"type": "machine_available", "resources": "25803", "timestamp": 3474672.54}
{"type": "machine_unavailable", "resources": "39285", "timestamp": 3476320.46}
{"type": "machine_available", "resources": "39285", "timestamp": 3479920.46}
{"type": "machine_unavailable", "resources": "22956", "timestamp": 3485414.79}
{"type": "machine_available", "resources": "22956", "timestamp": 3489014.79}
{"type": "machine_unavailable", "resources": "5456", "timestamp": 3500055.46}
{"type": "machine_available", "resources": "5456", "timestamp": 3503655.46}
{"type": "machine_unavailable", "resources": "15418", "timestamp": 3508524.88}
{"type": "machine_available", "resources": "15418", "timestamp": 3512124.88}
{"type": "machine_unavailable", "resources": "27055", "timestamp": 3573577.09}
{"type": "machine_available", "resources": "27055", "timestamp": 3577177.09}
{"type": "machine_unavailable", "resources": "10526", "timestamp": 3606973.5}
{"type": "machine_available", "resources": "10526", "timestamp": 3610573.5}
{"type": "machine_unavailable", "resources": "37250", "timestamp": 3616632.42}
{"type": "machine_available", "resources": "37250", "timestamp": 3620232.42}
{"type": "machine_unavailable", "resources": "44161", "timestamp": 3642031.55}
{"type": "machine_available", "resources": "44161", "timestamp": 3645631.55}
{"type": "machine_unavailable", "resources": "44928", "timestamp": 3688401.87}
{"type": "machine_available", "resources": "44928", "timestamp": 3692001.87}
{"type": "machine_unavailable", "resources": "42136", "timestamp": 3700301.81}
{"type": "machine_available", "resources": "42136", "timestamp": 3703901.81}
{"type": "machine_unavailable", "resources": "9786", "timestamp": 3709528.26}
{"type": "machine_available", "resources": "9786", "timestamp": 3713128.26}
{"type": "machine_unavailable", "resources": "32634", "timestamp": 3712722.06}
{"type": "machine_available", "resources": "32634", "timestamp": 3716322.06}
{"type": "machine_unavailable", "resources": "45786", "timestamp": 3737542.99}
{"type": "machine_available", "resources": "45786", "timestamp": 3741142.99}
{"type": "machine_unavailable", "resources": "29035", "timestamp": 3750651.75}
{"type": "machine_available", "resources": "29035", "timestamp": 3754251.75}
{"type": "machine_unavailable", "resources": "12196", "timestamp": 3766546.13}
{"type": "machine_available", "resources": "12196", "timestamp": 3770146.13}
{"type": "machine_unavailable", "resources": "13053", "timestamp": 3769183.35}
{"type": "machine_available", "resources": "13053", "timestamp": 3772783.35}
{"type": "machine_unavailable", "resources": "33791", "timestamp": 3772035.89}
{"type": "machine_available", "resources": "33791", "timestamp": 3775635.89}
{"type": "machine_unavailable", "resources": "15224", "timestamp": 3778841.94}
{"type": "machine_available", "resources": "15224", "timestamp": 3782441.94}
{"type": "machine_unavailable", "resources": "35260", "timestamp": 3813169.91}
{"type": "machine_available", "resources": "35260", "timestamp": 3816769.91}
{"type": "machine_unavailable", "resources": "19389", "timestamp": 3868370.57}
{"type": "machine_available", "resources": "19389", "timestamp": 3871970.57}
{"type": "machine_unavailable", "resources": "27079", "timestamp": 3888402.2}
{"type": "machine_available", "resources": "27079", "timestamp": 3892002.2}
{"type": "machine_unavailable", "resources": "38310", "timestamp": 3904681.83}
{"type": "machine_available", "resources": "38310", "timestamp": 3908281.83}
{"type": "machine_unavailable", "resources": "17509", "timestamp": 3920497.16}
{"type": "machine_available", "resources": "17509", "timestamp": 3924097.16}
{"type": "machine_unavailable", "resources": "20134", "timestamp": 3960131.68}
{"type": "machine_available", "resources": "20134", "timestamp": 3963731.68}
{"type": "machine_unavailable", "resources": "31423", "timestamp": 3960552.81}
{"type": "machine_available", "resources": "31423", "timestamp": 3964152.81}
{"type": "machine_unavailable", "resources": "13148", "timestamp": 3989895.23}
{"type": "machine_available", "resources": "13148", "timestamp": 3993495.23}
{"type": "machine_unavailable", "resources": "23623", "timestamp": 3993297.97}
{"type": "machine_available", "resources": "23623", "timestamp": 3996897.97}
{"type": "machine_unavailable", "resources": "31627", "timestamp": 3998210.03}
{"type": "machine_available", "resources": "31627", "timestamp": 4001810.03}
{"type": "machine_unavailable", "resources": "9411", "timestamp": 4024996.29}
{"type": "machine_available", "resources": "9411", "timestamp": 4028596.29}
{"type": "machine_unavailable", "resources": "45714", "timestamp": 4034752.32}
{"type": "machine_available", "resources": "45714", "timestamp": 4038352.32}
{"type": "machine_unavailable", "resources": "39256", "timestamp": 4046508.8}
{"type": "machine_available", "resources": "39256", "timestamp": 4050108.8}
{"type": "machine_unavailable", "resources": "38044", "timestamp": 4050655.39}
{"type": "machine_available", "resources": "38044", "timestamp": 4054255.39}
{"type": "machine_unavailable", "resources": "42755", "timestamp": 4083045.66}
{"type": "machine_available", "resources": "42755", "timestamp": 4086645.66}
{"type": "machine_unavailable", "resources": "31542", "timestamp": 4097705.93}
{"type": "machine_available", "resources": "31542", "timestamp": 4101305.93}
{"type": "machine_unavailable", "resources": "4743", "timestamp": 4186485.74}
{"type": "machine_available", "resources": "4743", "timestamp": 4190085.74}
{"type": "machine_unavailable", "resources": "26231", "timestamp": 4221450.0}
{"type": "machine_available", "resources": "26231", "timestamp": 4225050.0}
{"type": "machine_unavailable", "resources": "3004", "timestamp": 4248960.99}
{"type": "machine_available", "resources": "3004", "timestamp": 4252560.99}
{"type": "machine_unavailable", "resources": "15047", "timestamp": 4260300.55}
{"type": "machine_available", "resources": "15047", "timestamp": 4263900.55}
{"type": "machine_unavailable", "resources": "42483", "timestamp": 4300194.01}
{"type": "machine_available", "resources": "42483", "timestamp": 4303794.01}
{"type": "machine_unavailable", "resources": "44259", "timestamp": 4322959.4}
{"type": "machine_available", "resources": "44259", "timestamp": 4326559.4}
{"type": "machine_unavailable", "resources": "14245", "timestamp": 4324251.44}
{"type": "machine_available", "resources": "14245", "timestamp": 4327851.44}
{"type": "machine_unavailable", "resources": "15865", "timestamp": 4358871.51}
{"type": "machine_available", "resources": "15865", "timestamp": 4362471.51}
{"type": "machine_unavailable", "resources": "16949", "timestamp": 4398630.68}
{"type": "machine_available", "resources": "16949", "timestamp": 4402230.68}
{"type": "machine_unavailable", "resources": "40757", "timestamp": 4401292.82}
{"type": "machine_available", "resources": "40757", "timestamp": 4404892.82}
{"type": "machine_unavailable", "resources": "2409", "timestamp": 4423250.65}
{"type": "machine_available", "resources": "2409", "timestamp": 4426850.65}
{"type": "machine_unavailable", "resources": "16712", "timestamp": 4464654.03}
{"type": "machine_available", "resources": "16712", "timestamp": 4468254.03}
{"type": "machine_unavailable", "resources": "2950", "timestamp": 4468001.66}
{"type": "machine_available", "resources": "2950", "timestamp": 4471601.66}
{"type": "machine_unavailable", "resources": "27741", "timestamp": 4474770.16}
{"type": "machine_available", "resources": "27741", "timestamp": 4478370.16}
{"type": "machine_unavailable", "resources": "5631", "timestamp": 4476486.71}
{"type": "machine_available", "resources": "5631", "timestamp": 4480086.71}
{"type": "machine_unavailable", "resources": "17313", "timestamp": 4478746.19}
{"type": "machine_available", "resources": "17313", "timestamp": 4482346.19}
{"type": "machine_unavailable", "resources": "19121", "timestamp": 4511062.32}
{"type": "machine_available", "resources": "19121", "timestamp": 4514662.32}
{"type": "machine_unavailable", "resources": "29645", "timestamp": 4511724.62}
{"type": "machine_available", "resources": "29645", "timestamp": 4515324.62}
{"type": "machine_unavailable", "resources": "44270", "timestamp": 4527352.49}
{"type": "machine_available", "resources": "44270", "timestamp": 4530952.49}
{"type": "machine_unavailable", "resources": "1925", "timestamp": 4534740.42}
{"type": "machine_available", "resources": "1925", "timestamp": 4538340.42}
{"type": "machine_unavailable", "resources": "28588", "timestamp": 4542078.49}
{"type": "machine_available", "resources": "28588", "timestamp": 4545678.49}
{"type": "machine_unavailable", "resources": "5109", "timestamp": 4550673.72}
{"type": "machine_available", "resources": "5109", "timestamp": 4554273.72}
{"type": "machine_unavailable", "resources": "38345", "timestamp": 4554918.92}
{"type": "machine_available", "resources": "38345", "timestamp": 4558518.92}
{"type": "machine_unavailable", "resources": "32111", "timestamp": 4579331.02}
{"type": "machine_available", "resources": "32111", "timestamp": 4582931.02}
{"type": "machine_unavailable", "resources": "35674", "timestamp": 4588255.52}
{"type": "machine_available", "resources": "35674", "timestamp": 4591855.52}
{"type": "machine_unavailable", "resources": "18006", "timestamp": 4595166.07}
{"type": "machine_available", "resources": "18006", "timestamp": 4598766.07}
{"type": "machine_unavailable", "resources": "28348", "timestamp": 4596593.6}
{"type": "machine_available", "resources": "28348", "timestamp": 4600193.6}
{"type": "machine_unavailable", "resources": "34569", "timestamp": 4598742.43}
{"type": "machine_available", "resources": "34569", "timestamp": 4602342.43}
{"type": "machine_unavailable", "resources": "6350", "timestamp": 4641839.54}
{"type": "machine_available", "resources": "6350", "timestamp": 4645439.54}
{"type": "machine_unavailable", "resources": "45921", "timestamp": 4655341.64}
{"type": "machine_available", "resources": "45921", "timestamp": 4658941.64}
{"type": "machine_unavailable", "resources": "24145", "timestamp": 4663779.35}
{"type": "machine_available", "resources": "24145", "timestamp": 4667379.35}
{"type": "machine_unavailable", "resources": "19368", "timestamp": 4689267.81}
{"type": "machine_available", "resources": "19368", "timestamp": 4692867.81}
{"type": "machine_unavailable", "resources": "43906", "timestamp": 4708840.66}
{"type": "machine_available", "resources": "43906", "timestamp": 4712440.66}
{"type": "machine_unavailable", "resources": "17405", "timestamp": 4727948.43}
{"type": "machine_available", "resources": "17405", "timestamp": 4731548.43}
{"type": "machine_unavailable", "resources": "22185", "timestamp": 4729988.81}
{"type": "machine_available", "resources": "22185", "timestamp": 4733588.81}
{"type": "machine_unavailable", "resources": "35138", "timestamp": 4750099.49}
{"type": "machine_available", "resources": "35138", "timestamp": 4753699.49}
{"type": "machine_unavailable", "resources": "43704", "timestamp": 4763525.22}
{"type": "machine_available", "resources": "43704", "timestamp": 4767125.22}
{"type": "machine_unavailable", "resources": "23079", "timestamp": 4775782.91}
{"type": "machine_available", "resources": "23079", "timestamp": 4779382.91}
{"type": "machine_unavailable", "resources": "19295", "timestamp": 4776887.54}
{"type": "machine_available", "resources": "19295", "timestamp": 4780487.54}
{"type": "machine_unavailable", "resources": "37119", "timestamp": 4797315.63}
{"type": "machine_available", "resources": "37119", "timestamp": 4800915.63}
{"type": "machine_unavailable", "resources": "42325", "timestamp": 4821720.34}
{"type": "machine_available", "resources": "42325", "timestamp": 4825320.34}
{"type": "machine_unavailable", "resources": "41345", "timestamp": 4840395.71}
{"type": "machine_available", "resources": "41345", "timestamp": 4843995.71}
{"type": "machine_unavailable", "resources": "24299", "timestamp": 4843311.35}
{"type": "machine_available", "resources": "24299", "timestamp": 4846911.35}
{"type": "machine_unavailable", "resources": "42950", "timestamp": 4883029.09}
{"type": "machine_available", "resources": "42950", "timestamp": 4886629.09}
{"type": "machine_unavailable", "resources": "7092", "timestamp": 4893929.38}
{"type": "machine_available", "resources": "7092", "timestamp": 4897529.38}
{"type": "machine_unavailable", "resources": "9265", "timestamp": 4942276.61}
{"type": "machine_available", "resources": "9265", "timestamp": 4945876.61}
{"type": "machine_unavailable", "resources": "42269", "timestamp": 4987923.01}
{"type": "machine_available", "resources": "42269", "timestamp": 4991523.01}
{"type": "machine_unavailable", "resources": "39153", "timestamp": 5010867.11}
{"type": "machine_available", "resources": "39153", "timestamp": 5014467.11}
