{"type": "machine_unavailable", "resources": "4135", "timestamp": 2597.24}
{"type": "machine_available", "resources": "4135", "timestamp": 88997.24}
{"type": "machine_unavailable", "resources": "32468", "timestamp": 7897.59}
{"type": "machine_available", "resources": "32468", "timestamp": 94297.59}
{"type": "machine_unavailable", "resources": "30949", "timestamp": 33658.01}
{"type": "machine_available", "resources": "30949", "timestamp": 120058.01}
{"type": "machine_unavailable", "resources": "13759", "timestamp": 52636.92}
{"type": "machine_available", "resources": "13759", "timestamp": 139036.92}
{"type": "machine_unavailable", "resources": "1857", "timestamp": 54411.02}
{"type": "machine_available", "resources": "1857", "timestamp": 140811.02}
{"type": "machine_unavailable", "resources": "25546", "timestamp": 94693.11}
{"type": "machine_available", "resources": "25546", "timestamp": 181093.11}
{"type": "machine_unavailable", "resources": "138", "timestamp": 104898.84}
{"type": "machine_available", "resources": "138", "timestamp": 191298.84}
{"type": "machine_unavailable", "resources": "17454", "timestamp": 126322.04}
{"type": "machine_available", "resources": "17454", "timestamp": 212722.04}
{"type": "machine_unavailable", "resources": "14992", "timestamp": 149334.7}
{"type": "machine_available", "resources": "14992", "timestamp": 235734.7}
{"type": "machine_unavailable", "resources": "6699", "timestamp": 165434.18}
{"type": "machine_available", "resources": "6699", "timestamp": 251834.18}
{"type": "machine_unavailable", "resources": "2004", "timestamp": 207139.51}
{"type": "machine_available", "resources": "2004", "timestamp": 293539.51}
{"type": "machine_unavailable", "resources": "42568", "timestamp": 207545.86}
{"type": "machine_available", "resources": "42568", "timestamp": 293945.86}
{"type": "machine_unavailable", "resources": "24982", "timestamp": 221578.73}
{"type": "machine_available", "resources": "24982", "timestamp": 307978.73}
{"type": "machine_unavailable", "resources": "27663", "timestamp": 242457.01}
{"type": "machine_available", "resources": "27663", "timestamp": 328857.01}
{"type": "machine_unavailable", "resources": "34578", "timestamp": 265750.62}
{"type": "machine_available", "resources": "34578", "timestamp": 352150.62}
{"type": "machine_unavailable", "resources": "28697", "timestamp": 270262.01}
{"type": "machine_available", "resources": "28697", "timestamp": 356662.01}
{"type": "machine_unavailable", "resources": "36232", "timestamp": 320655.23}
{"type": "machine_available", "resources": "36232", "timestamp": 407055.23}
{"type": "machine_unavailable", "resources": "15130", "timestamp": 325432.04}
{"type": "machine_available", "resources": "15130", "timestamp": 411832.04}
{"type": "machine_unavailable", "resources": "30120", "timestamp": 345765.45}
{"type": "machine_available", "resources": "30120", "timestamp": 432165.45}
{"type": "machine_unavailable", "resources": "1408", "timestamp": 400515.33}
{"type": "machine_available", "resources": "1408", "timestamp": 486915.33}
{"type": "machine_unavailable", "resources": "36467", "timestamp": 410202.25}
{"type": "machine_available", "resources": "36467", "timestamp": 496602.25}
{"type": "machine_unavailable", "resources": "6553", "timestamp": 456164.65}
{"type": "machine_available", "resources": "6553", "timestamp": 542564.65}
{"type": "machine_unavailable", "resources": "47424", "timestamp": 459866.89}
{"type": "machine_available", "resources": "47424", "timestamp": 546266.89}
{"type": "machine_unavailable", "resources": "7922", "timestamp": 495250.05}
{"type": "machine_available", "resources": "7922", "timestamp": 581650.05}
{"type": "machine_unavailable", "resources": "47283", "timestamp": 519716.55}
{"type": "machine_available", "resources": "47283", "timestamp": 606116.55}
{"type": "machine_unavailable", "resources": "32820", "timestamp": 584900.04}
{"type": "machine_available", "resources": "32820", "timestamp": 671300.04}
{"type": "machine_unavailable", "resources": "27663", "timestamp": 634504.08}
{"type": "machine_available", "resources": "27663", "timestamp": 720904.08}
{"type": "machine_unavailable", "resources": "43929", "timestamp": 647260.72}
{"type": "machine_available", "resources": "43929", "timestamp": 733660.72}
{"type": "machine_unavailable", "resources": "18622", "timestamp": 651050.36}
{"type": "machine_available", "resources": "18622", "timestamp": 737450.36}
{"type": "machine_unavailable", "resources": "32726", "timestamp": 666993.22}
{"type": "machine_available", "resources": "32726", "timestamp": 753393.22}
{"type": "machine_unavailable", "resources": "33114", "timestamp": 700690.76}
{"type": "machine_available", "resources": "33114", "timestamp": 787090.76}
{"type": "machine_unavailable", "resources": "2262", "timestamp": 709687.33}
{"type": "machine_available", "resources": "2262", "timestamp": 796087.33}
{"type": "machine_unavailable", "resources": "48741", "timestamp": 721465.86}
{"type": "machine_available", "resources": "48741", "timestamp": 807865.86}
{"type": "machine_unavailable", "resources": "27152", "timestamp": 750203.63}
{"type": "machine_available", "resources": "27152", "timestamp": 836603.63}
{"type": "machine_unavailable", "resources": "24059", "timestamp": 769875.1}
{"type": "machine_available", "resources": "24059", "timestamp": 856275.1}
{"type": "machine_unavailable", "resources": "46074", "timestamp": 784200.25}
{"type": "machine_available", "resources": "46074", "timestamp": 870600.25}
{"type": "machine_unavailable", "resources": "48379", "timestamp": 811117.17}
{"type": "machine_available", "resources": "48379", "timestamp": 897517.17}
{"type": "machine_unavailable", "resources": "28767", "timestamp": 819568.68}
{"type": "machine_available", "resources": "28767", "timestamp": 905968.68}
{"type": "machine_unavailable", "resources": "7073", "timestamp": 839187.3}
{"type": "machine_available", "resources": "7073", "timestamp": 925587.3}
{"type": "machine_unavailable", "resources": "34140", "timestamp": 866314.63}
{"type": "machine_available", "resources": "34140", "timestamp": 952714.63}
{"type": "machine_unavailable", "resources": "24282", "timestamp": 899295.65}
{"type": "machine_available", "resources": "24282", "timestamp": 985695.65}
{"type": "machine_unavailable", "resources": "1938", "timestamp": 911405.04}
{"type": "machine_available", "resources": "1938", "timestamp": 997805.04}
{"type": "machine_unavailable", "resources": "20219", "timestamp": 922809.77}
{"type": "machine_available", "resources": "20219", "timestamp": 1009209.77}
{"type": "machine_unavailable", "resources": "40292", "timestamp": 944685.36}
{"type": "machine_available", "resources": "40292", "timestamp": 1031085.36}
{"type": "machine_unavailable", "resources": "25794", "timestamp": 960874.45}
{"type": "machine_available", "resources": "25794", "timestamp": 1047274.45}
{"type": "machine_unavailable", "resources": "11048", "timestamp": 979625.58}
{"type": "machine_available", "resources": "11048", "timestamp": 1066025.58}
{"type": "machine_unavailable", "resources": "806", "timestamp": 992183.0}
{"type": "machine_available", "resources": "806", "timestamp": 1078583.0}
{"type": "machine_unavailable", "resources": "35364", "timestamp": 1018678.16}
{"type": "machine_available", "resources": "35364", "timestamp": 1105078.16}
{"type": "machine_unavailable", "resources": "35935", "timestamp": 1064160.73}
{"type": "machine_available", "resources": "35935", "timestamp": 1150560.73}
{"type": "machine_unavailable", "resources": "33670", "timestamp": 1068916.24}
{"type": "machine_available", "resources": "33670", "timestamp": 1155316.24}
{"type": "machine_unavailable", "resources": "37866", "timestamp": 1076500.16}
{"type": "machine_available", "resources": "37866", "timestamp": 1162900.16}
{"type": "machine_unavailable", "resources": "17647", "timestamp": 1084345.15}
{"type": "machine_available", "resources": "17647", "timestamp": 1170745.15}
{"type": "machine_unavailable", "resources": "39907", "timestamp": 1103722.2}
{"type": "machine_available", "resources": "39907", "timestamp": 1190122.2}
{"type": "machine_unavailable", "resources": "374", "timestamp": 1160408.93}
{"type": "machine_available", "resources": "374", "timestamp": 1246808.93}
{"type": "machine_unavailable", "resources": "48529", "timestamp": 1169121.01}
{"type": "machine_available", "resources": "48529", "timestamp": 1255521.01}
{"type": "machine_unavailable", "resources": "8470", "timestamp": 1182053.38}
{"type": "machine_available", "resources": "8470", "timestamp": 1268453.38}
{"type": "machine_unavailable", "resources": "36789", "timestamp": 1195215.33}
{"type": "machine_available", "resources": "36789", "timestamp": 1281615.33}
{"type": "machine_unavailable", "resources": "3678", "timestamp": 1199355.76}
{"type": "machine_available", "resources": "3678", "timestamp": 1285755.76}
{"type": "machine_unavailable", "resources": "23903", "timestamp": 1211164.62}
{"type": "machine_available", "resources": "23903", "timestamp": 1297564.62}
{"type": "machine_unavailable", "resources": "13096", "timestamp": 1226356.05}
{"type": "machine_available", "resources": "13096", "timestamp": 1312756.05}
{"type": "machine_unavailable", "resources": "27092", "timestamp": 1277304.09}
{"type": "machine_available", "resources": "27092", "timestamp": 1363704.09}
{"type": "machine_unavailable", "resources": "23382", "timestamp": 1289246.06}
{"type": "machine_available", "resources": "23382", "timestamp": 1375646.06}
{"type": "machine_unavailable", "resources": "103", "timestamp": 1298878.94}
{"type": "machine_available", "resources": "103", "timestamp": 1385278.94}
{"type": "machine_unavailable", "resources": "40861", "timestamp": 1312797.03}
{"type": "machine_available", "resources": "40861", "timestamp": 1399197.03}
{"type": "machine_unavailable", "resources": "21701", "timestamp": 1340586.47}
{"type": "machine_available", "resources": "21701", "timestamp": 1426986.47}
{"type": "machine_unavailable", "resources": "1833", "timestamp": 1351616.15}
{"type": "machine_available", "resources": "1833", "timestamp": 1438016.15}
{"type": "machine_unavailable", "resources": "41639", "timestamp": 1381002.06}
{"type": "machine_available", "resources": "41639", "timestamp": 1467402.06}
{"type": "machine_unavailable", "resources": "38303", "timestamp": 1384513.06}
{"type": "machine_available", "resources": "38303", "timestamp": 1470913.06}
{"type": "machine_unavailable", "resources": "6003", "timestamp": 1388102.39}
{"type": "machine_available", "resources": "6003", "timestamp": 1474502.39}
{"type": "machine_unavailable", "resources": "16730", "timestamp": 1416932.32}
{"type": "machine_available", "resources": "16730", "timestamp": 1503332.32}
{"type": "machine_unavailable", "resources": "44113", "timestamp": 1417526.28}
{"type": "machine_available", "resources": "44113", "timestamp": 1503926.28}
{"type": "machine_unavailable", "resources": "1093", "timestamp": 1418841.33}
{"type": "machine_available", "resources": "1093", "timestamp": 1505241.33}
{"type": "machine_unavailable", "resources": "18428", "timestamp": 1429700.81}
{"type": "machine_available", "resources": "18428", "timestamp": 1516100.81}
{"type": "machine_unavailable", "resources": "7175", "timestamp": 1434868.51}
{"type": "machine_available", "resources": "7175", "timestamp": 1521268.51}
{"type": "machine_unavailable", "resources": "12098", "timestamp": 1463595.93}
{"type": "machine_available", "resources": "12098", "timestamp": 1549995.93}
{"type": "machine_unavailable", "resources": "4555", "timestamp": 1471196.24}
{"type": "machine_available", "resources": "4555", "timestamp": 1557596.24}
{"type": "machine_unavailable", "resources": "16725", "timestamp": 1474495.4}
{"type": "machine_available", "resources": "16725", "timestamp": 1560895.4}
{"type": "machine_unavailable", "resources": "11019", "timestamp": 1487985.76}
{"type": "machine_available", "resources": "11019", "timestamp": 1574385.76}
{"type": "machine_unavailable", "resources": "42480", "timestamp": 1507228.19}
{"type": "machine_available", "resources": "42480", "timestamp": 1593628.19}
{"type": "machine_unavailable", "resources": "29799", "timestamp": 1529608.89}
{"type": "machine_available", "resources": "29799", "timestamp": 1616008.89}
{"type": "machine_unavailable", "resources": "32538", "timestamp": 1551438.63}
{"type": "machine_available", "resources": "32538", "timestamp": 1637838.63}
{"type": "machine_unavailable", "resources": "1548", "timestamp": 1562994.97}
{"type": "machine_available", "resources": "1548", "timestamp": 1649394.97}
{"type": "machine_unavailable", "resources": "22501", "timestamp": 1569726.49}
{"type": "machine_available", "resources": "22501", "timestamp": 1656126.49}
{"type": "machine_unavailable", "resources": "12323", "timestamp": 1579560.11}
{"type": "machine_available", "resources": "12323", "timestamp": 1665960.11}
{"type": "machine_unavailable", "resources": "16610", "timestamp": 1584941.63}
{"type": "machine_available", "resources": "16610", "timestamp": 1671341.63}
{"type": "machine_unavailable", "resources": "33430", "timestamp": 1626355.52}
{"type": "machine_available", "resources": "33430", "timestamp": 1712755.52}
{"type": "machine_unavailable", "resources": "39691", "timestamp": 1694052.55}
{"type": "machine_available", "resources": "39691", "timestamp": 1780452.55}
{"type": "machine_unavailable", "resources": "1364", "timestamp": 1704223.05}
{"type": "machine_available", "resources": "1364", "timestamp": 1790623.05}
{"type": "machine_unavailable", "resources": "26038", "timestamp": 1708819.8}
{"type": "machine_available", "resources": "26038", "timestamp": 1795219.8}
{"type": "machine_unavailable", "resources": "47109", "timestamp": 1711670.37}
{"type": "machine_available", "resources": "47109", "timestamp": 1798070.37}
{"type": "machine_unavailable", "resources": "29207", "timestamp": 1769562.19}
{"type": "machine_available", "resources": "29207", "timestamp": 1855962.19}
{"type": "machine_unavailable", "resources": "44444", "timestamp": 1791512.18}
{"type": "machine_available", "resources": "44444", "timestamp": 1877912.18}
{"type": "machine_unavailable", "resources": "14457", "timestamp": 1801525.31}
{"type": "machine_available", "resources": "14457", "timestamp": 1887925.31}
{"type": "machine_unavailable", "resources": "41338", "timestamp": 1869407.36}
{"type": "machine_available", "resources": "41338", "timestamp": 1955807.36}
{"type": "machine_unavailable", "resources": "33855", "timestamp": 1898181.29}
{"type": "machine_available", "resources": "33855", "timestamp": 1984581.29}
{"type": "machine_unavailable", "resources": "34334", "timestamp": 1908970.03}
{"type": "machine_available", "resources": "34334", "timestamp": 1995370.03}
{"type": "machine_unavailable", "resources": "25880", "timestamp": 1927790.18}
{"type": "machine_available", "resources": "25880", "timestamp": 2014190.18}
{"type": "machine_unavailable", "resources": "21053", "timestamp": 1948015.53}
{"type": "machine_available", "resources": "21053", "timestamp": 2034415.53}
{"type": "machine_unavailable", "resources": "27937", "timestamp": 1967424.78}
{"type": "machine_available", "resources": "27937", "timestamp": 2053824.78}
{"type": "machine_unavailable", "resources": "19569", "timestamp": 1968515.29}
{"type": "machine_available", "resources": "19569", "timestamp": 2054915.29}
{"type": "machine_unavailable", "resources": "13902", "timestamp": 1970932.92}
{"type": "machine_available", "resources": "13902", "timestamp": 2057332.92}
{"type": "machine_unavailable", "resources": "20079", "timestamp": 2008439.96}
{"type": "machine_available", "resources": "20079", "timestamp": 2094839.96}
{"type": "machine_unavailable", "resources": "5009", "timestamp": 2009760.31}
{"type": "machine_available", "resources": "5009", "timestamp": 2096160.31}
{"type": "machine_unavailable", "resources": "19521", "timestamp": 2016448.94}
{"type": "machine_available", "resources": "19521", "timestamp": 2102848.94}
{"type": "machine_unavailable", "resources": "27274", "timestamp": 2040964.24}
{"type": "machine_available", "resources": "27274", "timestamp": 2127364.24}
{"type": "machine_unavailable", "resources": "8545", "timestamp": 2055945.15}
{"type": "machine_available", "resources": "8545", "timestamp": 2142345.15}
{"type": "machine_unavailable", "resources": "2484", "timestamp": 2056098.45}
{"type": "machine_available", "resources": "2484", "timestamp": 2142498.45}
{"type": "machine_unavailable", "resources": "14260", "timestamp": 2072172.87}
{"type": "machine_available", "resources": "14260", "timestamp": 2158572.87}
{"type": "machine_unavailable", "resources": "37373", "timestamp": 2131131.44}
{"type": "machine_available", "resources": "37373", "timestamp": 2217531.44}
{"type": "machine_unavailable", "resources": "46138", "timestamp": 2142251.23}
{"type": "machine_available", "resources": "46138", "timestamp": 2228651.23}
{"type": "machine_unavailable", "resources": "2452", "timestamp": 2159808.64}
{"type": "machine_available", "resources": "2452", "timestamp": 2246208.64}
{"type": "machine_unavailable", "resources": "22736", "timestamp": 2168354.41}
{"type": "machine_available", "resources": "22736", "timestamp": 2254754.41}
{"type": "machine_unavailable", "resources": "37577", "timestamp": 2170231.42}
{"type": "machine_available", "resources": "37577", "timestamp": 2256631.42}
{"type": "machine_unavailable", "resources": "28373", "timestamp": 2190415.31}
{"type": "machine_available", "resources": "28373", "timestamp": 2276815.31}
{"type": "machine_unavailable", "resources": "32266", "timestamp": 2206526.05}
{"type": "machine_available", "resources": "32266", "timestamp": 2292926.05}
{"type": "machine_unavailable", "resources": "43644", "timestamp": 2208511.24}
{"type": "machine_available", "resources": "43644", "timestamp": 2294911.24}
{"type": "machine_unavailable", "resources": "33037", "timestamp": 2217410.36}
{"type": "machine_available", "resources": "33037", "timestamp": 2303810.36}
{"type": "machine_unavailable", "resources": "21321", "timestamp": 2229879.81}
{"type": "machine_available", "resources": "21321", "timestamp": 2316279.81}
{"type": "machine_unavailable", "resources": "26366", "timestamp": 2246927.26}
{"type": "machine_available", "resources": "26366", "timestamp": 2333327.26}
{"type": "machine_unavailable", "resources": "1185", "timestamp": 2288315.97}
{"type": "machine_available", "resources": "1185", "timestamp": 2374715.97}
{"type": "machine_unavailable", "resources": "21478", "timestamp": 2291389.42}
{"type": "machine_available", "resources": "21478", "timestamp": 2377789.42}
{"type": "machine_unavailable", "resources": "36919", "timestamp": 2321390.82}
{"type": "machine_available", "resources": "36919", "timestamp": 2407790.82}
{"type": "machine_unavailable", "resources": "22222", "timestamp": 2348867.43}
{"type": "machine_available", "resources": "22222", "timestamp": 2435267.43}
{"type": "machine_unavailable", "resources": "17467", "timestamp": 2358961.6}
{"type": "machine_available", "resources": "17467", "timestamp": 2445361.6}
{"type": "machine_unavailable", "resources": "24853", "timestamp": 2379162.19}
{"type": "machine_available", "resources": "24853", "timestamp": 2465562.19}
{"type": "machine_unavailable", "resources": "22534", "timestamp": 2427600.34}
{"type": "machine_available", "resources": "22534", "timestamp": 2514000.34}
{"type": "machine_unavailable", "resources": "45030", "timestamp": 2471854.99}
{"type": "machine_available", "resources": "45030", "timestamp": 2558254.99}
{"type": "machine_unavailable", "resources": "34899", "timestamp": 2485612.0}
{"type": "machine_available", "resources": "34899", "timestamp": 2572012.0}
{"type": "machine_unavailable", "resources": "47544", "timestamp": 2490425.37}
{"type": "machine_available", "resources": "47544", "timestamp": 2576825.37}
{"type": "machine_unavailable", "resources": "8717", "timestamp": 2491167.68}
{"type": "machine_available", "resources": "8717", "timestamp": 2577567.68}
{"type": "machine_unavailable", "resources": "35272", "timestamp": 2494514.98}
{"type": "machine_available", "resources": "35272", "timestamp": 2580914.98}
{"type": "machine_unavailable", "resources": "21773", "timestamp": 2498825.74}
{"type": "machine_available", "resources": "21773", "timestamp": 2585225.74}
{"type": "machine_unavailable", "resources": "16730", "timestamp": 2515328.37}
{"type": "machine_available", "resources": "16730", "timestamp": 2601728.37}
{"type": "machine_unavailable", "resources": "22300", "timestamp": 2523591.03}
{"type": "machine_available", "resources": "22300", "timestamp": 2609991.03}
{"type": "machine_unavailable", "resources": "15413", "timestamp": 2525767.95}
{"type": "machine_available", "resources": "15413", "timestamp": 2612167.95}
{"type": "machine_unavailable", "resources": "39582", "timestamp": 2562138.17}
{"type": "machine_available", "resources": "39582", "timestamp": 2648538.17}
{"type": "machine_unavailable", "resources": "46865", "timestamp": 2589354.86}
{"type": "machine_available", "resources": "46865", "timestamp": 2675754.86}
{"type": "machine_unavailable", "resources": "8870", "timestamp": 2628643.75}
{"type": "machine_available", "resources": "8870", "timestamp": 2715043.75}
{"type": "machine_unavailable", "resources": "6833", "timestamp": 2644256.92}
{"type": "machine_available", "resources": "6833", "timestamp": 2730656.92}
{"type": "machine_unavailable", "resources": "26646", "timestamp": 2651218.07}
{"type": "machine_available", "resources": "26646", "timestamp": 2737618.07}
{"type": "machine_unavailable", "resources": "9655", "timestamp": 2652586.26}
{"type": "machine_available", "resources": "9655", "timestamp": 2738986.26}
{"type": "machine_unavailable", "resources": "22341", "timestamp": 2684323.98}
{"type": "machine_available", "resources": "22341", "timestamp": 2770723.98}
{"type": "machine_unavailable", "resources": "38496", "timestamp": 2686516.68}
{"type": "machine_available", "resources": "38496", "timestamp": 2772916.68}
{"type": "machine_unavailable", "resources": "24775", "timestamp": 2713927.41}
{"type": "machine_available", "resources": "24775", "timestamp": 2800327.41}
{"type": "machine_unavailable", "resources": "36062", "timestamp": 2715362.89}
{"type": "machine_available", "resources": "36062", "timestamp": 2801762.89}
{"type": "machine_unavailable", "resources": "5357", "timestamp": 2719921.11}
{"type": "machine_available", "resources": "5357", "timestamp": 2806321.11}
{"type": "machine_unavailable", "resources": "23913", "timestamp": 2774671.66}
{"type": "machine_available", "resources": "23913", "timestamp": 2861071.66}
{"type": "machine_unavailable", "resources": "36991", "timestamp": 2814528.74}
{"type": "machine_available", "resources": "36991", "timestamp": 2900928.74}
{"type": "machine_unavailable", "resources": "7491", "timestamp": 2828284.36}
{"type": "machine_available", "resources": "7491", "timestamp": 2914684.36}
{"type": "machine_unavailable", "resources": "18165", "timestamp": 2839301.51}
{"type": "machine_available", "resources": "18165", "timestamp": 2925701.51}
{"type": "machine_unavailable", "resources": "2998", "timestamp": 2841353.28}
{"type": "machine_available", "resources": "2998", "timestamp": 2927753.28}
{"type": "machine_unavailable", "resources": "811", "timestamp": 2873013.73}
{"type": "machine_available", "resources": "811", "timestamp": 2959413.73}
{"type": "machine_unavailable", "resources": "953", "timestamp": 2890133.19}
{"type": "machine_available", "resources": "953", "timestamp": 2976533.19}
{"type": "machine_unavailable", "resources": "7543", "timestamp": 2891864.11}
{"type": "machine_available", "resources": "7543", "timestamp": 2978264.11}
{"type": "machine_unavailable", "resources": "2622", "timestamp": 2923353.13}
{"type": "machine_available", "resources": "2622", "timestamp": 3009753.13}
{"type": "machine_unavailable", "resources": "38456", "timestamp": 2927099.99}
{"type": "machine_available", "resources": "38456", "timestamp": 3013499.99}
{"type": "machine_unavailable", "resources": "7573", "timestamp": 2936936.56}
{"type": "machine_available", "resources": "7573", "timestamp": 3023336.56}
{"type": "machine_unavailable", "resources": "44622", "timestamp": 2947727.39}
{"type": "machine_available", "resources": "44622", "timestamp": 3034127.39}
{"type": "machine_unavailable", "resources": "48759", "timestamp": 2952700.92}
{"type": "machine_available", "resources": "48759", "timestamp": 3039100.92}
{"type": "machine_unavailable", "resources": "28514", "timestamp": 2986261.06}
{"type": "machine_available", "resources": "28514", "timestamp": 3072661.06}
{"type": "machine_unavailable", "resources": "24790", "timestamp": 3029757.62}
{"type": "machine_available", "resources": "24790", "timestamp": 3116157.62}
{"type": "machine_unavailable", "resources": "35581", "timestamp": 3059321.04}
{"type": "machine_available", "resources": "35581", "timestamp": 3145721.04}
{"type": "machine_unavailable", "resources": "19269", "timestamp": 3102509.27}
{"type": "machine_available", "resources": "19269", "timestamp": 3188909.27}
{"type": "machine_unavailable", "resources": "46636", "timestamp": 3116890.77}
{"type": "machine_available", "resources": "46636", "timestamp": 3203290.77}
{"type": "machine_unavailable", "resources": "6562", "timestamp": 3128558.25}
{"type": "machine_available", "resources": "6562", "timestamp": 3214958.25}
{"type": "machine_unavailable", "resources": "20802", "timestamp": 3132746.98}
{"type": "machine_available", "resources": "20802", "timestamp": 3219146.98}
{"type": "machine_unavailable", "resources": "688", "timestamp": 3133474.66}
{"type": "machine_available", "resources": "688", "timestamp": 3219874.66}
{"type": "machine_unavailable", "resources": "19369", "timestamp": 3161299.16}
{"type": "machine_available", "resources": "19369", "timestamp": 3247699.16}
{"type": "machine_unavailable", "resources": "20987", "timestamp": 3184634.26}
{"type": "machine_available", "resources": "20987", "timestamp": 3271034.26}
{"type": "machine_unavailable", "resources": "20531", "timestamp": 3195390.24}
{"type": "machine_available", "resources": "20531", "timestamp": 3281790.24}
{"type": "machine_unavailable", "resources": "4206", "timestamp": 3204541.81}
{"type": "machine_available", "resources": "4206", "timestamp": 3290941.81}
{"type": "machine_unavailable", "resources": "39416", "timestamp": 3248576.35}
{"type": "machine_available", "resources": "39416", "timestamp": 3334976.35}
{"type": "machine_unavailable", "resources": "7298", "timestamp": 3311572.71}
{"type": "machine_available", "resources": "7298", "timestamp": 3397972.71}
{"type": "machine_unavailable", "resources": "40488", "timestamp": 3316752.5}
{"type": "machine_available", "resources": "40488", "timestamp": 3403152.5}
{"type": "machine_unavailable", "resources": "35580", "timestamp": 3343837.39}
{"type": "machine_available", "resources": "35580", "timestamp": 3430237.39}
{"type": "machine_unavailable", "resources": "30731", "timestamp": 3380233.97}
{"type": "machine_available", "resources": "30731", "timestamp": 3466633.97}
{"type": "machine_unavailable", "resources": "16979", "timestamp": 3399749.92}
{"type": "machine_available", "resources": "16979", "timestamp": 3486149.92}
{"type": "machine_unavailable", "resources": "13620", "timestamp": 3403392.92}
{"type": "machine_available", "resources": "13620", "timestamp": 3489792.92}
{"type": "machine_unavailable", "resources": "16146", "timestamp": 3410002.32}
{"type": "machine_available", "resources": "16146", "timestamp": 3496402.32}
{"type": "machine_unavailable", "resources": "18401", "timestamp": 3418048.53}
{"type": "machine_available", "resources": "18401", "timestamp": 3504448.53}
{"type": "machine_unavailable", "resources": "29353", "timestamp": 3419734.55}
{"type": "machine_available", "resources": "29353", "timestamp": 3506134.55}
{"type": "machine_unavailable", "resources": "37641", "timestamp": 3421441.81}
{"type": "machine_available", "resources": "37641", "timestamp": 3507841.81}
{"type": "machine_unavailable", "resources": "14904", "timestamp": 3440005.68}
{"type": "machine_available", "resources": "14904", "timestamp": 3526405.68}
{"type": "machine_unavailable", "resources": "20105", "timestamp": 3448917.14}
{"type": "machine_available", "resources": "20105", "timestamp": 3535317.14}
{"type": "machine_unavailable", "resources": "12242", "timestamp": 3449671.68}
{"type": "machine_available", "resources": "12242", "timestamp": 3536071.68}
{"type": "machine_unavailable", "resources": "37945", "timestamp": 3456527.39}
{"type": "machine_available", "resources": "37945", "timestamp": 3542927.39}
{"type": "machine_unavailable", "resources": "19844", "timestamp": 3496840.42}
{"type": "machine_available", "resources": "19844", "timestamp": 3583240.42}
{"type": "machine_unavailable", "resources": "6615", "timestamp": 3501919.33}
{"type": "machine_available", "resources": "6615", "timestamp": 3588319.33}
{"type": "machine_unavailable", "resources": "37944", "timestamp": 3516062.95}
{"type": "machine_available", "resources": "37944", "timestamp": 3602462.95}
{"type": "machine_unavailable", "resources": "6032", "timestamp": 3545727.15}
{"type": "machine_available", "resources": "6032", "timestamp": 3632127.15}
{"type": "machine_unavailable", "resources": "1335", "timestamp": 3550788.16}
{"type": "machine_available", "resources": "1335", "timestamp": 3637188.16}
{"type": "machine_unavailable", "resources": "26330", "timestamp": 3580517.55}
{"type": "machine_available", "resources": "26330", "timestamp": 3666917.55}
{"type": "machine_unavailable", "resources": "36123", "timestamp": 3581868.93}
{"type": "machine_available", "resources": "36123", "timestamp": 3668268.93}
{"type": "machine_unavailable", "resources": "47786", "timestamp": 3618257.65}
{"type": "machine_available", "resources": "47786", "timestamp": 3704657.65}
{"type": "machine_unavailable", "resources": "41640", "timestamp": 3619663.48}
{"type": "machine_available", "resources": "41640", "timestamp": 3706063.48}
{"type": "machine_unavailable", "resources": "23539", "timestamp": 3619842.88}
{"type": "machine_available", "resources": "23539", "timestamp": 3706242.88}
{"type": "machine_unavailable", "resources": "10104", "timestamp": 3632078.55}
{"type": "machine_available", "resources": "10104", "timestamp": 3718478.55}
{"type": "machine_unavailable", "resources": "21501", "timestamp": 3633993.74}
{"type": "machine_available", "resources": "21501", "timestamp": 3720393.74}
{"type": "machine_unavailable", "resources": "43597", "timestamp": 3635438.1}
{"type": "machine_available", "resources": "43597", "timestamp": 3721838.1}
{"type": "machine_unavailable", "resources": "9801", "timestamp": 3638862.48}
{"type": "machine_available", "resources": "9801", "timestamp": 3725262.48}
{"type": "machine_unavailable", "resources": "20957", "timestamp": 3714332.65}
{"type": "machine_available", "resources": "20957", "timestamp": 3800732.65}
{"type": "machine_unavailable", "resources": "46486", "timestamp": 3720897.97}
{"type": "machine_available", "resources": "46486", "timestamp": 3807297.97}
{"type": "machine_unavailable", "resources": "39445", "timestamp": 3733899.08}
{"type": "machine_available", "resources": "39445", "timestamp": 3820299.08}
{"type": "machine_unavailable", "resources": "13548", "timestamp": 3740152.59}
{"type": "machine_available", "resources": "13548", "timestamp": 3826552.59}
{"type": "machine_unavailable", "resources": "47358", "timestamp": 3742902.61}
{"type": "machine_available", "resources": "47358", "timestamp": 3829302.61}
{"type": "machine_unavailable", "resources": "20713", "timestamp": 3743483.56}
{"type": "machine_available", "resources": "20713", "timestamp": 3829883.56}
{"type": "machine_unavailable", "resources": "40863", "timestamp": 3774453.21}
{"type": "machine_available", "resources": "40863", "timestamp": 3860853.21}
{"type": "machine_unavailable", "resources": "36238", "timestamp": 3803773.55}
{"type": "machine_available", "resources": "36238", "timestamp": 3890173.55}
{"type": "machine_unavailable", "resources": "48901", "timestamp": 3836841.03}
{"type": "machine_available", "resources": "48901", "timestamp": 3923241.03}
{"type": "machine_unavailable", "resources": "13463", "timestamp": 3914922.23}
{"type": "machine_available", "resources": "13463", "timestamp": 4001322.23}
{"type": "machine_unavailable", "resources": "28353", "timestamp": 3918453.89}
{"type": "machine_available", "resources": "28353", "timestamp": 4004853.89}
{"type": "machine_unavailable", "resources": "3182", "timestamp": 3932333.55}
{"type": "machine_available", "resources": "3182", "timestamp": 4018733.55}
{"type": "machine_unavailable", "resources": "43763", "timestamp": 3954917.26}
{"type": "machine_available", "resources": "43763", "timestamp": 4041317.26}
{"type": "machine_unavailable", "resources": "4221", "timestamp": 3960030.78}
{"type": "machine_available", "resources": "4221", "timestamp": 4046430.78}
{"type": "machine_unavailable", "resources": "29274", "timestamp": 3980657.74}
{"type": "machine_available", "resources": "29274", "timestamp": 4067057.74}
{"type": "machine_unavailable", "resources": "35996", "timestamp": 4010386.12}
{"type": "machine_available", "resources": "35996", "timestamp": 4096786.12}
{"type": "machine_unavailable", "resources": "28796", "timestamp": 4015569.67}
{"type": "machine_available", "resources": "28796", "timestamp": 4101969.67}
{"type": "machine_unavailable", "resources": "29708", "timestamp": 4049873.62}
{"type": "machine_available", "resources": "29708", "timestamp": 4136273.62}
{"type": "machine_unavailable", "resources": "22195", "timestamp": 4050070.29}
{"type": "machine_available", "resources": "22195", "timestamp": 4136470.29}
{"type": "machine_unavailable", "resources": "31836", "timestamp": 4053457.16}
{"type": "machine_available", "resources": "31836", "timestamp": 4139857.16}
{"type": "machine_unavailable", "resources": "42365", "timestamp": 4053901.96}
{"type": "machine_available", "resources": "42365", "timestamp": 4140301.96}
{"type": "machine_unavailable", "resources": "37395", "timestamp": 4102460.48}
{"type": "machine_available", "resources": "37395", "timestamp": 4188860.48}
{"type": "machine_unavailable", "resources": "45331", "timestamp": 4102804.14}
{"type": "machine_available", "resources": "45331", "timestamp": 4189204.14}
{"type": "machine_unavailable", "resources": "9062", "timestamp": 4110695.65}
{"type": "machine_available", "resources": "9062", "timestamp": 4197095.65}
{"type": "machine_unavailable", "resources": "9076", "timestamp": 4126900.79}
{"type": "machine_available", "resources": "9076", "timestamp": 4213300.79}
{"type": "machine_unavailable", "resources": "18147", "timestamp": 4132299.12}
{"type": "machine_available", "resources": "18147", "timestamp": 4218699.12}
{"type": "machine_unavailable", "resources": "26285", "timestamp": 4141428.02}
{"type": "machine_available", "resources": "26285", "timestamp": 4227828.02}
{"type": "machine_unavailable", "resources": "5848", "timestamp": 4144829.17}
{"type": "machine_available", "resources": "5848", "timestamp": 4231229.17}
{"type": "machine_unavailable", "resources": "490", "timestamp": 4149616.44}
{"type": "machine_available", "resources": "490", "timestamp": 4236016.44}
{"type": "machine_unavailable", "resources": "20790", "timestamp": 4153135.47}
{"type": "machine_available", "resources": "20790", "timestamp": 4239535.47}
{"type": "machine_unavailable", "resources": "42522", "timestamp": 4165644.53}
{"type": "machine_available", "resources": "42522", "timestamp": 4252044.53}
{"type": "machine_unavailable", "resources": "44991", "timestamp": 4211205.91}
{"type": "machine_available", "resources": "44991", "timestamp": 4297605.91}
{"type": "machine_unavailable", "resources": "14793", "timestamp": 4229551.23}
{"type": "machine_available", "resources": "14793", "timestamp": 4315951.23}
{"type": "machine_unavailable", "resources": "32445", "timestamp": 4234452.64}
{"type": "machine_available", "resources": "32445", "timestamp": 4320852.64}
{"type": "machine_unavailable", "resources": "14749", "timestamp": 4255357.67}
{"type": "machine_available", "resources": "14749", "timestamp": 4341757.67}
{"type": "machine_unavailable", "resources": "22082", "timestamp": 4277816.94}
{"type": "machine_available", "resources": "22082", "timestamp": 4364216.94}
{"type": "machine_unavailable", "resources": "47724", "timestamp": 4292611.27}
{"type": "machine_available", "resources": "47724", "timestamp": 4379011.27}
{"type": "machine_unavailable", "resources": "18037", "timestamp": 4337565.63}
{"type": "machine_available", "resources": "18037", "timestamp": 4423965.63}
{"type": "machine_unavailable", "resources": "14383", "timestamp": 4402154.42}
{"type": "machine_available", "resources": "14383", "timestamp": 4488554.42}
{"type": "machine_unavailable", "resources": "4689", "timestamp": 4403043.58}
{"type": "machine_available", "resources": "4689", "timestamp": 4489443.58}
{"type": "machine_unavailable", "resources": "42289", "timestamp": 4428972.86}
{"type": "machine_available", "resources": "42289", "timestamp": 4515372.86}
{"type": "machine_unavailable", "resources": "10450", "timestamp": 4466755.3}
{"type": "machine_available", "resources": "10450", "timestamp": 4553155.3}
{"type": "machine_unavailable", "resources": "13359", "timestamp": 4479655.64}
{"type": "machine_available", "resources": "13359", "timestamp": 4566055.64}
{"type": "machine_unavailable", "resources": "45387", "timestamp": 4486381.86}
{"type": "machine_available", "resources": "45387", "timestamp": 4572781.86}
{"type": "machine_unavailable", "resources": "36196", "timestamp": 4492790.86}
{"type": "machine_available", "resources": "36196", "timestamp": 4579190.86}
{"type": "machine_unavailable", "resources": "45959", "timestamp": 4501153.68}
{"type": "machine_available", "resources": "45959", "timestamp": 4587553.68}
{"type": "machine_unavailable", "resources": "30459", "timestamp": 4522901.91}
{"type": "machine_available", "resources": "30459", "timestamp": 4609301.91}
{"type": "machine_unavailable", "resources": "8076", "timestamp": 4539152.78}
{"type": "machine_available", "resources": "8076", "timestamp": 4625552.78}
{"type": "machine_unavailable", "resources": "33682", "timestamp": 4579998.25}
{"type": "machine_available", "resources": "33682", "timestamp": 4666398.25}
{"type": "machine_unavailable", "resources": "11552", "timestamp": 4595241.39}
{"type": "machine_available", "resources": "11552", "timestamp": 4681641.39}
{"type": "machine_unavailable", "resources": "27967", "timestamp": 4598289.53}
{"type": "machine_available", "resources": "27967", "timestamp": 4684689.53}
{"type": "machine_unavailable", "resources": "37323", "timestamp": 4602706.96}
{"type": "machine_available", "resources": "37323", "timestamp": 4689106.96}
{"type": "machine_unavailable", "resources": "3416", "timestamp": 4625594.5}
{"type": "machine_available", "resources": "3416", "timestamp": 4711994.5}
{"type": "machine_unavailable", "resources": "25795", "timestamp": 4637892.96}
{"type": "machine_available", "resources": "25795", "timestamp": 4724292.96}
{"type": "machine_unavailable", "resources": "22805", "timestamp": 4660624.26}
{"type": "machine_available", "resources": "22805", "timestamp": 4747024.26}
{"type": "machine_unavailable", "resources": "10800", "timestamp": 4669344.73}
{"type": "machine_available", "resources": "10800", "timestamp": 4755744.73}
{"type": "machine_unavailable", "resources": "2667", "timestamp": 4683488.25}
{"type": "machine_available", "resources": "2667", "timestamp": 4769888.25}
{"type": "machine_unavailable", "resources": "5924", "timestamp": 4696856.9}
{"type": "machine_available", "resources": "5924", "timestamp": 4783256.9}
{"type": "machine_unavailable", "resources": "41186", "timestamp": 4726556.3}
{"type": "machine_available", "resources": "41186", "timestamp": 4812956.3}
{"type": "machine_unavailable", "resources": "48293", "timestamp": 4728473.73}
{"type": "machine_available", "resources": "48293", "timestamp": 4814873.73}
{"type": "machine_unavailable", "resources": "9117", "timestamp": 4772398.63}
{"type": "machine_available", "resources": "9117", "timestamp": 4858798.63}
{"type": "machine_unavailable", "resources": "40429", "timestamp": 4835059.65}
{"type": "machine_available", "resources": "40429", "timestamp": 4921459.65}
{"type": "machine_unavailable", "resources": "43235", "timestamp": 4868264.66}
{"type": "machine_available", "resources": "43235", "timestamp": 4954664.66}
{"type": "machine_unavailable", "resources": "5374", "timestamp": 4889151.29}
{"type": "machine_available", "resources": "5374", "timestamp": 4975551.29}
{"type": "machine_unavailable", "resources": "15793", "timestamp": 4899751.36}
{"type": "machine_available", "resources": "15793", "timestamp": 4986151.36}
{"type": "machine_unavailable", "resources": "25057", "timestamp": 4963608.9}
{"type": "machine_available", "resources": "25057", "timestamp": 5050008.9}
{"type": "machine_unavailable", "resources": "28371", "timestamp": 5014249.42}
{"type": "machine_available", "resources": "28371", "timestamp": 5100649.42}
